Time	SOD	Volt	Current	Temp	Signal	Latitude	Longitude	CellID	Power	Distance
1408228100491	84	4053447	435800	410	9	37.44683179	-122.16480726	4840551	1.7664922026e+12	9.31781851105
1408228100496	84	4052562	430000	410	9	37.44683179	-122.16480726	4840551	1.74260166e+12	9.31781851105
1408228100519	84	4053150	419300	410	9	37.44683179	-122.16480726	4840551	1.699485795e+12	9.31781851105
1408228100534	84	4049904	445400	410	9	37.44683179	-122.16480726	4840551	1.8038272416e+12	9.31781851105
1408228100555	84	4068501	352400	410	9	37.44683179	-122.16480726	4840551	1.4337397524e+12	9.31781851105
1408228100574	84	4075881	313900	410	9	37.44683179	-122.16480726	4840551	1.2794190459e+12	9.31781851105
1408228100612	84	4073520	256600	410	9	37.44683179	-122.16480726	4840551	1.045265232e+12	9.31781851105
1408228100647	84	4075584	278100	410	9	37.44683179	-122.16480726	4840551	1.1334199104e+12	9.31781851105
1408228100670	84	4062303	324600	410	9	37.44683179	-122.16480726	4840551	1.3186235538e+12	9.31781851105
1408228100690	84	4065255	302600	410	9	37.44683179	-122.16480726	4840551	1.230146163e+12	9.31781851105
1408228100709	84	4065549	350800	410	9	37.44683179	-122.16480726	4840551	1.4261945892e+12	9.31781851105
1408228100744	84	4056693	273700	410	9	37.44683179	-122.16480726	4840551	1.1103168741e+12	9.31781851105
1408228100763	84	4069977	319500	410	9	37.44683179	-122.16480726	4840551	1.3003576515e+12	9.31781851105
1408228100783	84	4070862	338200	410	9	37.44683179	-122.16480726	4840551	1.3767655284e+12	9.31781851105
1408228100801	84	4072338	285600	410	9	37.44683179	-122.16480726	4840551	1.1630597328e+12	9.31781851105
1408228100825	84	4053447	397200	410	9	37.44683179	-122.16480726	4840551	1.6100291484e+12	9.31781851105
1408228100843	84	4069386	406200	410	9	37.44683179	-122.16480726	4840551	1.6529845932e+12	9.31781851105
1408228100863	84	4076175	329800	410	9	37.44683179	-122.16480726	4840551	1.344322515e+12	9.31781851105
1408228100885	84	4077945	274200	410	9	37.44683179	-122.16480726	4840551	1.118172519e+12	9.31781851105
1408228100914	84	4078536	262900	410	9	37.44683179	-122.16480726	4840551	1.0722471144e+12	9.31781851105
1408228100959	84	4075290	284400	410	9	37.44683179	-122.16480726	4840551	1.159012476e+12	9.31781851105
1408228100977	84	4063779	292400	410	9	37.44683179	-122.16480726	4840551	1.1882489796e+12	9.31781851105
1408228100997	84	4061712	297500	410	9	37.44683179	-122.16480726	4840551	1.20835932e+12	9.31781851105
1408228101017	84	4064073	259400	410	9	37.44683179	-122.16480726	4840551	1.0542205362e+12	9.31781851105
1408228101043	84	4054626	328100	410	9	37.44683179	-122.16480726	4840551	1.3303227906e+12	9.31781851105
1408228101061	84	4071747	396600	410	9	37.44683179	-122.16480726	4840551	1.6148548602e+12	9.31781851105
1408228101078	84	4063482	298600	410	9	37.44683179	-122.16480726	4840551	1.2133557252e+12	9.31781851105
1408228101097	84	4065255	287900	410	9	37.44683179	-122.16480726	4840551	1.1703869145e+12	9.31781851105
1408228101125	84	4065255	250500	410	9	37.44683179	-122.16480726	4840551	1.0183463775e+12	9.31781851105
1408228101143	84	4069386	415300	411	9	37.44683179	-122.16480726	4840551	1.6900160058e+12	9.31781851105
1408228101163	84	4074996	329200	410	9	37.44683179	-122.16480726	4840551	1.3414886832e+12	9.31781851105
1408228101184	84	4077945	283900	410	9	37.44683179	-122.16480726	4840551	1.1577285855e+12	9.31781851105
1408228101214	84	4078242	267400	410	9	37.44683179	-122.16480726	4840551	1.0905219108e+12	9.31781851105
1408228101261	84	4077060	283300	410	9	37.44683179	-122.16480726	4840551	1.155031098e+12	9.31781851105
1408228101278	84	4063188	305400	410	9	37.44683179	-122.16480726	4840551	1.2408976152e+12	9.31781851105
1408228101296	84	4063779	311100	410	9	37.44683179	-122.16480726	4840551	1.2642416469e+12	9.31781851105
1408228101316	84	4061121	319000	410	9	37.44683179	-122.16480726	4840551	1.295497599e+12	9.31781851105
1408228101343	84	4053150	315500	410	9	37.44683179	-122.16480726	4840551	1.278768825e+12	9.31781851105
1408228101361	84	4067616	427200	410	9	37.44683179	-122.16480726	4840551	1.7376855552e+12	9.31781851105
1408228101378	84	4060530	332600	410	9	37.44683179	-122.16480726	4840551	1.350532278e+12	9.31781851105
1408228101397	84	4062006	309900	410	9	37.44683179	-122.16480726	4840551	1.2588156594e+12	9.31781851105
1408228101429	84	4062597	265700	410	9	37.44683179	-122.16480726	4840551	1.0794320229e+12	9.31781851105
1408228101447	84	4059645	440300	410	9	37.44683179	-122.16480726	4840551	1.7874616935e+12	9.31781851105
1408228101474	84	4070271	319500	410	9	37.44683179	-122.16480726	4840551	1.3004515845e+12	9.31781851105
1408228101510	84	4070271	323500	410	9	37.44683179	-122.16480726	4840551	1.3167326685e+12	9.31781851105
1408228101531	84	4070271	317300	410	9	37.44683179	-122.16480726	4840551	1.2914969883e+12	9.31781851105
1408228101582	84	4069977	329800	411	9	37.44683179	-122.16480726	4840551	1.3422784146e+12	9.31781851105
1408228101599	84	4065255	336500	410	9	37.44683179	-122.16480726	4840551	1.3679583075e+12	9.31781851105
1408228101617	84	4064664	344000	410	9	37.44683179	-122.16480726	4840551	1.398244416e+12	9.31781851105
1408228101634	84	4058463	337700	410	9	37.44683179	-122.16480726	4840551	1.3705429551e+12	9.31781851105
1408228101656	84	4056399	351300	411	9	37.44683179	-122.16480726	4840551	1.4250129687e+12	9.31781851105
1408228101686	84	4054038	422100	411	9	37.44683179	-122.16480726	4840551	1.7112094398e+12	9.31781851105
1408228101704	84	4065843	353600	411	9	37.44683179	-122.16480726	4840551	1.4376820848e+12	9.31781851105
1408228101721	84	4063482	365500	411	9	37.44683179	-122.16480726	4840551	1.485202671e+12	9.31781851105
1408228101739	84	4065549	359800	410	9	37.44683179	-122.16480726	4840551	1.4627845302e+12	9.31781851105
1408228101776	84	4064664	359800	410	9	37.44683179	-122.16480726	4840551	1.4624661072e+12	9.31781851105
1408228101824	84	4074108	299800	410	9	37.44683179	-122.16480726	4840551	1.2214175784e+12	9.31781851105
1408228101846	84	4078242	255000	410	9	37.44683179	-122.16480726	4840551	1.03995171e+12	9.31781851105
1408228101868	84	4076469	284400	410	9	37.44683179	-122.16480726	4840551	1.1593477836e+12	9.31781851105
1408228101889	84	4077945	255500	410	9	37.44683179	-122.16480726	4840551	1.0419149475e+12	9.31781851105
1408228101918	84	4076766	286700	410	9	37.44683179	-122.16480726	4840551	1.1688088122e+12	9.31781851105
1408228101957	84	4052265	296800	410	9	37.44683179	-122.16480726	4840551	1.202712252e+12	9.31781851105
1408228101977	84	4058463	305400	410	9	37.44683179	-122.16480726	4840551	1.2394546002e+12	9.31781851105
1408228101996	84	4061712	303100	410	9	37.44683179	-122.16480726	4840551	1.2311049072e+12	9.31781851105
1408228102031	84	4062303	333700	410	9	37.44683179	-122.16480726	4840551	1.3555905111e+12	9.31781851105
1408228102050	84	4060827	302600	410	9	37.44683179	-122.16480726	4840551	1.2288062502e+12	9.31781851105
1408228102068	84	4059645	283900	410	9	37.44683179	-122.16480726	4840551	1.1525332155e+12	9.31781851105
1408228102087	84	4062597	291200	410	9	37.44683179	-122.16480726	4840551	1.1830282464e+12	9.31781851105
1408228102111	84	4063188	313400	410	9	37.44683179	-122.16480726	4840551	1.2734031192e+12	9.31781851105
1408228102128	84	4051380	444200	410	9	37.44683179	-122.16480726	4840551	1.799622996e+12	9.31781851105
1408228102151	84	4069680	336000	410	9	37.44683179	-122.16480726	4840551	1.36741248e+12	9.31781851105
1408228102171	84	4067616	281000	410	9	37.44683179	-122.16480726	4840551	1.143000096e+12	9.31781851105
1408228102194	84	4069680	310500	410	9	37.44683179	-122.16480726	4840551	1.26363564e+12	9.31781851105
1408228102227	84	4073223	298000	410	9	37.44683179	-122.16480726	4840551	1.213820454e+12	9.31781851105
1408228102277	84	4072632	298600	410	9	37.44683179	-122.16480726	4840551	1.2160879152e+12	9.31781851105
1408228102298	84	4076766	277600	410	9	37.44683179	-122.16480726	4840551	1.1317102416e+12	9.31781851105
1408228102318	84	4072929	289500	410	9	37.44683179	-122.16480726	4840551	1.1791129455e+12	9.31781851105
1408228102342	84	4076175	273100	410	9	37.44683179	-122.16480726	4840551	1.1132033925e+12	9.31781851105
1408228102380	84	4071453	321800	410	9	37.44683179	-122.16480726	4840551	1.3101935754e+12	9.31781851105
1408228102407	84	4051971	324600	410	9	37.44683179	-122.16480726	4840551	1.3152697866e+12	9.31781851105
1408228102427	84	4059645	287200	410	9	37.44683179	-122.16480726	4840551	1.165930044e+12	9.31781851105
1408228102447	84	4056693	313900	410	9	37.44683179	-122.16480726	4840551	1.2733959327e+12	9.31781851105
1408228102472	84	4058463	387500	410	9	37.44683179	-122.16480726	4840551	1.5726544125e+12	9.31781851105
1408228102491	84	4058463	387500	410	9	37.4467304	-122.16491521	4840551	1.5726544125e+12	24.0783313033
1408228102491	84	4049610	462400	410	9	37.4467304	-122.16491521	4840551	1.872539664e+12	24.0783313033
1408228102507	84	4050198	439800	410	9	37.4467304	-122.16491521	4840551	1.7812770804e+12	24.0783313033
1408228102527	84	4055514	293500	410	9	37.4467304	-122.16491521	4840551	1.190293359e+12	24.0783313033
1408228102545	84	4070271	313900	410	9	37.4467304	-122.16491521	4840551	1.2776580669e+12	24.0783313033
1408228102573	84	4049313	337200	410	9	37.4467304	-122.16491521	4840551	1.3654283436e+12	24.0783313033
1408228102591	84	4067319	359800	410	9	37.4467304	-122.16491521	4840551	1.4634213762e+12	24.0783313033
1408228102612	84	4067025	276000	410	9	37.4467304	-122.16491521	4840551	1.1224989e+12	24.0783313033
1408228102631	84	4069977	294000	410	9	37.4467304	-122.16491521	4840551	1.196573238e+12	24.0783313033
1408228102664	84	4078833	283900	410	9	37.4467304	-122.16491521	4840551	1.1579806887e+12	24.0783313033
1408228102702	84	4072338	323500	410	9	37.4467304	-122.16491521	4840551	1.317401343e+12	24.0783313033
1408228102718	84	4059645	323500	410	9	37.4467304	-122.16491521	4840551	1.3132951575e+12	24.0783313033
1408228102738	84	4062006	334200	410	9	37.4467304	-122.16491521	4840551	1.3575224052e+12	24.0783313033
1408228102756	84	4059939	337700	410	9	37.4467304	-122.16491521	4840551	1.3710414003e+12	24.0783313033
1408228102783	84	4048428	391500	410	9	37.4467304	-122.16491521	4840551	1.584959562e+12	24.0783313033
1408228102800	84	4067910	368300	410	9	37.4467304	-122.16491521	4840551	1.498211253e+12	24.0783313033
1408228102820	84	4063482	287900	410	9	37.4467304	-122.16491521	4840551	1.1698764678e+12	24.0783313033
1408228102838	84	4062006	320100	410	9	37.4467304	-122.16491521	4840551	1.3002481206e+12	24.0783313033
1408228102861	84	4061415	343300	410	9	37.4467304	-122.16491521	4840551	1.3942837695e+12	24.0783313033
1408228102880	84	4055514	490700	410	9	37.4467304	-122.16491521	4840551	1.9900407198e+12	24.0783313033
1408228102899	84	4068795	366600	410	9	37.4467304	-122.16491521	4840551	1.491620247e+12	24.0783313033
1408228102920	84	4071453	284900	410	9	37.4467304	-122.16491521	4840551	1.1599569597e+12	24.0783313033
1408228102954	84	4072338	300800	410	9	37.4467304	-122.16491521	4840551	1.2249592704e+12	24.0783313033
1408228102998	84	4072929	304800	410	9	37.4467304	-122.16491521	4840551	1.2414287592e+12	24.0783313033
1408228103016	84	4065843	367200	410	9	37.4467304	-122.16491521	4840551	1.4929775496e+12	24.0783313033
1408228103035	84	4059645	292400	410	9	37.4467304	-122.16491521	4840551	1.187040198e+12	24.0783313033
1408228103054	84	4065843	309400	410	9	37.4467304	-122.16491521	4840551	1.2579718242e+12	24.0783313033
1408228103083	84	4051086	347300	410	9	37.4467304	-122.16491521	4840551	1.4069421678e+12	24.0783313033
1408228103101	84	4070271	344500	410	9	37.4467304	-122.16491521	4840551	1.4022083595e+12	24.0783313033
1408228103117	84	4061712	291200	410	9	37.4467304	-122.16491521	4840551	1.1827705344e+12	24.0783313033
1408228103137	84	4063482	273100	410	9	37.4467304	-122.16491521	4840551	1.1097369342e+12	24.0783313033
1408228103160	84	4060530	320100	410	9	37.4467304	-122.16491521	4840551	1.299775653e+12	24.0783313033
1408228103178	84	4051674	469200	410	9	37.4467304	-122.16491521	4840551	1.9010454408e+12	24.0783313033
1408228103201	84	4068795	328600	410	9	37.4467304	-122.16491521	4840551	1.337006037e+12	24.0783313033
1408228103222	84	4071747	296300	410	9	37.4467304	-122.16491521	4840551	1.2064586361e+12	24.0783313033
1408228103254	84	4074699	281000	410	9	37.4467304	-122.16491521	4840551	1.144990419e+12	24.0783313033
1408228103297	84	4065843	315500	410	9	37.4467304	-122.16491521	4840551	1.2827734665e+12	24.0783313033
1408228103318	84	4058760	292400	410	9	37.4467304	-122.16491521	4840551	1.186781424e+12	24.0783313033
1408228103337	84	4064073	292900	410	9	37.4467304	-122.16491521	4840551	1.1903669817e+12	24.0783313033
1408228103355	84	4064664	323500	410	9	37.4467304	-122.16491521	4840551	1.314918804e+12	24.0783313033
1408228103381	84	4050789	299100	410	9	37.4467304	-122.16491521	4840551	1.2115909899e+12	24.0783313033
1408228103401	84	4056399	385300	410	9	37.4467304	-122.16491521	4840551	1.5629305347e+12	24.0783313033
1408228103418	84	4060236	328100	410	9	37.4467304	-122.16491521	4840551	1.3321634316e+12	24.0783313033
1408228103437	84	4060827	287900	410	9	37.4467304	-122.16491521	4840551	1.1691120933e+12	24.0783313033
1408228103461	84	4068501	333700	410	9	37.4467304	-122.16491521	4840551	1.3576587837e+12	24.0783313033
1408228103481	84	4050789	456700	410	9	37.4467304	-122.16491521	4840551	1.8499953363e+12	24.0783313033
1408228103498	84	4060236	455500	410	9	37.4467304	-122.16491521	4840551	1.849437498e+12	24.0783313033
1408228103521	84	4069092	316200	410	9	37.4467304	-122.16491521	4840551	1.2866468904e+12	24.0783313033
1408228103542	84	4070568	305900	410	9	37.4467304	-122.16491521	4840551	1.2451867512e+12	24.0783313033
1408228103574	84	4063482	294000	410	9	37.4467304	-122.16491521	4840551	1.194663708e+12	24.0783313033
1408228103601	84	4063482	372300	410	9	37.4467304	-122.16491521	4840551	1.5128343486e+12	24.0783313033
1408228103622	84	4069680	324100	410	9	37.4467304	-122.16491521	4840551	1.318983288e+12	24.0783313033
1408228103645	84	4075290	282700	410	9	37.4467304	-122.16491521	4840551	1.152084483e+12	24.0783313033
1408228103671	84	4074108	278100	410	9	37.4467304	-122.16491521	4840551	1.1330094348e+12	24.0783313033
1408228103707	84	4071156	343300	410	9	37.4467304	-122.16491521	4840551	1.3976278548e+12	24.0783313033
1408228103753	84	4072338	309400	410	9	37.4467304	-122.16491521	4840551	1.2599813772e+12	24.0783313033
1408228103770	84	4065843	356400	410	9	37.4467304	-122.16491521	4840551	1.4490664452e+12	24.0783313033
1408228103788	84	4059645	347300	410	9	37.4467304	-122.16491521	4840551	1.4099147085e+12	24.0783313033
1408228103806	84	4059939	371100	410	9	37.4467304	-122.16491521	4840551	1.5066433629e+12	24.0783313033
1408228103837	84	4059054	443100	410	9	37.4467304	-122.16491521	4840551	1.7985668274e+12	24.0783313033
1408228103857	84	4061121	336000	410	9	37.4467304	-122.16491521	4840551	1.364536656e+12	24.0783313033
1408228103876	84	4057578	297500	410	9	37.4467304	-122.16491521	4840551	1.207129455e+12	24.0783313033
1408228103912	84	4058169	314500	410	9	37.4467304	-122.16491521	4840551	1.2762941505e+12	24.0783313033
1408228103930	84	4058463	346800	410	9	37.4467304	-122.16491521	4840551	1.4074749684e+12	24.0783313033
1408228103950	84	4062891	354100	410	9	37.4467304	-122.16491521	4840551	1.4386697031e+12	24.0783313033
1408228103968	84	4067910	281600	410	9	37.4467304	-122.16491521	4840551	1.145523456e+12	24.0783313033
1408228103994	84	4063482	288900	410	9	37.4467304	-122.16491521	4840551	1.1739399498e+12	24.0783313033
1408228104038	84	4071453	366000	410	9	37.4467304	-122.16491521	4840551	1.490151798e+12	24.0783313033
1408228104059	84	4075290	286700	410	9	37.4467304	-122.16491521	4840551	1.168385643e+12	24.0783313033
1408228104082	84	4075881	282100	410	9	37.4467304	-122.16491521	4840551	1.1498060301e+12	24.0783313033
1408228104104	84	4077945	299100	410	9	37.4467304	-122.16491521	4840551	1.2197133495e+12	24.0783313033
1408228104137	84	4073814	295200	410	9	37.4467304	-122.16491521	4840551	1.2025898928e+12	24.0783313033
1408228104187	84	4069092	294700	410	9	37.4467304	-122.16491521	4840551	1.1991614124e+12	24.0783313033
1408228104208	84	4071747	304300	410	9	37.4467304	-122.16491521	4840551	1.2390326121e+12	24.0783313033
1408228104231	84	4074996	263400	410	9	37.4467304	-122.16491521	4840551	1.0733539464e+12	24.0783313033
1408228104251	84	4079127	260100	410	9	37.4467304	-122.16491521	4840551	1.0609809327e+12	24.0783313033
1408228104286	84	4073223	300800	410	9	37.4467304	-122.16491521	4840551	1.2252254784e+12	24.0783313033
1408228104317	84	4056102	305900	410	9	37.4467304	-122.16491521	4840551	1.2407616018e+12	24.0783313033
1408228104337	84	4057284	315000	410	9	37.4467304	-122.16491521	4840551	1.27804446e+12	24.0783313033
1408228104357	84	4057875	357500	410	9	37.4467304	-122.16491521	4840551	1.4506903125e+12	24.0783313033
1408228104391	84	4058463	313400	410	9	37.4467304	-122.16491521	4840551	1.2719223042e+12	24.0783313033
1408228104409	84	4054923	336500	410	9	37.4467304	-122.16491521	4840551	1.3644815895e+12	24.0783313033
1408228104427	84	4062006	287900	410	9	37.4467304	-122.16491521	4840551	1.1694515274e+12	24.0783313033
1408228104447	84	4054923	319000	410	9	37.4467304	-122.16491521	4840551	1.293520437e+12	24.0783313033
1408228104470	84	4059645	397800	410	9	37.4467304	-122.16491521	4840551	1.614926781e+12	24.0783313033
1408228104490	84	4059645	397800	410	9	37.44660543	-122.16503984	4840551	1.614926781e+12	41.7982927956
1408228104491	84	4049313	451700	410	9	37.44660543	-122.16503984	4840551	1.8290746821e+12	41.7982927956
1408228104510	84	4059054	451700	410	9	37.44660543	-122.16503984	4840551	1.8334746918e+12	41.7982927956
1408228104529	84	4067910	354100	410	9	37.44660543	-122.16503984	4840551	1.440446931e+12	41.7982927956
1408228104550	84	4070568	292400	410	9	37.44660543	-122.16503984	4840551	1.1902340832e+12	41.7982927956
1408228104583	84	4072929	261200	410	9	37.44660543	-122.16503984	4840551	1.0638490548e+12	41.7982927956
1408228104632	84	4067319	342200	410	9	37.44660543	-122.16503984	4840551	1.3918365618e+12	41.7982927956
1408228104651	84	4077651	265700	410	9	37.44660543	-122.16503984	4840551	1.0834318707e+12	41.7982927956
1408228104673	84	4074699	263400	410	9	37.44660543	-122.16503984	4840551	1.0732757166e+12	41.7982927956
1408228104697	84	4076175	265700	410	9	37.44660543	-122.16503984	4840551	1.0830396975e+12	41.7982927956
1408228104742	84	4072632	318500	410	9	37.44660543	-122.16503984	4840551	1.297133292e+12	41.7982927956
1408228104779	84	4072338	312700	410	9	37.44660543	-122.16503984	4840551	1.2734200926e+12	41.7982927956
1408228104799	84	4072929	288900	410	9	37.44660543	-122.16503984	4840551	1.1766691881e+12	41.7982927956
1408228104821	84	4071747	285600	410	9	37.44660543	-122.16503984	4840551	1.1628909432e+12	41.7982927956
1408228104845	84	4080012	262300	410	9	37.44660543	-122.16503984	4840551	1.0701871476e+12	41.7982927956
1408228104882	84	4072632	298000	410	9	37.44660543	-122.16503984	4840551	1.213644336e+12	41.7982927956
1408228104914	84	4054626	312200	410	9	37.44660543	-122.16503984	4840551	1.2658542372e+12	41.7982927956
1408228104933	84	4068795	316700	410	9	37.44660543	-122.16503984	4840551	1.2885873765e+12	41.7982927956
1408228104953	84	4069977	307100	410	9	37.44660543	-122.16503984	4840551	1.2498899367e+12	41.7982927956
1408228104978	84	4069092	334900	410	9	37.44660543	-122.16503984	4840551	1.3627389108e+12	41.7982927956
1408228104996	84	4054332	455500	410	9	37.44660543	-122.16503984	4840551	1.846748226e+12	41.7982927956
1408228105014	84	4063482	365500	410	9	37.44660543	-122.16503984	4840551	1.485202671e+12	41.7982927956
1408228105034	84	4067910	293500	410	9	37.44660543	-122.16503984	4840551	1.193931585e+12	41.7982927956
1408228105061	84	4064664	312200	410	9	37.44660543	-122.16503984	4840551	1.2689881008e+12	41.7982927956
1408228105080	84	4069092	446500	410	9	37.44660543	-122.16503984	4840551	1.816849578e+12	41.7982927956
1408228105100	84	4061121	366600	410	9	37.44660543	-122.16503984	4840551	1.4888069586e+12	41.7982927956
1408228105120	84	4069386	298600	410	9	37.44660543	-122.16503984	4840551	1.2151186596e+12	41.7982927956
1408228105154	84	4072338	312200	410	9	37.44660543	-122.16503984	4840551	1.2713839236e+12	41.7982927956
1408228105195	84	4071453	315500	410	9	37.44660543	-122.16503984	4840551	1.2845434215e+12	41.7982927956
1408228105214	84	4065549	308200	410	9	37.44660543	-122.16503984	4840551	1.2530022018e+12	41.7982927956
1408228105233	84	4068795	323000	410	9	37.44660543	-122.16503984	4840551	1.314220785e+12	41.7982927956
1408228105253	84	4064664	308200	410	9	37.44660543	-122.16503984	4840551	1.2527294448e+12	41.7982927956
1408228105283	84	4050495	344000	410	9	37.44660543	-122.16503984	4840551	1.39337028e+12	41.7982927956
1408228105300	84	4064664	388700	410	9	37.44660543	-122.16503984	4840551	1.5799348968e+12	41.7982927956
1408228105318	84	4054626	332600	410	9	37.44660543	-122.16503984	4840551	1.3485686076e+12	41.7982927956
1408228105336	84	4060827	351300	410	9	37.44660543	-122.16503984	4840551	1.4265685251e+12	41.7982927956
1408228105361	84	4052856	330900	410	9	37.44660543	-122.16503984	4840551	1.3410900504e+12	41.7982927956
1408228105378	84	4055514	468100	410	9	37.44660543	-122.16503984	4840551	1.8983861034e+12	41.7982927956
1408228105396	84	4056693	356400	410	9	37.44660543	-122.16503984	4840551	1.4458053852e+12	41.7982927956
1408228105419	84	4064958	312200	410	9	37.44660543	-122.16503984	4840551	1.2690798876e+12	41.7982927956
1408228105462	84	4068204	325800	410	9	37.44660543	-122.16503984	4840551	1.3254208632e+12	41.7982927956
1408228105517	84	4072044	307600	410	9	37.44660543	-122.16503984	4840551	1.2525607344e+12	41.7982927956
1408228105533	84	4049313	474300	410	9	37.44660543	-122.16503984	4840551	1.9205891559e+12	41.7982927956
1408228105551	84	4068204	324600	410	9	37.44660543	-122.16503984	4840551	1.3205390184e+12	41.7982927956
1408228105568	84	4059939	307100	410	9	37.44660543	-122.16503984	4840551	1.2468072669e+12	41.7982927956
1408228105603	84	4051674	308200	410	9	37.44660543	-122.16503984	4840551	1.2487259268e+12	41.7982927956
1408228105623	84	4064367	362000	411	9	37.44660543	-122.16503984	4840551	1.471300854e+12	41.7982927956
1408228105643	84	4066434	315000	410	9	37.44660543	-122.16503984	4840551	1.28092671e+12	41.7982927956
1408228105661	84	4069386	346200	410	9	37.44660543	-122.16503984	4840551	1.4088214332e+12	41.7982927956
1408228105688	84	4049313	373900	410	9	37.44660543	-122.16503984	4840551	1.5140381307e+12	41.7982927956
1408228105711	84	4059939	356900	410	9	37.44660543	-122.16503984	4840551	1.4489922291e+12	41.7982927956
1408228105731	84	4065549	333200	410	9	37.44660543	-122.16503984	4840551	1.3546409268e+12	41.7982927956
1408228105751	84	4068795	280400	410	9	37.44660543	-122.16503984	4840551	1.140890118e+12	41.7982927956
1408228105783	84	4072632	267400	410	9	37.44660543	-122.16503984	4840551	1.0890217968e+12	41.7982927956
1408228105832	84	4070271	302000	410	9	37.44660543	-122.16503984	4840551	1.229221842e+12	41.7982927956
1408228105851	84	4075290	268500	410	9	37.44660543	-122.16503984	4840551	1.094215365e+12	41.7982927956
1408228105871	84	4070862	278800	410	9	37.44660543	-122.16503984	4840551	1.1349563256e+12	41.7982927956
1408228105895	84	4073814	284900	410	9	37.44660543	-122.16503984	4840551	1.1606296086e+12	41.7982927956
1408228105925	84	4057875	341100	410	9	37.44660543	-122.16503984	4840551	1.3841411625e+12	41.7982927956
1408228105974	84	4070862	333200	410	9	37.44660543	-122.16503984	4840551	1.3564112184e+12	41.7982927956
1408228105997	84	4071747	287200	410	9	37.44660543	-122.16503984	4840551	1.1694057384e+12	41.7982927956
1408228106022	84	4069680	321300	410	9	37.44660543	-122.16503984	4840551	1.307588184e+12	41.7982927956
1408228106044	84	4078536	269200	410	9	37.44660543	-122.16503984	4840551	1.0979418912e+12	41.7982927956
1408228106077	84	4073814	296300	410	9	37.44660543	-122.16503984	4840551	1.2070710882e+12	41.7982927956
1408228106126	84	4070271	298600	410	9	37.44660543	-122.16503984	4840551	1.2153829206e+12	41.7982927956
1408228106151	84	4072929	273100	410	9	37.44660543	-122.16503984	4840551	1.1123169099e+12	41.7982927956
1408228106174	84	4078536	271400	410	9	37.44660543	-122.16503984	4840551	1.1069146704e+12	41.7982927956
1408228106199	84	4075881	278800	410	9	37.44660543	-122.16503984	4840551	1.1363556228e+12	41.7982927956
1408228106230	84	4060827	366000	410	9	37.44660543	-122.16503984	4840551	1.486262682e+12	41.7982927956
1408228106264	84	4053741	310500	410	9	37.44660543	-122.16503984	4840551	1.2586865805e+12	41.7982927956
1408228106284	84	4068501	294700	410	9	37.44660543	-122.16503984	4840551	1.1989872447e+12	41.7982927956
1408228106303	84	4068795	318500	410	9	37.44660543	-122.16503984	4840551	1.2959112075e+12	41.7982927956
1408228106330	84	4061415	366000	410	9	37.44660543	-122.16503984	4840551	1.48647789e+12	41.7982927956
1408228106348	84	4056102	486800	410	9	37.44660543	-122.16503984	4840551	1.9745104536e+12	41.7982927956
1408228106367	84	4058463	306600	410	9	37.44660543	-122.16503984	4840551	1.2443247558e+12	41.7982927956
1408228106387	84	4057284	311600	410	9	37.44660543	-122.16503984	4840551	1.2642496944e+12	41.7982927956
1408228106411	84	4054626	345600	410	9	37.44660543	-122.16503984	4840551	1.4012787456e+12	41.7982927956
1408228106428	84	4054626	470900	410	9	37.44660543	-122.16503984	4840551	1.9093233834e+12	41.7982927956
1408228106448	84	4058760	347900	410	9	37.44660543	-122.16503984	4840551	1.412042604e+12	41.7982927956
1408228106474	84	4068501	325800	410	9	37.44660543	-122.16503984	4840551	1.3255176258e+12	41.7982927956
1408228106479	84	4068501	325800	410	9	37.44648946	-122.16516307	4840551	1.3255176258e+12	58.6674794605
1408228106500	84	4068204	336000	410	9	37.44648946	-122.16516307	4840551	1.366916544e+12	58.6674794605
1408228106543	84	4065255	362700	410	9	37.44648946	-122.16516307	4840551	1.4744679885e+12	58.6674794605
1408228106560	84	4065549	351300	410	9	37.44648946	-122.16516307	4840551	1.4282273637e+12	58.6674794605
1408228106583	84	4051674	441900	410	9	37.44648946	-122.16516307	4840551	1.7904347406e+12	58.6674794605
1408228106604	84	4068501	352400	410	9	37.44648946	-122.16516307	4840551	1.4337397524e+12	58.6674794605
1408228106633	84	4045182	364900	410	9	37.44648946	-122.16516307	4840551	1.4760869118e+12	58.6674794605
1408228106650	84	4067910	372800	410	9	37.44648946	-122.16516307	4840551	1.516516848e+12	58.6674794605
1408228106668	84	4061121	287200	410	9	37.44648946	-122.16516307	4840551	1.1663539512e+12	58.6674794605
1408228106687	84	4061121	305400	410	9	37.44648946	-122.16516307	4840551	1.2402663534e+12	58.6674794605
1408228106711	84	4060827	286100	410	9	37.44648946	-122.16516307	4840551	1.1618026047e+12	58.6674794605
1408228106728	84	4045476	483300	410	9	37.44648946	-122.16516307	4840551	1.9551785508e+12	58.6674794605
1408228106747	84	4057578	354700	410	9	37.44648946	-122.16516307	4840551	1.4392229166e+12	58.6674794605
1408228106770	84	4069680	272500	410	9	37.44648946	-122.16516307	4840551	1.1089878e+12	58.6674794605
1408228106790	84	4068204	308800	410	9	37.44648946	-122.16516307	4840551	1.2562613952e+12	58.6674794605
1408228106827	84	4072338	300300	410	9	37.44648946	-122.16516307	4840551	1.2229231014e+12	58.6674794605
1408228106867	84	4056102	305400	410	9	37.44648946	-122.16516307	4840551	1.2387335508e+12	58.6674794605
1408228106887	84	4056693	296300	410	9	37.44648946	-122.16516307	4840551	1.2019981359e+12	58.6674794605
1408228106906	84	4069386	349600	410	9	37.44648946	-122.16516307	4840551	1.4226573456e+12	58.6674794605
1408228106926	84	4064958	302600	410	9	37.44648946	-122.16516307	4840551	1.2300562908e+12	58.6674794605
1408228106957	84	4057875	465800	410	9	37.44648946	-122.16516307	4840551	1.890158175e+12	58.6674794605
1408228106977	84	4056987	303600	410	9	37.44648946	-122.16516307	4840551	1.2317012532e+12	58.6674794605
1408228106997	84	4059645	347900	410	9	37.44648946	-122.16516307	4840551	1.4123504955e+12	58.6674794605
1408228107021	84	4058760	373900	410	9	37.44648946	-122.16516307	4840551	1.517570364e+12	58.6674794605
1408228107038	84	4052562	493600	410	9	37.44648946	-122.16516307	4840551	2.0003446032e+12	58.6674794605
1408228107059	84	4068204	304800	410	9	37.44648946	-122.16516307	4840551	1.2399885792e+12	58.6674794605
1408228107079	84	4070568	292400	410	9	37.44648946	-122.16516307	4840551	1.1902340832e+12	58.6674794605
1408228107114	84	4071156	294000	410	9	37.44648946	-122.16516307	4840551	1.196919864e+12	58.6674794605
1408228107157	84	4070568	324100	410	9	37.44648946	-122.16516307	4840551	1.3192710888e+12	58.6674794605
1408228107177	84	4060827	290100	410	9	37.44648946	-122.16516307	4840551	1.1780459127e+12	58.6674794605
1408228107196	84	4057875	328100	410	9	37.44648946	-122.16516307	4840551	1.3313887875e+12	58.6674794605
1408228107215	84	4058169	366600	410	9	37.44648946	-122.16516307	4840551	1.4877247554e+12	58.6674794605
1408228107238	84	4048428	313400	410	9	37.44648946	-122.16516307	4840551	1.2687773352e+12	58.6674794605
1408228107256	84	4055514	479300	410	9	37.44648946	-122.16516307	4840551	1.9438078602e+12	58.6674794605
1408228107277	84	4056399	276500	410	9	37.44648946	-122.16516307	4840551	1.1215943235e+12	58.6674794605
1408228107297	84	4059645	324100	410	9	37.44648946	-122.16516307	4840551	1.3157309445e+12	58.6674794605
1408228107334	84	4056987	289500	410	9	37.44648946	-122.16516307	4840551	1.1744977365e+12	58.6674794605
1408228107355	84	4061415	363800	410	9	37.44648946	-122.16516307	4840551	1.477542777e+12	58.6674794605
1408228107378	84	4067319	306600	410	9	37.44648946	-122.16516307	4840551	1.2470400054e+12	58.6674794605
1408228107400	84	4066728	312700	410	9	37.44648946	-122.16516307	4840551	1.2716658456e+12	58.6674794605
1408228107436	84	4068795	282100	410	9	37.44648946	-122.16516307	4840551	1.1478070695e+12	58.6674794605
1408228107499	84	4069680	332600	410	9	37.44648946	-122.16516307	4840551	1.353575568e+12	58.6674794605
1408228107517	84	4052856	408000	411	9	37.44648946	-122.16516307	4840551	1.653565248e+12	58.6674794605
1408228107533	84	4045476	458500	410	9	37.44648946	-122.16516307	4840551	1.854850746e+12	58.6674794605
1408228107548	84	4044591	482800	410	9	37.44648946	-122.16516307	4840551	1.9527285348e+12	58.6674794605
1408228107571	84	4045182	464600	410	9	37.44648946	-122.16516307	4840551	1.8793915572e+12	58.6674794605
1408228107588	84	4047837	451700	410	9	37.44648946	-122.16516307	4840551	1.8284079729e+12	58.6674794605
1408228107603	84	4049019	453300	410	9	37.44648946	-122.16516307	4840551	1.8354203127e+12	58.6674794605
1408228107619	84	4047543	451000	411	9	37.44648946	-122.16516307	4840551	1.825441893e+12	58.6674794605
1408228107634	84	4052265	422100	411	9	37.44648946	-122.16516307	4840551	1.7104610565e+12	58.6674794605
1408228107665	84	4028061	469200	411	9	37.44648946	-122.16516307	4840551	1.8899662212e+12	58.6674794605
1408228107688	84	4028652	582600	410	9	37.44648946	-122.16516307	4840551	2.3470926552e+12	58.6674794605
1408228107704	84	4055217	514600	411	9	37.44648946	-122.16516307	4840551	2.0868146682e+12	58.6674794605
1408228107720	84	4056987	466900	410	9	37.44648946	-122.16516307	4840551	1.8942072303e+12	58.6674794605
1408228107737	84	4055217	405700	410	9	37.44648946	-122.16516307	4840551	1.6452015369e+12	58.6674794605
1408228107754	84	4053447	528700	411	9	37.44648946	-122.16516307	4840551	2.1430574289e+12	58.6674794605
1408228107769	84	4059054	405700	410	9	37.44648946	-122.16516307	4840551	1.6467582078e+12	58.6674794605
1408228107784	84	4060827	376200	410	9	37.44648946	-122.16516307	4840551	1.5276831174e+12	58.6674794605
1408228107801	84	4061121	376800	411	9	37.44648946	-122.16516307	4840551	1.5302303928e+12	58.6674794605
1408228107819	84	4044297	501000	411	9	37.44648946	-122.16516307	4840551	2.026192797e+12	58.6674794605
1408228107834	84	4055514	386500	411	9	37.44648946	-122.16516307	4840551	1.567456161e+12	58.6674794605
1408228107850	84	4057284	387500	411	9	37.44648946	-122.16516307	4840551	1.57219755e+12	58.6674794605
1408228107865	84	4057284	375700	410	9	37.44648946	-122.16516307	4840551	1.5243215988e+12	58.6674794605
1408228107882	84	4025109	358100	411	9	37.44648946	-122.16516307	4840551	1.4413915329e+12	58.6674794605
1408228107897	84	4051086	523600	411	9	37.44648946	-122.16516307	4840551	2.1211486296e+12	58.6674794605
1408228107913	84	4046952	453900	411	9	37.44648946	-122.16516307	4840551	1.8369115128e+12	58.6674794605
1408228107928	84	4056102	410200	411	9	37.44648946	-122.16516307	4840551	1.6638130404e+12	58.6674794605
1408228107945	84	4045770	443700	411	9	37.44648946	-122.16516307	4840551	1.795108149e+12	58.6674794605
1408228107961	84	4054626	552500	411	9	37.44648946	-122.16516307	4840551	2.240180865e+12	58.6674794605
1408228107976	84	4056987	402900	411	9	37.44648946	-122.16516307	4840551	1.6345600623e+12	58.6674794605
1408228107992	84	4054038	408500	411	9	37.44648946	-122.16516307	4840551	1.656074523e+12	58.6674794605
1408228108008	84	4059645	367800	410	9	37.44648946	-122.16516307	4840551	1.493137431e+12	58.6674794605
1408228108025	84	4044297	490700	411	9	37.44648946	-122.16516307	4840551	1.9845365379e+12	58.6674794605
1408228108040	84	4050495	410200	411	9	37.44648946	-122.16516307	4840551	1.661513049e+12	58.6674794605
1408228108056	84	4059054	363800	411	9	37.44648946	-122.16516307	4840551	1.4766838452e+12	58.6674794605
1408228108071	84	4063482	388700	411	9	37.44648946	-122.16516307	4840551	1.5794754534e+12	58.6674794605
1408228108090	84	4054332	347900	411	9	37.44648946	-122.16516307	4840551	1.4105021028e+12	58.6674794605
1408228108125	84	4055514	393300	411	9	37.44648946	-122.16516307	4840551	1.5950336562e+12	58.6674794605
1408228108140	84	4063779	368800	411	9	37.44648946	-122.16516307	4840551	1.4987216952e+12	58.6674794605
1408228108156	84	4061121	350100	411	9	37.44648946	-122.16516307	4840551	1.4217984621e+12	58.6674794605
1408228108171	84	4064664	377400	411	9	37.44648946	-122.16516307	4840551	1.5340041936e+12	58.6674794605
1408228108190	84	4055808	406800	411	9	37.44648946	-122.16516307	4840551	1.6499026944e+12	58.6674794605
1408228108224	84	4054923	393300	410	9	37.44648946	-122.16516307	4840551	1.5948012159e+12	58.6674794605
1408228108247	84	4074108	272500	410	9	37.44648946	-122.16516307	4840551	1.11019443e+12	58.6674794605
1408228108269	84	4074405	273700	410	9	37.44648946	-122.16516307	4840551	1.1151646485e+12	58.6674794605
1408228108301	84	4075584	269700	410	9	37.44648946	-122.16516307	4840551	1.0991850048e+12	58.6674794605
1408228108351	84	4072338	310500	410	9	37.44648946	-122.16516307	4840551	1.264460949e+12	58.6674794605
1408228108368	84	4056399	347300	410	9	37.44648946	-122.16516307	4840551	1.4087873727e+12	58.6674794605
1408228108387	84	4057875	328100	410	9	37.44648946	-122.16516307	4840551	1.3313887875e+12	58.6674794605
1408228108406	84	4059939	344000	410	9	37.44648946	-122.16516307	4840551	1.396619016e+12	58.6674794605
1408228108429	84	4050495	279900	410	9	37.44648946	-122.16516307	4840551	1.1337335505e+12	58.6674794605
1408228108448	84	4054332	452700	410	9	37.44648946	-122.16516307	4840551	1.8353960964e+12	58.6674794605
1408228108466	84	4056399	335400	410	9	37.44648946	-122.16516307	4840551	1.3605162246e+12	58.6674794605
1408228108486	84	4063779	309400	410	9	37.44648946	-122.16516307	4840551	1.2573332226e+12	58.6674794605
1408228108499	84	4063779	309400	410	9	37.44640021	-122.16526416	4840551	1.2573332226e+12	72.0142699215
1408228108511	84	4051086	337200	410	9	37.44640021	-122.16526416	4840551	1.3660261992e+12	72.0142699215
1408228108528	84	4049610	451000	410	9	37.44640021	-122.16526416	4840551	1.82637411e+12	72.0142699215
1408228108549	84	4063779	442600	410	9	37.44640021	-122.16526416	4840551	1.7986285854e+12	72.0142699215
1408228108568	84	4065549	315000	410	9	37.44640021	-122.16526416	4840551	1.280647935e+12	72.0142699215
1408228108603	84	4069092	291200	410	9	37.44640021	-122.16526416	4840551	1.1849195904e+12	72.0142699215
1408228108646	84	4072338	324600	410	9	37.44640021	-122.16526416	4840551	1.3218809148e+12	72.0142699215
1408228108667	84	4057875	458500	410	9	37.44640021	-122.16526416	4840551	1.8605356875e+12	72.0142699215
1408228108687	84	4061415	305400	410	9	37.44640021	-122.16526416	4840551	1.240356141e+12	72.0142699215
1408228108707	84	4060236	330900	410	9	37.44640021	-122.16526416	4840551	1.3435320924e+12	72.0142699215
1408228108731	84	4054332	286100	410	9	37.44640021	-122.16526416	4840551	1.1599443852e+12	72.0142699215
1408228108748	84	4052856	448200	410	9	37.44640021	-122.16526416	4840551	1.8164900592e+12	72.0142699215
1408228108768	84	4055808	334200	410	9	37.44640021	-122.16526416	4840551	1.3554510336e+12	72.0142699215
1408228108786	84	4057875	326400	410	9	37.44640021	-122.16526416	4840551	1.3244904e+12	72.0142699215
1408228108811	84	4065843	337200	410	9	37.44640021	-122.16526416	4840551	1.3710022596e+12	72.0142699215
1408228108828	84	4056399	449400	410	9	37.44640021	-122.16526416	4840551	1.8229457106e+12	72.0142699215
1408228108849	84	4063779	356400	410	9	37.44640021	-122.16526416	4840551	1.4483308356e+12	72.0142699215
1408228108870	84	4067910	295200	410	9	37.44640021	-122.16526416	4840551	1.200847032e+12	72.0142699215
1408228108903	84	4069386	312700	410	9	37.44640021	-122.16526416	4840551	1.2724970022e+12	72.0142699215
1408228108948	84	4072338	296300	410	9	37.44640021	-122.16526416	4840551	1.2066337494e+12	72.0142699215
1408228108967	84	4057284	325300	410	9	37.44640021	-122.16526416	4840551	1.3198344852e+12	72.0142699215
1408228108987	84	4059645	326400	410	9	37.44640021	-122.16526416	4840551	1.325068128e+12	72.0142699215
1408228109007	84	4062303	345100	410	9	37.44640021	-122.16526416	4840551	1.4019007653e+12	72.0142699215
1408228109033	84	4051086	280400	410	9	37.44640021	-122.16526416	4840551	1.1359245144e+12	72.0142699215
1408228109051	84	4054332	443700	410	9	37.44640021	-122.16526416	4840551	1.7989071084e+12	72.0142699215
1408228109070	84	4055514	352400	410	9	37.44640021	-122.16526416	4840551	1.4291631336e+12	72.0142699215
1408228109088	84	4059939	364300	410	9	37.44640021	-122.16526416	4840551	1.4790357777e+12	72.0142699215
1408228109111	84	4060827	264000	410	9	37.44640021	-122.16526416	4840551	1.072058328e+12	72.0142699215
1408228109128	84	4050495	449900	410	9	37.44640021	-122.16526416	4840551	1.8223177005e+12	72.0142699215
1408228109149	84	4068204	313900	410	9	37.44640021	-122.16526416	4840551	1.2770092356e+12	72.0142699215
1408228109171	84	4069386	288400	410	9	37.44640021	-122.16526416	4840551	1.1736109224e+12	72.0142699215
1408228109191	84	4067910	341100	410	9	37.44640021	-122.16526416	4840551	1.387564101e+12	72.0142699215
1408228109227	84	4073520	296300	410	9	37.44640021	-122.16526416	4840551	1.206983976e+12	72.0142699215
1408228109307	84	4072338	296300	410	9	37.44640021	-122.16526416	4840551	1.2066337494e+12	72.0142699215
1408228109327	84	4057284	421100	410	9	37.44640021	-122.16526416	4840551	1.7085222924e+12	72.0142699215
1408228109347	84	4057578	341700	410	9	37.44640021	-122.16526416	4840551	1.3864744026e+12	72.0142699215
1408228109367	84	4051674	387500	410	9	37.44640021	-122.16526416	4840551	1.570023675e+12	72.0142699215
1408228109396	84	4052562	468100	410	9	37.44640021	-122.16526416	4840551	1.8970042722e+12	72.0142699215
1408228109416	84	4057875	383000	410	9	37.44640021	-122.16526416	4840551	1.554166125e+12	72.0142699215
1408228109433	84	4065549	298000	410	9	37.44640021	-122.16526416	4840551	1.211533602e+12	72.0142699215
1408228109456	84	4061121	352900	410	9	37.44640021	-122.16526416	4840551	1.4331696009e+12	72.0142699215
1408228109478	84	4041933	481100	411	9	37.44640021	-122.16526416	4840551	1.9445739663e+12	72.0142699215
1408228109496	84	4062597	442600	410	9	37.44640021	-122.16526416	4840551	1.7981054322e+12	72.0142699215
1408228109518	84	4068501	283900	410	9	37.44640021	-122.16526416	4840551	1.1550474339e+12	72.0142699215
1408228109536	84	4069680	290700	410	9	37.44640021	-122.16526416	4840551	1.183055976e+12	72.0142699215
1408228109566	84	4072044	317300	410	9	37.44640021	-122.16526416	4840551	1.2920595612e+12	72.0142699215
1408228109616	84	4073520	315500	410	9	37.44640021	-122.16526416	4840551	1.28519556e+12	72.0142699215
1408228109638	84	4074996	274200	410	9	37.44640021	-122.16526416	4840551	1.1173639032e+12	72.0142699215
1408228109660	84	4072338	263400	410	9	37.44640021	-122.16526416	4840551	1.0726538292e+12	72.0142699215
1408228109681	84	4075290	288900	410	9	37.44640021	-122.16526416	4840551	1.177351281e+12	72.0142699215
1408228109718	84	4073520	308800	410	9	37.44640021	-122.16526416	4840551	1.257902976e+12	72.0142699215
1408228109765	84	4069680	296800	410	9	37.44640021	-122.16526416	4840551	1.207881024e+12	72.0142699215
1408228109787	84	4073814	290100	410	9	37.44640021	-122.16526416	4840551	1.1818134414e+12	72.0142699215
1408228109810	84	4074405	253300	410	9	37.44640021	-122.16526416	4840551	1.0320467865e+12	72.0142699215
1408228109831	84	4074405	273700	410	9	37.44640021	-122.16526416	4840551	1.1151646485e+12	72.0142699215
1408228109865	84	4070568	300300	410	9	37.44640021	-122.16526416	4840551	1.2223915704e+12	72.0142699215
1408228109900	84	4055514	316700	410	9	37.44640021	-122.16526416	4840551	1.2843812838e+12	72.0142699215
1408228109918	84	4060530	317300	410	9	37.44640021	-122.16526416	4840551	1.288406169e+12	72.0142699215
1408228109936	84	4061121	311100	410	9	37.44640021	-122.16526416	4840551	1.2634147431e+12	72.0142699215
1408228109960	84	4063482	355200	410	9	37.44640021	-122.16526416	4840551	1.4433488064e+12	72.0142699215
1408228109978	84	4049019	460600	410	9	37.44640021	-122.16526416	4840551	1.8649781514e+12	72.0142699215
1408228109997	84	4055514	371700	410	9	37.44640021	-122.16526416	4840551	1.5074345538e+12	72.0142699215
1408228110017	84	4060530	261200	410	9	37.44640021	-122.16526416	4840551	1.060610436e+12	72.0142699215
1408228110037	84	4059645	299100	410	9	37.44640021	-122.16526416	4840551	1.2142398195e+12	72.0142699215
1408228110063	84	4048134	458500	410	9	37.44640021	-122.16526416	4840551	1.856069439e+12	72.0142699215
1408228110083	84	4066434	371700	410	9	37.44640021	-122.16526416	4840551	1.5114935178e+12	72.0142699215
1408228110102	84	4074108	346200	410	9	37.44640021	-122.16526416	4840551	1.4104561896e+12	72.0142699215
1408228110124	84	4070862	284900	410	9	37.44640021	-122.16526416	4840551	1.1597885838e+12	72.0142699215
1408228110157	84	4074405	281600	410	9	37.44640021	-122.16526416	4840551	1.147352448e+12	72.0142699215
1408228110201	84	4068204	322400	410	9	37.44640021	-122.16526416	4840551	1.3115889696e+12	72.0142699215
1408228110218	84	4060530	313400	410	9	37.44640021	-122.16526416	4840551	1.272570102e+12	72.0142699215
1408228110238	84	4060236	308800	410	9	37.44640021	-122.16526416	4840551	1.2538008768e+12	72.0142699215
1408228110257	84	4058463	269200	410	9	37.44640021	-122.16526416	4840551	1.0925382396e+12	72.0142699215
1408228110283	84	4048134	318500	410	9	37.44640021	-122.16526416	4840551	1.289330679e+12	72.0142699215
1408228110300	84	4067319	404000	410	9	37.44640021	-122.16526416	4840551	1.643196876e+12	72.0142699215
1408228110320	84	4058760	311600	410	9	37.44640021	-122.16526416	4840551	1.264709616e+12	72.0142699215
1408228110338	84	4057875	360900	410	9	37.44640021	-122.16526416	4840551	1.4644870875e+12	72.0142699215
1408228110361	84	4055217	284400	410	9	37.44640021	-122.16526416	4840551	1.1533037148e+12	72.0142699215
1408228110380	84	4053447	468100	410	9	37.44640021	-122.16526416	4840551	1.8974185407e+12	72.0142699215
1408228110400	84	4066140	325300	410	9	37.44640021	-122.16526416	4840551	1.322715342e+12	72.0142699215
1408228110421	84	4070271	296300	410	9	37.44640021	-122.16526416	4840551	1.2060212973e+12	72.0142699215
1408228110464	84	4072044	311100	410	9	37.44640021	-122.16526416	4840551	1.2668128884e+12	72.0142699215
1408228110505	84	4069092	342200	410	9	37.44640021	-122.16526416	4840551	1.3924432824e+12	72.0142699215
1408228110520	84	4051086	457300	410	9	37.44640021	-122.16526416	4840551	1.8525616278e+12	72.0142699215
1408228110540	84	4060530	400100	410	9	37.44640021	-122.16526416	4840551	1.624618053e+12	72.0142699215
1408228110558	84	4060827	272000	410	9	37.44640021	-122.16526416	4840551	1.104544944e+12	72.0142699215
1408228110583	84	4049904	325800	410	9	37.44640021	-122.16526416	4840551	1.3194587232e+12	72.0142699215
1408228110600	84	4056102	462900	410	9	37.44640021	-122.16526416	4840551	1.8775696158e+12	72.0142699215
1408228110620	84	4061415	311100	410	9	37.44640021	-122.16526416	4840551	1.2635062065e+12	72.0142699215
1408228110638	84	4061415	339400	410	9	37.44640021	-122.16526416	4840551	1.378444251e+12	72.0142699215
1408228110662	84	4060530	265200	410	9	37.44640021	-122.16526416	4840551	1.076852556e+12	72.0142699215
1408228110678	84	4050789	449900	410	9	37.44640021	-122.16526416	4840551	1.8224499711e+12	72.0142699215
1408228110701	84	4066434	306600	410	9	37.44640021	-122.16526416	4840551	1.2467686644e+12	72.0142699215
1408228110720	84	4072338	287200	410	9	37.44640021	-122.16526416	4840551	1.1695754736e+12	72.0142699215
1408228110740	84	4068204	304300	410	9	37.44640021	-122.16526416	4840551	1.2379544772e+12	72.0142699215
1408228110773	84	4073814	285600	410	9	37.44640021	-122.16526416	4840551	1.1634812784e+12	72.0142699215
1408228110825	84	4072632	313900	410	9	37.44640021	-122.16526416	4840551	1.2783991848e+12	72.0142699215
1408228110847	84	4074405	270200	410	9	37.44640021	-122.16526416	4840551	1.100904231e+12	72.0142699215
1408228110871	84	4074108	268500	410	9	37.44640021	-122.16526416	4840551	1.093897998e+12	72.0142699215
1408228110891	84	4062891	343300	410	9	37.44640021	-122.16526416	4840551	1.3947904803e+12	72.0142699215
1408228110930	84	4071747	305400	410	9	37.44640021	-122.16526416	4840551	1.2435115338e+12	72.0142699215
1408228110957	84	4052856	299800	410	9	37.44640021	-122.16526416	4840551	1.2150462288e+12	72.0142699215
1408228110977	84	4060236	337700	410	9	37.44640021	-122.16526416	4840551	1.3711416972e+12	72.0142699215
1408228110997	84	4057875	344000	410	9	37.44640021	-122.16526416	4840551	1.395909e+12	72.0142699215
1408228111030	84	4060827	262300	410	9	37.44640021	-122.16526416	4840551	1.0651549221e+12	72.0142699215
1408228111048	84	4060236	446500	410	9	37.44640021	-122.16526416	4840551	1.812895374e+12	72.0142699215
1408228111066	84	4069092	245300	410	9	37.44640021	-122.16526416	4840551	9.981482676e+11	72.0142699215
1408228111086	84	4067910	299100	410	9	37.44640021	-122.16526416	4840551	1.216711881e+12	72.0142699215
1408228111111	84	4060530	341100	410	9	37.44640021	-122.16526416	4840551	1.385046783e+12	72.0142699215
1408228111128	84	4057284	449900	410	9	37.44640021	-122.16526416	4840551	1.8253720716e+12	72.0142699215
1408228111150	84	4067025	312700	410	9	37.44640021	-122.16526416	4840551	1.2717587175e+12	72.0142699215
1408228111171	84	4073223	288900	410	9	37.44640021	-122.16526416	4840551	1.1767541247e+12	72.0142699215
1408228111203	84	4065255	313400	410	9	37.44640021	-122.16526416	4840551	1.274050917e+12	72.0142699215
1408228111247	84	4069680	345600	410	9	37.44640021	-122.16526416	4840551	1.406481408e+12	72.0142699215
1408228111266	84	4060530	253300	410	9	37.44640021	-122.16526416	4840551	1.028532249e+12	72.0142699215
1408228111287	84	4061415	302000	410	9	37.44640021	-122.16526416	4840551	1.22654733e+12	72.0142699215
1408228111307	84	4061121	271400	410	9	37.44640021	-122.16526416	4840551	1.1021882394e+12	72.0142699215
1408228111333	84	4049019	305900	410	9	37.44640021	-122.16526416	4840551	1.2385949121e+12	72.0142699215
1408228111350	84	4054038	432300	410	9	37.44640021	-122.16526416	4840551	1.7525606274e+12	72.0142699215
1408228111367	84	4057875	323000	410	9	37.44640021	-122.16526416	4840551	1.310693625e+12	72.0142699215
1408228111387	84	4052562	328100	410	9	37.44640021	-122.16526416	4840551	1.3296455922e+12	72.0142699215
1408228111411	84	4056987	305400	410	9	37.44640021	-122.16526416	4840551	1.2390038298e+12	72.0142699215
1408228111430	84	4054923	455500	410	9	37.44640021	-122.16526416	4840551	1.8470174265e+12	72.0142699215
1408228111450	84	4064958	296300	410	9	37.44640021	-122.16526416	4840551	1.2044470554e+12	72.0142699215
1408228111473	84	4068795	326900	410	9	37.44640021	-122.16526416	4840551	1.3300890855e+12	72.0142699215
1408228111482	84	4068795	326900	410	9	37.44632542	-122.16538391	4840551	1.3300890855e+12	85.4747996939
1408228111501	84	4064664	320100	410	9	37.44632542	-122.16538391	4840551	1.3010989464e+12	85.4747996939
1408228111531	84	4066728	342200	410	9	37.44632542	-122.16538391	4840551	1.3916343216e+12	85.4747996939
1408228111547	84	4052562	347900	410	9	37.44632542	-122.16538391	4840551	1.4098863198e+12	85.4747996939
1408228111567	84	4061712	332600	410	9	37.44632542	-122.16538391	4840551	1.3509254112e+12	85.4747996939
1408228111587	84	4057284	336500	410	9	37.44632542	-122.16538391	4840551	1.365276066e+12	85.4747996939
1408228111613	84	4051380	277600	410	9	37.44632542	-122.16538391	4840551	1.124663088e+12	85.4747996939
1408228111633	84	4067616	380700	410	9	37.44632542	-122.16538391	4840551	1.5485414112e+12	85.4747996939
1408228111653	84	4068795	319000	410	9	37.44632542	-122.16538391	4840551	1.297945605e+12	85.4747996939
1408228111670	84	4069977	353600	410	9	37.44632542	-122.16538391	4840551	1.4391438672e+12	85.4747996939
1408228111702	84	4060236	350800	410	9	37.44632542	-122.16538391	4840551	1.4243307888e+12	85.4747996939
1408228111720	84	4056399	371700	410	9	37.44632542	-122.16538391	4840551	1.5077635083e+12	85.4747996939
1408228111740	84	4060530	351300	410	9	37.44632542	-122.16538391	4840551	1.426464189e+12	85.4747996939
1408228111759	84	4070568	280400	410	9	37.44632542	-122.16538391	4840551	1.1413872672e+12	85.4747996939
1408228111794	84	4072929	295200	410	9	37.44632542	-122.16538391	4840551	1.2023286408e+12	85.4747996939
1408228111830	84	4070862	304300	410	9	37.44632542	-122.16538391	4840551	1.2387633066e+12	85.4747996939
1408228111851	84	4072632	256600	410	9	37.44632542	-122.16538391	4840551	1.0450373712e+12	85.4747996939
1408228111872	84	4077651	273700	410	9	37.44632542	-122.16538391	4840551	1.1160530787e+12	85.4747996939
1408228111897	84	4069977	267400	410	9	37.44632542	-122.16538391	4840551	1.0883118498e+12	85.4747996939
1408228111935	84	4072338	285600	410	9	37.44632542	-122.16538391	4840551	1.1630597328e+12	85.4747996939
1408228111977	84	4072929	291200	410	9	37.44632542	-122.16538391	4840551	1.1860369248e+12	85.4747996939
1408228111999	84	4072632	267400	410	9	37.44632542	-122.16538391	4840551	1.0890217968e+12	85.4747996939
1408228112021	84	4074996	274800	410	9	37.44632542	-122.16538391	4840551	1.1198089008e+12	85.4747996939
1408228112042	84	4078833	260100	410	9	37.44632542	-122.16538391	4840551	1.0609044633e+12	85.4747996939
1408228112077	84	4072338	311100	410	9	37.44632542	-122.16538391	4840551	1.2669043518e+12	85.4747996939
1408228112123	84	4074405	295800	410	9	37.44632542	-122.16538391	4840551	1.205208999e+12	85.4747996939
1408228112147	84	4075584	263400	410	9	37.44632542	-122.16538391	4840551	1.0735088256e+12	85.4747996939
1408228112172	84	4073520	249300	410	9	37.44632542	-122.16538391	4840551	1.015528536e+12	85.4747996939
1408228112195	84	4077945	268000	410	9	37.44632542	-122.16538391	4840551	1.09288926e+12	85.4747996939
1408228112224	84	4072338	304800	410	9	37.44632542	-122.16538391	4840551	1.2412486224e+12	85.4747996939
1408228112257	84	4052856	420400	410	9	37.44632542	-122.16538391	4840551	1.7038206624e+12	85.4747996939
1408228112277	84	4059351	307100	410	9	37.44632542	-122.16538391	4840551	1.2466266921e+12	85.4747996939
1408228112296	84	4058169	346800	410	9	37.44632542	-122.16538391	4840551	1.4073730092e+12	85.4747996939
1408228112331	84	4052562	303600	410	9	37.44632542	-122.16538391	4840551	1.2303578232e+12	85.4747996939
1408228112348	84	4059939	306600	410	9	37.44632542	-122.16538391	4840551	1.2447772974e+12	85.4747996939
1408228112368	84	4058169	295200	410	9	37.44632542	-122.16538391	4840551	1.1979714888e+12	85.4747996939
1408228112385	84	4067616	325800	410	9	37.44632542	-122.16538391	4840551	1.3252292928e+12	85.4747996939
1408228112411	84	4054626	361500	410	9	37.44632542	-122.16538391	4840551	1.465747299e+12	85.4747996939
1408228112428	84	4057578	467400	410	9	37.44632542	-122.16538391	4840551	1.8965119572e+12	85.4747996939
1408228112451	84	4067616	290100	410	9	37.44632542	-122.16538391	4840551	1.1800154016e+12	85.4747996939
1408228112472	84	4068795	329800	410	9	37.44632542	-122.16538391	4840551	1.341888591e+12	85.4747996939
1408228112493	84	4067616	312700	410	9	37.44632542	-122.16538391	4840551	1.2719435232e+12	85.4747996939
1408228112556	84	4067616	345600	410	9	37.44632542	-122.16538391	4840551	1.4057680896e+12	85.4747996939
1408228112577	84	4064958	443100	410	9	37.44632542	-122.16538391	4840551	1.8011828898e+12	85.4747996939
1408228112597	84	4057875	313400	410	9	37.44632542	-122.16538391	4840551	1.271738025e+12	85.4747996939
1408228112617	84	4059351	263400	410	9	37.44632542	-122.16538391	4840551	1.0692330534e+12	85.4747996939
1408228112643	84	4052562	307600	410	9	37.44632542	-122.16538391	4840551	1.2465680712e+12	85.4747996939
1408228112661	84	4058760	447100	410	9	37.44632542	-122.16538391	4840551	1.814671596e+12	85.4747996939
1408228112689	84	4051971	347900	410	9	37.44632542	-122.16538391	4840551	1.4096807109e+12	85.4747996939
1408228112705	84	4047837	464100	410	9	37.44632542	-122.16538391	4840551	1.8786011517e+12	85.4747996939
1408228112730	84	4056987	349100	410	9	37.44632542	-122.16538391	4840551	1.4162941617e+12	85.4747996939
1408228112748	84	4063482	425500	410	9	37.44632542	-122.16538391	4840551	1.729011591e+12	85.4747996939
1408228112768	84	4067025	281600	410	9	37.44632542	-122.16538391	4840551	1.14527424e+12	85.4747996939
1408228112789	84	4069092	290100	410	9	37.44632542	-122.16538391	4840551	1.1804435892e+12	85.4747996939
1408228112823	84	4072044	266900	410	9	37.44632542	-122.16538391	4840551	1.0868285436e+12	85.4747996939
1408228112868	84	4073223	299800	410	9	37.44632542	-122.16538391	4840551	1.2211522554e+12	85.4747996939
1408228112893	84	4076469	275300	410	9	37.44632542	-122.16538391	4840551	1.1222519157e+12	85.4747996939
1408228112915	84	4075584	275300	410	9	37.44632542	-122.16538391	4840551	1.1220082752e+12	85.4747996939
1408228112937	84	4074108	270800	410	9	37.44632542	-122.16538391	4840551	1.1032684464e+12	85.4747996939
1408228112975	84	4072338	265200	410	9	37.44632542	-122.16538391	4840551	1.0799840376e+12	85.4747996939
1408228113020	84	4071156	299100	410	9	37.44632542	-122.16538391	4840551	1.2176827596e+12	85.4747996939
1408228113042	84	4075584	287900	410	9	37.44632542	-122.16538391	4840551	1.1733606336e+12	85.4747996939
1408228113065	84	4078833	278800	410	9	37.44632542	-122.16538391	4840551	1.1371786404e+12	85.4747996939
1408228113087	84	4077060	261200	410	9	37.44632542	-122.16538391	4840551	1.064928072e+12	85.4747996939
1408228113129	84	4070568	289500	410	9	37.44632542	-122.16538391	4840551	1.178429436e+12	85.4747996939
1408228113167	84	4070271	298600	410	9	37.44632542	-122.16538391	4840551	1.2153829206e+12	85.4747996939
1408228113189	84	4074996	276500	410	9	37.44632542	-122.16538391	4840551	1.126736394e+12	85.4747996939
1408228113210	84	4075881	271400	410	9	37.44632542	-122.16538391	4840551	1.1061941034e+12	85.4747996939
1408228113231	84	4074699	272000	410	9	37.44632542	-122.16538391	4840551	1.108318128e+12	85.4747996939
1408228113275	84	4074699	296300	410	9	37.44632542	-122.16538391	4840551	1.2073333137e+12	85.4747996939
1408228113305	84	4053741	311600	410	9	37.44632542	-122.16538391	4840551	1.2631456956e+12	85.4747996939
1408228113324	84	4065549	329200	410	9	37.44632542	-122.16538391	4840551	1.3383787308e+12	85.4747996939
1408228113344	84	4069092	347300	410	9	37.44632542	-122.16538391	4840551	1.4131956516e+12	85.4747996939
1408228113370	84	4065255	353600	410	9	37.44632542	-122.16538391	4840551	1.437474168e+12	85.4747996939
1408228113388	84	4055514	466900	411	9	37.44632542	-122.16538391	4840551	1.8935194866e+12	85.4747996939
1408228113407	84	4054626	379600	410	9	37.44632542	-122.16538391	4840551	1.5391360296e+12	85.4747996939
1408228113427	84	4061712	283900	410	9	37.44632542	-122.16538391	4840551	1.1531200368e+12	85.4747996939
1408228113450	84	4057875	345600	410	9	37.44632542	-122.16538391	4840551	1.4024016e+12	85.4747996939
1408228113467	84	4049610	460100	411	9	37.44632542	-122.16538391	4840551	1.863225561e+12	85.4747996939
1408228113486	84	4058169	351900	410	9	37.44632542	-122.16538391	4840551	1.4280696711e+12	85.4747996939
1408228113506	84	4064958	346800	410	9	37.44632542	-122.16538391	4840551	1.4097274344e+12	85.4747996939
1408228113527	84	4067616	356900	410	9	37.44632542	-122.16538391	4840551	1.4517321504e+12	85.4747996939
1408228113565	84	4063482	332100	410	9	37.44632542	-122.16538391	4840551	1.3494823722e+12	85.4747996939
1408228113588	84	4066434	345600	410	9	37.44632542	-122.16538391	4840551	1.4053595904e+12	85.4747996939
1408228113606	84	4058463	338200	410	9	37.44632542	-122.16538391	4840551	1.3725721866e+12	85.4747996939
1408228113625	84	4061121	309400	410	9	37.44632542	-122.16538391	4840551	1.2565108374e+12	85.4747996939
1408228113645	84	4066728	323500	410	9	37.44632542	-122.16538391	4840551	1.315586508e+12	85.4747996939
1408228113673	84	4049610	441400	410	9	37.44632542	-122.16538391	4840551	1.787497854e+12	85.4747996939
1408228113691	84	4067910	356900	410	9	37.44632542	-122.16538391	4840551	1.451837079e+12	85.4747996939
1408228113709	84	4060530	310500	410	9	37.44632542	-122.16538391	4840551	1.260794565e+12	85.4747996939
1408228113727	84	4061121	301400	410	9	37.44632542	-122.16538391	4840551	1.2240218694e+12	85.4747996939
1408228113751	84	4062006	327500	410	9	37.44632542	-122.16538391	4840551	1.330306965e+12	85.4747996939
1408228113770	84	4052856	443100	410	9	37.44632542	-122.16538391	4840551	1.7958204936e+12	85.4747996939
1408228113788	84	4060236	361500	410	9	37.44632542	-122.16538391	4840551	1.467775314e+12	85.4747996939
1408228113811	84	4071453	270200	410	9	37.44632542	-122.16538391	4840551	1.1001066006e+12	85.4747996939
1408228113844	84	4068204	307100	410	9	37.44632542	-122.16538391	4840551	1.2493454484e+12	85.4747996939
1408228113885	84	4074405	292900	410	9	37.44632542	-122.16538391	4840551	1.1933932245e+12	85.4747996939
1408228113902	84	4069092	287900	410	9	37.44632542	-122.16538391	4840551	1.1714915868e+12	85.4747996939
1408228113921	84	4060530	354100	410	9	37.44632542	-122.16538391	4840551	1.437833673e+12	85.4747996939
1408228113938	84	4061415	371100	410	9	37.44632542	-122.16538391	4840551	1.5071911065e+12	85.4747996939
1408228113963	84	4050495	350800	410	9	37.44632542	-122.16538391	4840551	1.420913646e+12	85.4747996939
1408228113981	84	4063779	360400	410	9	37.44632542	-122.16538391	4840551	1.4645859516e+12	85.4747996939
1408228113998	84	4060827	315500	410	9	37.44632542	-122.16538391	4840551	1.2811909185e+12	85.4747996939
1408228114016	84	4060530	334200	410	9	37.44632542	-122.16538391	4840551	1.357029126e+12	85.4747996939
1408228114041	84	4067910	311600	410	9	37.44632542	-122.16538391	4840551	1.267560756e+12	85.4747996939
1408228114058	84	4057578	456200	410	9	37.44632542	-122.16538391	4840551	1.8510670836e+12	85.4747996939
1408228114077	84	4059939	309900	410	9	37.44632542	-122.16538391	4840551	1.2581750961e+12	85.4747996939
1408228114099	84	4070271	286100	410	9	37.44632542	-122.16538391	4840551	1.1645045331e+12	85.4747996939
1408228114132	84	4070862	304300	410	9	37.44632542	-122.16538391	4840551	1.2387633066e+12	85.4747996939
1408228114156	84	4062006	341700	410	9	37.44632542	-122.16538391	4840551	1.3879874502e+12	85.4747996939
1408228114178	84	4067319	291800	410	9	37.44632542	-122.16538391	4840551	1.1868436842e+12	85.4747996939
1408228114200	84	4073520	296300	410	9	37.44632542	-122.16538391	4840551	1.206983976e+12	85.4747996939
1408228114222	84	4074699	285600	410	9	37.44632542	-122.16538391	4840551	1.1637340344e+12	85.4747996939
1408228114255	84	4071156	274200	410	9	37.44632542	-122.16538391	4840551	1.1163109752e+12	85.4747996939
1408228114299	84	4071453	294700	410	9	37.44632542	-122.16538391	4840551	1.1998571991e+12	85.4747996939
1408228114317	84	4057578	333200	410	9	37.44632542	-122.16538391	4840551	1.3519849896e+12	85.4747996939
1408228114337	84	4054332	342800	410	9	37.44632542	-122.16538391	4840551	1.3898250096e+12	85.4747996939
1408228114357	84	4055217	285600	410	9	37.44632542	-122.16538391	4840551	1.1581699752e+12	85.4747996939
1408228114383	84	4048722	400600	410	9	37.44632542	-122.16538391	4840551	1.6219180332e+12	85.4747996939
1408228114401	84	4056102	465200	410	9	37.44632542	-122.16538391	4840551	1.8868986504e+12	85.4747996939
1408228114418	84	4059939	333200	410	9	37.44632542	-122.16538391	4840551	1.3527716748e+12	85.4747996939
1408228114437	84	4057875	343300	410	9	37.44632542	-122.16538391	4840551	1.3930684875e+12	85.4747996939
1408228114464	84	4058463	284400	410	9	37.44632542	-122.16538391	4840551	1.1542268772e+12	85.4747996939
1408228114484	84	4049904	450500	410	9	37.44632542	-122.16538391	4840551	1.824481752e+12	85.4747996939
1408228114503	84	4065255	427200	410	9	37.44632542	-122.16538391	4840551	1.736676936e+12	85.4747996939
1408228114521	84	4070271	338200	410	9	37.44632542	-122.16538391	4840551	1.3765656522e+12	85.4747996939
1408228114541	84	4068501	285600	410	9	37.44632542	-122.16538391	4840551	1.1619638856e+12	85.4747996939
1408228114574	84	4064958	294700	410	9	37.44632542	-122.16538391	4840551	1.1979431226e+12	85.4747996939
1408228114597	84	4069092	336000	410	9	37.44632542	-122.16538391	4840551	1.367214912e+12	85.4747996939
1408228114620	84	4069680	277600	410	9	37.44632542	-122.16538391	4840551	1.129743168e+12	85.4747996939
1408228114641	84	4072632	308800	410	9	37.44632542	-122.16538391	4840551	1.2576287616e+12	85.4747996939
1408228114662	84	4075881	282100	410	9	37.44632542	-122.16538391	4840551	1.1498060301e+12	85.4747996939
1408228114697	84	4073520	286100	410	9	37.44632542	-122.16538391	4840551	1.165434072e+12	85.4747996939
1408228114747	84	4073814	294000	410	9	37.44632542	-122.16538391	4840551	1.197701316e+12	85.4747996939
1408228114767	84	4059054	294000	410	9	37.44632542	-122.16538391	4840551	1.193361876e+12	85.4747996939
1408228114787	84	4060827	311100	410	9	37.44632542	-122.16538391	4840551	1.2633232797e+12	85.4747996939
1408228114807	84	4060827	258900	410	9	37.44632542	-122.16538391	4840551	1.0513481103e+12	85.4747996939
1408228114836	84	4064367	443700	410	9	37.44632542	-122.16538391	4840551	1.8033596379e+12	85.4747996939
1408228114854	84	4066728	345600	410	9	37.44632542	-122.16538391	4840551	1.4054611968e+12	85.4747996939
1408228114873	84	4067025	316200	410	9	37.44632542	-122.16538391	4840551	1.285993305e+12	85.4747996939
1408228114901	84	4069386	298600	410	9	37.44632542	-122.16538391	4840551	1.2151186596e+12	85.4747996939
1408228114920	84	4067616	435200	410	9	37.44632542	-122.16538391	4840551	1.7702264832e+12	85.4747996939
1408228114940	84	4058169	358100	410	9	37.44632542	-122.16538391	4840551	1.4532303189e+12	85.4747996939
1408228114959	84	4061121	300800	410	9	37.44632542	-122.16538391	4840551	1.2215851968e+12	85.4747996939
1408228114994	84	4071453	303100	410	9	37.44632542	-122.16538391	4840551	1.2340574043e+12	85.4747996939
1408228115033	84	4071156	296300	410	9	37.44632542	-122.16538391	4840551	1.2062835228e+12	85.4747996939
1408228115050	84	4065549	290700	410	9	37.44632542	-122.16538391	4840551	1.1818550943e+12	85.4747996939
1408228115068	84	4060827	323000	410	9	37.44632542	-122.16538391	4840551	1.311647121e+12	85.4747996939
1408228115086	84	4059939	316200	410	9	37.44632542	-122.16538391	4840551	1.2837527118e+12	85.4747996939
1408228115113	84	4050198	349600	410	9	37.44632542	-122.16538391	4840551	1.4159492208e+12	85.4747996939
1408228115131	84	4056399	447700	410	9	37.44632542	-122.16538391	4840551	1.8160498323e+12	85.4747996939
1408228115150	84	4058463	290100	410	9	37.44632542	-122.16538391	4840551	1.1773601163e+12	85.4747996939
1408228115168	84	4060236	324600	410	9	37.44632542	-122.16538391	4840551	1.3179526056e+12	85.4747996939
1408228115204	84	4058169	321800	410	9	37.44632542	-122.16538391	4840551	1.3059187842e+12	85.4747996939
1408228115226	84	4068795	311600	410	9	37.44632542	-122.16538391	4840551	1.267836522e+12	85.4747996939
1408228115248	84	4071156	349100	410	9	37.44632542	-122.16538391	4840551	1.4212405596e+12	85.4747996939
1408228115270	84	4070568	294000	410	9	37.44632542	-122.16538391	4840551	1.196746992e+12	85.4747996939
1408228115305	84	4071747	311100	410	9	37.44632542	-122.16538391	4840551	1.2667204917e+12	85.4747996939
1408228115348	84	4069977	317300	410	9	37.44632542	-122.16538391	4840551	1.2914037021e+12	85.4747996939
1408228115367	84	4056399	350100	411	9	37.44632542	-122.16538391	4840551	1.4201452899e+12	85.4747996939
1408228115387	84	4057284	328600	410	9	37.44632542	-122.16538391	4840551	1.3332235224e+12	85.4747996939
1408228115407	84	4058760	279900	410	9	37.44632542	-122.16538391	4840551	1.136046924e+12	85.4747996939
1408228115429	84	4050789	405700	410	9	37.44632542	-122.16538391	4840551	1.6434050973e+12	85.4747996939
1408228115447	84	4055217	454500	410	9	37.44632542	-122.16538391	4840551	1.8430961265e+12	85.4747996939
1408228115467	84	4058760	317300	410	9	37.44632542	-122.16538391	4840551	1.287844548e+12	85.4747996939
1408228115487	84	4059054	332600	410	9	37.44632542	-122.16538391	4840551	1.3500413604e+12	85.4747996939
1408228115499	84	4059054	332600	410	9	37.44622901	-122.16532943	4840551	1.3500413604e+12	97.2108141793
1408228115510	84	4054038	355900	410	9	37.44622901	-122.16532943	4840551	1.4428321242e+12	97.2108141793
1408228115526	84	4050495	449900	410	9	37.44622901	-122.16532943	4840551	1.8223177005e+12	97.2108141793
1408228115547	84	4048722	443100	410	9	37.44622901	-122.16532943	4840551	1.7939887182e+12	97.2108141793
1408228115568	84	4067025	316700	410	9	37.44622901	-122.16532943	4840551	1.2880268175e+12	97.2108141793
1408228115603	84	4069386	305400	410	9	37.44622901	-122.16532943	4840551	1.2427904844e+12	97.2108141793
1408228115646	84	4073814	294000	410	9	37.44622901	-122.16532943	4840551	1.197701316e+12	97.2108141793
1408228115664	84	4067910	383600	410	9	37.44622901	-122.16532943	4840551	1.560450276e+12	97.2108141793
1408228115684	84	4069386	287200	410	9	37.44622901	-122.16532943	4840551	1.1687276592e+12	97.2108141793
1408228115703	84	4070568	341100	410	9	37.44622901	-122.16532943	4840551	1.3884707448e+12	97.2108141793
1408228115729	84	4051380	338200	410	9	37.44622901	-122.16532943	4840551	1.370176716e+12	97.2108141793
1408228115747	84	4058169	444200	410	9	37.44622901	-122.16532943	4840551	1.8026386698e+12	97.2108141793
1408228115766	84	4057578	292900	410	9	37.44622901	-122.16532943	4840551	1.1884645962e+12	97.2108141793
1408228115787	84	4057284	296300	410	9	37.44622901	-122.16532943	4840551	1.2021732492e+12	97.2108141793
1408228115811	84	4061415	277600	410	9	37.44622901	-122.16532943	4840551	1.127448804e+12	97.2108141793
1408228115827	84	4065549	457800	410	9	37.44622901	-122.16532943	4840551	1.8612083322e+12	97.2108141793
1408228115850	84	4069680	287900	410	9	37.44622901	-122.16532943	4840551	1.171660872e+12	97.2108141793
1408228115871	84	4069386	300300	410	9	37.44622901	-122.16532943	4840551	1.2220366158e+12	97.2108141793
1408228115903	84	4069386	278100	410	9	37.44622901	-122.16532943	4840551	1.1316962466e+12	97.2108141793
1408228115948	84	4072044	298600	410	9	37.44622901	-122.16532943	4840551	1.2159123384e+12	97.2108141793
1408228115968	84	4058760	283300	410	9	37.44622901	-122.16532943	4840551	1.149846708e+12	97.2108141793
1408228115987	84	4061415	334200	410	9	37.44622901	-122.16532943	4840551	1.357324893e+12	97.2108141793
1408228116007	84	4062891	250500	410	9	37.44622901	-122.16532943	4840551	1.0177541955e+12	97.2108141793
1408228116032	84	4051674	302600	410	9	37.44622901	-122.16532943	4840551	1.2260365524e+12	97.2108141793
1408228116050	84	4056693	448700	410	9	37.44622901	-122.16532943	4840551	1.8202381491e+12	97.2108141793
1408228116068	84	4060827	317800	410	9	37.44622901	-122.16532943	4840551	1.2905308206e+12	97.2108141793
1408228116087	84	4060827	330300	410	9	37.44622901	-122.16532943	4840551	1.3412911581e+12	97.2108141793
1408228116111	84	4062597	256100	410	9	37.44622901	-122.16532943	4840551	1.0404310917e+12	97.2108141793
1408228116128	84	4052265	457300	410	9	37.44622901	-122.16532943	4840551	1.8531007845e+12	97.2108141793
1408228116150	84	4067910	286700	410	9	37.44622901	-122.16532943	4840551	1.166269797e+12	97.2108141793
1408228116171	84	4069386	298600	410	9	37.44622901	-122.16532943	4840551	1.2151186596e+12	97.2108141793
1408228116203	84	4069092	285600	410	9	37.44622901	-122.16532943	4840551	1.1621326752e+12	97.2108141793
1408228116248	84	4073814	296300	410	9	37.44622901	-122.16532943	4840551	1.2070710882e+12	97.2108141793
1408228116268	84	4056399	282700	410	9	37.44622901	-122.16532943	4840551	1.1467439973e+12	97.2108141793
1408228116290	84	4062006	342200	410	9	37.44622901	-122.16532943	4840551	1.3900184532e+12	97.2108141793
1408228116317	84	4060827	332100	410	9	37.44622901	-122.16532943	4840551	1.3486006467e+12	97.2108141793
1408228116343	84	4049019	282100	410	9	37.44622901	-122.16532943	4840551	1.1422282599e+12	97.2108141793
1408228116361	84	4055217	474300	410	9	37.44622901	-122.16532943	4840551	1.9233894231e+12	97.2108141793
1408228116377	84	4057875	330300	410	9	37.44622901	-122.16532943	4840551	1.3403161125e+12	97.2108141793
1408228116397	84	4056102	308800	410	9	37.44622901	-122.16532943	4840551	1.2525242976e+12	97.2108141793
1408228116434	84	4060530	303600	410	9	37.44622901	-122.16532943	4840551	1.232776908e+12	97.2108141793
1408228116457	84	4065549	354100	410	9	37.44622901	-122.16532943	4840551	1.4396109009e+12	97.2108141793
1408228116485	84	4066140	309400	410	9	37.44622901	-122.16532943	4840551	1.258063716e+12	97.2108141793
1408228116510	84	4072632	319500	410	9	37.44622901	-122.16532943	4840551	1.301205924e+12	97.2108141793
1408228116547	84	4073814	295800	410	9	37.44622901	-122.16532943	4840551	1.2050341812e+12	97.2108141793
1408228116568	84	4050495	448200	410	9	37.44622901	-122.16532943	4840551	1.815431859e+12	97.2108141793
1408228116588	84	4059645	288900	410	9	37.44622901	-122.16532943	4840551	1.1728314405e+12	97.2108141793
1408228116607	84	4058169	337200	410	9	37.44622901	-122.16532943	4840551	1.3684145868e+12	97.2108141793
1408228116627	84	4061415	252700	410	9	37.44622901	-122.16532943	4840551	1.0263195705e+12	97.2108141793
1408228116666	84	4055514	468100	410	9	37.44622901	-122.16532943	4840551	1.8983861034e+12	97.2108141793
1408228116686	84	4067025	303100	410	9	37.44622901	-122.16532943	4840551	1.2327152775e+12	97.2108141793
1408228116706	84	4061121	313400	410	9	37.44622901	-122.16532943	4840551	1.2727553214e+12	97.2108141793
1408228116742	84	4059351	269700	410	9	37.44622901	-122.16532943	4840551	1.0948069647e+12	97.2108141793
1408228116762	84	4073814	328100	410	9	37.44622901	-122.16532943	4840551	1.3366183734e+12	97.2108141793
1408228116784	84	4071453	316200	410	9	37.44622901	-122.16532943	4840551	1.2873934386e+12	97.2108141793
1408228116804	84	4079718	300300	410	9	37.44622901	-122.16532943	4840551	1.2251393154e+12	97.2108141793
1408228116843	84	4074405	288400	410	9	37.44622901	-122.16532943	4840551	1.175058402e+12	97.2108141793
1408228116889	84	4072929	298000	410	9	37.44622901	-122.16532943	4840551	1.213732842e+12	97.2108141793
1408228116908	84	4061121	315000	410	9	37.44622901	-122.16532943	4840551	1.279253115e+12	97.2108141793
1408228116927	84	4060530	298000	410	9	37.44622901	-122.16532943	4840551	1.21003794e+12	97.2108141793
1408228116946	84	4061415	296300	410	9	37.44622901	-122.16532943	4840551	1.2033972645e+12	97.2108141793
1408228116973	84	4050495	343300	410	9	37.44622901	-122.16532943	4840551	1.3905349335e+12	97.2108141793
1408228116990	84	4061712	464100	410	9	37.44622901	-122.16532943	4840551	1.8850405392e+12	97.2108141793
1408228117009	84	4060827	387000	410	9	37.44622901	-122.16532943	4840551	1.571540049e+12	97.2108141793
1408228117027	84	4062006	252100	410	9	37.44622901	-122.16532943	4840551	1.0240317126e+12	97.2108141793
1408228117050	84	4063482	300800	410	9	37.44622901	-122.16532943	4840551	1.2222953856e+12	97.2108141793
1408228117069	84	4051380	449400	410	9	37.44622901	-122.16532943	4840551	1.820690172e+12	97.2108141793
1408228117087	84	4056987	306600	410	9	37.44622901	-122.16532943	4840551	1.2438722142e+12	97.2108141793
1408228117111	84	4070271	354100	410	9	37.44622901	-122.16532943	4840551	1.4412829611e+12	97.2108141793
1408228117132	84	4069386	307600	410	9	37.44622901	-122.16532943	4840551	1.2517431336e+12	97.2108141793
1408228117168	84	4069386	297500	410	9	37.44622901	-122.16532943	4840551	1.210642335e+12	97.2108141793
1408228117204	84	4052856	319500	410	9	37.44622901	-122.16532943	4840551	1.294887492e+12	97.2108141793
1408228117224	84	4067319	358700	410	9	37.44622901	-122.16532943	4840551	1.4589473253e+12	97.2108141793
1408228117240	84	4068204	308800	410	9	37.44622901	-122.16532943	4840551	1.2562613952e+12	97.2108141793
1408228117257	84	4056693	359200	410	9	37.44622901	-122.16532943	4840551	1.4571641256e+12	97.2108141793
1408228117286	84	4045770	455500	411	9	37.44622901	-122.16532943	4840551	1.842848235e+12	97.2108141793
1408228117307	84	4059939	352400	410	9	37.44622901	-122.16532943	4840551	1.4307225036e+12	97.2108141793
1408228117327	84	4059054	272500	410	9	37.44622901	-122.16532943	4840551	1.106092215e+12	97.2108141793
1408228117355	84	4060827	302600	410	9	37.44622901	-122.16532943	4840551	1.2288062502e+12	97.2108141793
1408228117373	84	4060236	465200	410	9	37.44622901	-122.16532943	4840551	1.8888217872e+12	97.2108141793
1408228117392	84	4063779	333200	410	9	37.44622901	-122.16532943	4840551	1.3540511628e+12	97.2108141793
1408228117415	84	4072929	305400	410	9	37.44622901	-122.16532943	4840551	1.2438725166e+12	97.2108141793
1408228117444	84	4074108	316200	410	9	37.44622901	-122.16532943	4840551	1.2882329496e+12	97.2108141793
1408228117501	84	4072338	321300	410	9	37.44622901	-122.16532943	4840551	1.3084421994e+12	97.2108141793
1408228117517	84	4052856	448200	410	9	37.44622901	-122.16532943	4840551	1.8164900592e+12	97.2108141793
1408228117537	84	4060827	303600	410	9	37.44622901	-122.16532943	4840551	1.2328670772e+12	97.2108141793
1408228117554	84	4058760	329200	410	9	37.44622901	-122.16532943	4840551	1.336143792e+12	97.2108141793
1408228117591	84	4045770	422100	410	9	37.44622901	-122.16532943	4840551	1.707719517e+12	97.2108141793
1408228117609	84	4054923	448700	410	9	37.44622901	-122.16532943	4840551	1.8194439501e+12	97.2108141793
1408228117627	84	4061712	262900	410	9	37.44622901	-122.16532943	4840551	1.0678240848e+12	97.2108141793
1408228117647	84	4061121	307600	410	9	37.44622901	-122.16532943	4840551	1.2492008196e+12	97.2108141793
1408228117677	84	4059939	346800	410	9	37.44622901	-122.16532943	4840551	1.4079868452e+12	97.2108141793
1408228117697	84	4049313	415300	410	9	37.44622901	-122.16532943	4840551	1.6816796889e+12	97.2108141793
1408228117720	84	4064073	324600	410	9	37.44622901	-122.16532943	4840551	1.3191980958e+12	97.2108141793
1408228117738	84	4066140	354700	410	9	37.44622901	-122.16532943	4840551	1.442259858e+12	97.2108141793
1408228117762	84	4065843	334900	410	9	37.44622901	-122.16532943	4840551	1.3616508207e+12	97.2108141793
1408228117801	84	4063188	362000	410	9	37.44622901	-122.16532943	4840551	1.470874056e+12	97.2108141793
1408228117818	84	4057875	363800	410	9	37.44622901	-122.16532943	4840551	1.476254925e+12	97.2108141793
1408228117837	84	4057875	332100	410	9	37.44622901	-122.16532943	4840551	1.3476202875e+12	97.2108141793
1408228117856	84	4060827	327500	410	9	37.44622901	-122.16532943	4840551	1.3299208425e+12	97.2108141793
1408228117883	84	4046361	368800	410	9	37.44622901	-122.16532943	4840551	1.4922979368e+12	97.2108141793
1408228117901	84	4063188	391000	410	9	37.44622901	-122.16532943	4840551	1.588706508e+12	97.2108141793
1408228117918	84	4058463	304800	410	9	37.44622901	-122.16532943	4840551	1.2370195224e+12	97.2108141793
1408228117937	84	4060530	272500	410	9	37.44622901	-122.16532943	4840551	1.106494425e+12	97.2108141793
1408228117961	84	4054332	370600	410	9	37.44622901	-122.16532943	4840551	1.5025354392e+12	97.2108141793
1408228117978	84	4054332	461300	410	9	37.44622901	-122.16532943	4840551	1.8702633516e+12	97.2108141793
1408228118001	84	4066140	346200	410	9	37.44622901	-122.16532943	4840551	1.407697668e+12	97.2108141793
1408228118021	84	4065255	316700	410	9	37.44622901	-122.16532943	4840551	1.2874662585e+12	97.2108141793
1408228118053	84	4069386	306600	410	9	37.44622901	-122.16532943	4840551	1.2476737476e+12	97.2108141793
1408228118097	84	4071453	307100	410	9	37.44622901	-122.16532943	4840551	1.2503432163e+12	97.2108141793
1408228118117	84	4057284	421100	410	9	37.44622901	-122.16532943	4840551	1.7085222924e+12	97.2108141793
1408228118136	84	4061415	279300	410	9	37.44622901	-122.16532943	4840551	1.1343532095e+12	97.2108141793
1408228118155	84	4067319	320700	410	9	37.44622901	-122.16532943	4840551	1.3043892033e+12	97.2108141793
1408228118184	84	4051380	374600	410	9	37.44622901	-122.16532943	4840551	1.517646948e+12	97.2108141793
1408228118203	84	4054332	359800	411	9	37.44622901	-122.16532943	4840551	1.4587486536e+12	97.2108141793
1408228118223	84	4067616	385900	410	9	37.44622901	-122.16532943	4840551	1.5696930144e+12	97.2108141793
1408228118241	84	4066728	315500	410	9	37.44622901	-122.16532943	4840551	1.283052684e+12	97.2108141793
1408228118268	84	4059645	307100	410	9	37.44622901	-122.16532943	4840551	1.2467169795e+12	97.2108141793
1408228118287	84	4053150	438000	410	9	37.44622901	-122.16532943	4840551	1.7752797e+12	97.2108141793
1408228118309	84	4067025	370000	410	9	37.44622901	-122.16532943	4840551	1.50479925e+12	97.2108141793
1408228118330	84	4067910	307100	410	9	37.44622901	-122.16532943	4840551	1.249255161e+12	97.2108141793
1408228118372	84	4070568	291800	410	9	37.44622901	-122.16532943	4840551	1.1877917424e+12	97.2108141793
1408228118409	84	4062303	325800	410	9	37.44622901	-122.16532943	4840551	1.3234983174e+12	97.2108141793
1408228118428	84	4057578	288900	410	9	37.44622901	-122.16532943	4840551	1.1722342842e+12	97.2108141793
1408228118447	84	4059645	299800	410	9	37.44622901	-122.16532943	4840551	1.217081571e+12	97.2108141793
1408228118466	84	4059351	375700	410	9	37.44622901	-122.16532943	4840551	1.5250981707e+12	97.2108141793
1408228118485	84	4039869	322400	410	9	37.44622901	-122.16532943	4840551	1.3024537656e+12	97.2108141793
