Distance	Power
19.4824932917	1.56792935734e+12
31.7062324285	1.42613191488e+12
45.8628441926	1.6080017788e+12
57.9508809731	1.5139312113e+12
68.1467841491	1.53924694954e+12
79.3166660962	1.53991905922e+12
90.15099342	1.5000172646e+12
100.373434466	1.58239131611e+12
110.606923635	1.56377706744e+12
121.540529099	1.5844300703e+12
131.645997937	1.61272643326e+12
142.63987362	1.61506675286e+12
152.735591173	1.61038851443e+12
162.888633781	1.6234378323e+12
173.049454991	1.57780846528e+12
187.402577994	1.58026664672e+12
200.903560234	1.6226613255e+12
212.879567232	1.59705013076e+12
224.241558515	1.64503259682e+12
235.731200892	1.52219937802e+12
246.970092345	2.52630510869e+12
258.880732336	1.52737967307e+12
272.502588048	1.53014122097e+12
288.652401225	1.77717740723e+12
299.426403371	1.64777707019e+12
310.021860067	1.71716965711e+12
320.473978884	1.72114202058e+12
331.656083519	1.65611828484e+12
343.238362515	1.75292507288e+12
354.703355657	1.67931354798e+12
366.63274601	1.61390144e+12
378.391281809	1.70626697651e+12
389.728980675	1.63631565945e+12
400.363615468	1.51156858362e+12
411.12071878	1.58171822304e+12
427.499831219	1.51537036833e+12
443.375140065	1.58553984432e+12
458.531881431	1.49794407091e+12
473.701090945	1.5279806896e+12
491.48125389	1.58610801377e+12
507.992985495	1.47935791319e+12
522.252094133	1.52563494548e+12
533.288492376	1.55137183404e+12
547.482145106	1.55903866314e+12
558.826646971	1.51574630666e+12
571.670452942	1.61908435866e+12
584.975908542	1.51259101032e+12
598.17982404	1.63777233002e+12
613.522824206	1.58920090484e+12
629.080672608	1.645193145e+12
646.292923849	1.6165125571e+12
