Distance	Power
17.5131426909	1.64183933386e+12
28.4548271634	1.65051594511e+12
41.523554067	2.74231556119e+12
51.9937940254	3.38009169914e+12
62.7494020443	3.13808740674e+12
76.3951024473	3.05974213117e+12
89.7889951235	3.21559335703e+12
100.661448044	3.39699822806e+12
115.547340807	3.32084563132e+12
134.015705556	3.40772523636e+12
153.831750605	3.56904628313e+12
164.458032027	3.2236418704e+12
174.564673599	3.49587752289e+12
184.674820921	3.34942555233e+12
204.113812239	3.43079056263e+12
222.688219551	3.48662175692e+12
233.227770344	3.31593787297e+12
244.212852792	3.51964423456e+12
255.233159194	3.29256371418e+12
266.009140133	3.57455497402e+12
276.876415409	3.28554228097e+12
295.672907349	3.27765099462e+12
313.264668938	3.54405464134e+12
332.988256132	3.49255846735e+12
345.22890435	3.37265933207e+12
356.54853643	3.35139855399e+12
367.228932805	2.60546610891e+12
377.931608457	1.96489156855e+12
9.28056151589	1.55312212495e+12
20.6286805446	1.5083628897e+12
30.8711877635	1.52056831081e+12
45.8424222943	1.50907558227e+12
62.0435595698	1.4636879015e+12
76.1159008579	1.5866370356e+12
88.046603045	1.50648440857e+12
99.3070943221	1.46079061996e+12
116.582847038	1.66804137206e+12
131.052145816	1.50074514002e+12
142.102975062	1.62232504015e+12
152.671665392	1.67516973112e+12
163.507296263	1.58931282705e+12
174.497019372	1.64577923263e+12
185.533721046	1.73455861082e+12
197.64136788	1.70124786986e+12
208.943240484	1.62043968459e+12
219.050096827	1.65335355605e+12
238.724437885	1.62154600728e+12
250.446889753	1.62215815046e+12
261.334309072	1.66602038086e+12
273.893171369	1.57062912299e+12
284.424841224	1.67632587274e+12
297.083542508	1.62060289652e+12
312.526658146	1.68433724823e+12
323.274094494	1.677315092e+12
340.758034305	2.01490711614e+12
352.220830737	1.81115917898e+12
362.252059627	1.72868306333e+12
375.839244181	1.69917752187e+12
387.818094772	1.77219494797e+12
