Distance	Power
21.7888737505	1.4580940836e+12
32.9772936149	1.65829282237e+12
44.5166263266	2.13895868571e+12
63.2289860808	2.01493676844e+12
78.6276373102	2.2342948607e+12
95.5991314366	1.93137542631e+12
116.045772932	1.980976252e+12
126.825140626	2.06078773446e+12
137.664119156	1.9535614243e+12
149.645254983	1.96788082998e+12
161.17433186	2.09416725842e+12
172.428361095	2.01040242065e+12
190.73007138	2.17046919535e+12
204.148894758	2.10340483999e+12
216.781362299	2.05369565525e+12
228.410032139	1.98413574326e+12
242.217420739	1.99385510602e+12
253.237995775	2.0200796476e+12
264.153212865	2.01432004962e+12
276.529235504	2.04261281135e+12
288.739411628	1.92723524025e+12
304.533636409	1.93934280191e+12
325.24502157	2.01172189245e+12
335.327368726	1.99048107550e+12
345.521010959	1.9661339226e+12
356.722299321	2.06213188378e+12
377.823797466	2.11280851607e+12
388.398296569	2.03889857635e+12
400.476897449	2.08552626492e+12
412.493888737	2.15683219457e+12
424.562389083	2.15654138495e+12
436.114380267	1.8728707291e+12
447.360092222	2.22300137731e+12
458.552722911	1.90078992965e+12
470.024270854	1.97464149015e+12
481.761672282	1.99903922652e+12
493.789300638	2.01923605812e+12
505.032755702	1.88094788808e+12
516.905154381	2.03698822263e+12
527.755605649	2.08440896945e+12
540.188620117	2.21027686178e+12
552.537772429	2.11686639207e+12
564.649271568	2.12357074292e+12
578.139619895	1.9684939135e+12
592.044641329	2.26312779173e+12
605.244823751	2.23550093752e+12
617.756153088	2.13467360711e+12
629.342678278	1.87967750386e+12
640.071846267	2.16205212103e+12
650.744656212	1.90323109855e+12
661.433500799	1.80703530551e+12
671.454548774	1.93584927428e+12
682.16597175	2.08598095976e+12
698.66485459	1.89184162954e+12
710.218950788	1.85915958565e+12
720.339710264	1.90687206617e+12
731.962127333	1.79061138656e+12
