Distance	Power
26.1319159674	1.93881883307e+12
41.9741795677	1.71299967344e+12
62.2045720585	1.7258565097e+12
72.462294902	1.92837224094e+12
83.7006510861	1.94494535372e+12
94.5778253805	1.76968124454e+12
106.278998582	1.79629260947e+12
118.238059635	1.86690797457e+12
129.66075095	1.7542961938e+12
141.252879022	1.91192144764e+12
152.356377417	1.90038344931e+12
164.328000575	1.81214530858e+12
175.557858184	1.76975997059e+12
186.836463593	1.73232220881e+12
199.692899713	1.78083796856e+12
211.416873964	1.87318051357e+12
223.232521346	1.83170791614e+12
234.4487695	1.78214279534e+12
246.02732762	1.78528632991e+12
260.227000971	1.74600345653e+12
272.655000568	1.5700061651e+12
285.340131191	1.67824590022e+12
298.013078282	1.83634442423e+12
310.484800335	1.76476440371e+12
322.590279705	1.89203630074e+12
334.953467324	1.93029429756e+12
347.268122763	1.74541058928e+12
359.970488343	1.81079861857e+12
372.343395702	1.79232576961e+12
384.525156927	1.78807392701e+12
404.269298816	2.00811077064e+12
414.724783298	1.85199942031e+12
425.151635219	1.86059113029e+12
446.046089858	1.8994501087e+12
456.082929853	1.88880518721e+12
467.089304108	1.82087839542e+12
478.00527004	1.8373617227e+12
489.546650132	1.69169058869e+12
501.787261691	1.94231277605e+12
513.820710069	1.82879411638e+12
525.595853782	1.97379035663e+12
536.586817554	2.08134766726e+12
547.611089769	1.98572430909e+12
557.655990367	1.97119782205e+12
575.684410237	1.81329285599e+12
592.243649733	1.75515739059e+12
605.699273005	1.80691404003e+12
617.501090189	1.74046341595e+12
630.607674012	1.76371106697e+12
