Distance	Power
11.4431647427	1.831893436e+12
23.5432812842	1.85975037534e+12
36.4637847543	1.92134814923e+12
48.608016117	1.89836749544e+12
60.8128791402	1.8426604398e+12
74.5931701767	1.83117038399e+12
90.4015630789	1.86445880711e+12
107.08414296	1.87714919221e+12
125.520878329	1.82649069071e+12
140.791652096	1.74909025077e+12
154.476307571	1.68334399857e+12
167.201173795	1.84376922005e+12
180.466869972	1.71936236775e+12
193.663711955	1.92880758527e+12
206.179135575	1.88427143066e+12
218.632347681	1.80260056976e+12
232.25252176	1.66317255006e+12
245.332291004	1.91652181551e+12
258.509255504	1.89176039907e+12
271.390714663	1.63760368913e+12
283.552128997	1.78933183526e+12
295.507366629	1.84594426362e+12
307.541754283	1.88439231759e+12
318.852174012	1.77718006968e+12
330.685752226	1.93085505061e+12
342.760731405	1.90727495279e+12
354.574595491	1.84610474186e+12
367.428988673	1.8400684561e+12
379.717355446	1.93599667843e+12
392.645698522	2.06969417183e+12
405.905782144	1.84750016695e+12
419.348967844	1.62578401761e+12
432.404637114	1.84446379679e+12
445.501758577	1.84108392464e+12
459.050448802	1.80358666771e+12
471.518125889	1.75096131559e+12
484.619127165	1.8265653803e+12
496.178265902	1.82171052486e+12
507.979787938	1.92774591045e+12
519.399400805	1.86716398148e+12
531.183718243	1.71079172533e+12
543.062676304	1.95373420971e+12
555.127148066	1.95177011731e+12
567.601142278	1.95116831873e+12
580.382141757	1.90805924291e+12
593.249079614	1.88033697219e+12
605.204579075	1.73617147661e+12
617.204315292	1.86407486282e+12
637.184742872	1.71623100414e+12
651.982211638	1.85670482767e+12
662.763979017	1.8132594634e+12
7.02480383562	1.5352949028e+12
20.5023741675	1.58437182151e+12
32.8502294633	1.58579799788e+12
45.2134924122	1.61481268856e+12
58.8654753861	1.6112627242e+12
72.8060132793	1.56954097148e+12
90.4840654447	1.59580655054e+12
110.763509802	1.59022287758e+12
122.01276507	1.59485842156e+12
133.667177736	1.54325603334e+12
146.342639468	1.62666719206e+12
158.989597373	1.47093449503e+12
172.531358296	1.51714050171e+12
186.098530379	1.5514666544e+12
200.198798748	1.56713564225e+12
213.975145313	1.61254696576e+12
227.037507662	1.50970370031e+12
240.267964283	1.57023804015e+12
253.14977071	1.55637022733e+12
265.887735665	1.5896121295e+12
278.753302613	1.57598708582e+12
292.242910771	1.69883729096e+12
304.83743983	1.69061329394e+12
318.098757991	1.60664180747e+12
330.7657061	1.60766953125e+12
343.066536841	1.54352508785e+12
355.76937811	1.70032747176e+12
369.307131352	1.69054163446e+12
381.96129484	1.55226498279e+12
394.03203347	1.75669611848e+12
405.941089604	1.52725469636e+12
419.997994991	1.36507782188e+12
432.288351715	1.39191307332e+12
444.586088518	1.49235216208e+12
456.123310003	1.57715437439e+12
474.057837555	1.44365520875e+12
487.127295128	1.4609909676e+12
498.001956437	1.48547974928e+12
508.441531555	1.48717933334e+12
522.352368488	1.52598459851e+12
536.723544749	1.61626029849e+12
555.639580768	1.60509937468e+12
566.69362035	1.68978012997e+12
577.374541951	1.78145569135e+12
588.261501156	2.10817303824e+12
607.509277814	1.9797219124e+12
617.733724998	1.99063540434e+12
629.531231972	1.86186886489e+12
641.224542076	1.76188313715e+12
653.436677069	1.75959945424e+12
665.730307169	1.73153860376e+12
