Distance	Power
12.2692315384	1.7618305208e+12
31.3314432448	1.70539148329e+12
50.7282303462	1.65067656518e+12
60.8863481715	1.56792843946e+12
80.9622425256	1.76518304144e+12
92.581220549	1.55205445362e+12
103.052427403	1.63363942037e+12
114.069731017	1.51978665267e+12
124.506867172	1.6746754343e+12
134.773020425	1.60198186073e+12
145.789960506	1.66939961566e+12
156.73800127	1.66701658246e+12
167.195998275	1.58183533576e+12
177.766301498	1.58876845699e+12
188.148753247	1.7507062727e+12
198.580914005	1.59110184408e+12
217.338760189	1.5502348936e+12
237.222143709	1.62121248573e+12
254.659539082	1.62335313688e+12
269.794317278	1.50618286034e+12
281.485928051	1.63138602174e+12
291.92608673	1.50848550503e+12
302.020960814	1.54879750566e+12
313.562395637	1.48887373134e+12
325.588790931	1.55994764075e+12
339.914438757	1.59554122838e+12
356.880197564	1.5316931717e+12
371.093408575	1.82187257466e+12
383.947161037	1.55122203566e+12
394.559070678	1.52846907178e+12
406.745976151	1.48160377994e+12
426.222595169	1.57574280191e+12
441.637978785	1.41322370072e+12
460.735333586	1.51641223436e+12
479.283325662	1.65836310607e+12
498.447117227	1.63383103903e+12
517.981388537	1.65505832965e+12
528.311241991	1.71319469466e+12
