Distance	Power
37.7027364821	1.65894607962e+12
51.2026399541	1.63699079107e+12
64.3451018259	1.53237244294e+12
77.4126667918	1.6153862065e+12
93.76136126	1.62996989689e+12
112.360529656	1.60761240358e+12
122.605838499	1.45311376815e+12
133.233804685	1.63206595458e+12
144.258915126	1.53801181088e+12
155.200934222	1.73163801793e+12
166.549690213	1.60201640002e+12
178.432454087	1.54312513825e+12
190.390317841	1.68167471503e+12
201.978176071	1.56956417069e+12
212.922480947	1.66690700408e+12
224.226561565	1.51854626641e+12
235.819734609	1.49764653009e+12
247.45317982	1.53934121851e+12
259.267996871	1.58093572466e+12
271.299432258	1.57197999831e+12
283.376246962	1.60672426945e+12
295.33359221	1.59412155582e+12
307.325060118	1.5823823405e+12
319.728755341	1.4365096634e+12
331.464630521	1.61909426167e+12
343.919137709	1.56261320313e+12
356.447252774	1.50609020973e+12
369.377062545	1.57382122183e+12
382.418797316	1.404198068e+12
395.567393198	1.46926621003e+12
408.811189085	1.55313416321e+12
422.560430716	1.56492275158e+12
435.722476155	1.50752971444e+12
449.063646775	1.5139757385e+12
462.239254624	1.54202549666e+12
475.515982428	1.42147635665e+12
487.584821641	1.52928649421e+12
499.143480171	1.48878091168e+12
509.988078253	1.53745006527e+12
520.649445676	1.57738983237e+12
531.091922281	1.56048527571e+12
541.870631525	1.55885049878e+12
553.218799495	1.67864338175e+12
565.179267042	1.51606868017e+12
576.27998484	1.47473119524e+12
588.953885297	1.54720248285e+12
602.225094518	1.37297394859e+12
615.050268899	1.24609036584e+12
627.166870301	1.56979429876e+12
639.20133051	1.58290230435e+12
649.875959703	1.54829484037e+12
663.168636429	2.14767322975e+12
