Time	SOD	Volt	Current	Temp	Signal	Latitude	Longitude	CellID	Power	Distance
1408227301285	71	3933018	332100	390	15	37.44456825	-122.16090388	4840551	1.3061552778e+12	8.16886834237
1408227301313	71	3930660	380400	390	15	37.44456825	-122.16090388	4840551	1.495223064e+12	8.16886834237
1408227301372	71	3928893	415300	390	15	37.44456825	-122.16090388	4840551	1.6316692629e+12	8.16886834237
1408227301387	71	3932724	351100	391	15	37.44456825	-122.16090388	4840551	1.3807793964e+12	8.16886834237
1408227301403	71	3935082	353400	390	15	37.44456825	-122.16090388	4840551	1.3906579788e+12	8.16886834237
1408227301437	71	3935670	389500	390	15	37.44456825	-122.16090388	4840551	1.532943465e+12	8.16886834237
1408227301453	71	3934788	349400	391	15	37.44456825	-122.16090388	4840551	1.3748149272e+12	8.16886834237
1408227301469	71	3935376	394700	390	15	37.44456825	-122.16090388	4840551	1.5532929072e+12	8.16886834237
1408227301499	71	3935082	380400	390	15	37.44456825	-122.16090388	4840551	1.4969051928e+12	8.16886834237
1408227301515	71	3935376	372300	390	15	37.44456825	-122.16090388	4840551	1.4651404848e+12	8.16886834237
1408227301530	71	3935670	348800	390	15	37.44456825	-122.16090388	4840551	1.372761696e+12	8.16886834237
1408227301546	71	3937146	408400	390	15	37.44456825	-122.16090388	4840551	1.6079304264e+12	8.16886834237
1408227301620	71	3945693	309200	390	15	37.44456825	-122.16090388	4840551	1.2200082756e+12	8.16886834237
1408227301651	71	3942744	285600	390	15	37.44456825	-122.16090388	4840551	1.1260476864e+12	8.16886834237
1408227301674	71	3947754	279900	390	15	37.44456825	-122.16090388	4840551	1.1049763446e+12	8.16886834237
1408227301756	71	3945987	290300	390	15	37.44456825	-122.16090388	4840551	1.1455200261e+12	8.16886834237
1408227301781	71	3943038	328100	390	15	37.44456825	-122.16090388	4840551	1.2937107678e+12	8.16886834237
1408227301804	71	3949227	297100	390	15	37.44456825	-122.16090388	4840551	1.1733153417e+12	8.16886834237
1408227301889	71	3947166	263300	390	15	37.44456825	-122.16090388	4840551	1.0392888078e+12	8.16886834237
1408227301906	71	3929187	305700	390	15	37.44456825	-122.16090388	4840551	1.2011524659e+12	8.16886834237
1408227301926	71	3930957	327500	390	15	37.44456825	-122.16090388	4840551	1.2873884175e+12	8.16886834237
1408227301964	71	3927420	359600	390	15	37.44456825	-122.16090388	4840551	1.412300232e+12	8.16886834237
1408227301985	71	3931251	337900	390	15	37.44456825	-122.16090388	4840551	1.3283697129e+12	8.16886834237
1408227302005	71	3924471	362000	390	15	37.44456825	-122.16090388	4840551	1.420658502e+12	8.16886834237
1408227302026	71	3928008	327500	391	15	37.44456825	-122.16090388	4840551	1.28642262e+12	8.16886834237
1408227302059	71	3934491	470400	390	15	37.44456825	-122.16090388	4840551	1.8507845664e+12	8.16886834237
1408227302083	71	3939207	370500	390	15	37.44456825	-122.16090388	4840551	1.4594761935e+12	8.16886834237
1408227302103	71	3939798	321800	390	15	37.44456825	-122.16090388	4840551	1.2678269964e+12	8.16886834237
1408227302172	71	3948639	296500	390	15	37.44456825	-122.16090388	4840551	1.1707714635e+12	8.16886834237
1408227302202	71	3940386	389500	390	15	37.44456825	-122.16090388	4840551	1.534780347e+12	8.16886834237
1408227302222	71	3940386	336700	390	15	37.44456825	-122.16090388	4840551	1.3267279662e+12	8.16886834237
1408227302256	71	3933312	403300	390	15	37.44456825	-122.16090388	4840551	1.5863047296e+12	8.16886834237
1408227302281	71	3926829	437700	390	15	37.44456825	-122.16090388	4840551	1.7187730533e+12	8.16886834237
1408227302309	71	3923292	428000	390	15	37.44456825	-122.16090388	4840551	1.679168976e+12	8.16886834237
1408227302345	71	3924471	485300	390	15	37.44456825	-122.16090388	4840551	1.9045457763e+12	8.16886834237
1408227302365	71	3926535	282800	390	15	37.44456825	-122.16090388	4840551	1.110424098e+12	8.16886834237
1408227302394	71	3940386	321800	390	15	37.44456825	-122.16090388	4840551	1.2680162148e+12	8.16886834237
1408227302415	71	3943629	323500	390	15	37.44456825	-122.16090388	4840551	1.2757639815e+12	8.16886834237
1408227302492	71	3947460	308000	390	15	37.44456825	-122.16090388	4840551	1.21581768e+12	8.16886834237
1408227302511	71	3930366	368800	391	15	37.44456825	-122.16090388	4840551	1.4495189808e+12	8.16886834237
1408227302529	71	3932430	378000	390	15	37.44456825	-122.16090388	4840551	1.48645854e+12	8.16886834237
1408227302563	71	3934197	294300	390	15	37.44456825	-122.16090388	4840551	1.1578341771e+12	8.16886834237
1408227302582	71	3938619	312600	390	15	37.44456825	-122.16090388	4840551	1.2312122994e+12	8.16886834237
1408227302602	71	3937734	426300	390	15	37.44456825	-122.16090388	4840551	1.6786560042e+12	8.16886834237
1408227302642	71	3938028	337900	390	15	37.44456825	-122.16090388	4840551	1.3306596612e+12	8.16886834237
1408227302660	71	3930660	341300	390	15	37.44456825	-122.16090388	4840551	1.341534258e+12	8.16886834237
1408227302679	71	3931545	351600	390	15	37.44456825	-122.16090388	4840551	1.382331222e+12	8.16886834237
1408227302731	71	3937440	325300	390	15	37.44456825	-122.16090388	4840551	1.280849232e+12	8.16886834237
1408227302753	71	3943038	331500	390	15	37.44456825	-122.16090388	4840551	1.307117097e+12	8.16886834237
1408227302775	71	3944514	286200	390	15	37.44456825	-122.16090388	4840551	1.1289199068e+12	8.16886834237
1408227302811	71	3946872	309700	390	15	37.44456825	-122.16090388	4840551	1.2223462584e+12	8.16886834237
1408227302887	71	3935376	318400	391	15	37.44456825	-122.16090388	4840551	1.2530237184e+12	8.16886834237
1408227302906	71	3929187	383200	390	15	37.44456825	-122.16090388	4840551	1.5056644584e+12	8.16886834237
1408227302926	71	3930660	318900	390	15	37.44456825	-122.16090388	4840551	1.253487474e+12	8.16886834237
1408227302960	71	3936555	349400	390	15	37.44456825	-122.16090388	4840551	1.375432317e+12	8.16886834237
1408227302977	71	3932136	363700	390	15	37.44456825	-122.16090388	4840551	1.4301178632e+12	8.16886834237
1408227302998	71	3937734	366000	390	15	37.44456825	-122.16090388	4840551	1.441210644e+12	8.16886834237
1408227303033	71	3930957	291400	390	15	37.44456825	-122.16090388	4840551	1.1454808698e+12	8.16886834237
1408227303050	71	3933609	387300	390	15	37.44456825	-122.16090388	4840551	1.5234867657e+12	8.16886834237
1408227303067	71	3928893	349400	391	15	37.44456825	-122.16090388	4840551	1.3727552142e+12	8.16886834237
1408227303128	71	3941565	369400	390	15	37.44456825	-122.16090388	4840551	1.456014111e+12	8.16886834237
1408227303148	71	3928599	327000	390	15	37.44456825	-122.16090388	4840551	1.284651873e+12	8.16886834237
1408227303166	71	3930366	351600	390	15	37.44456825	-122.16090388	4840551	1.3819166856e+12	8.16886834237
1408227303186	71	3929187	351600	390	15	37.44456825	-122.16090388	4840551	1.3815021492e+12	8.16886834237
1408227303218	71	3937146	457300	390	15	37.44456825	-122.16090388	4840551	1.8004568658e+12	8.16886834237
1408227303237	71	3929187	412400	391	15	37.44456825	-122.16090388	4840551	1.6203967188e+12	8.16886834237
1408227303257	71	3925356	289100	391	15	37.44456825	-122.16090388	4840551	1.1348204196e+12	8.16886834237
1408227303289	71	3925356	289100	391	15	37.44466318	-122.16080397	4840551	1.1348204196e+12	21.9227649584
1408227303293	71	3917988	434800	391	15	37.44466318	-122.16080397	4840551	1.7035411824e+12	21.9227649584
1408227303312	71	3917103	491100	391	15	37.44466318	-122.16080397	4840551	1.9236892833e+12	21.9227649584
1408227303333	71	3920346	484100	390	15	37.44466318	-122.16080397	4840551	1.8978394986e+12	21.9227649584
1408227303377	71	3943629	310900	390	15	37.44466318	-122.16080397	4840551	1.2260742561e+12	21.9227649584
1408227303399	71	3940092	319500	390	15	37.44466318	-122.16080397	4840551	1.258859394e+12	21.9227649584
1408227303418	71	3943335	316100	390	15	37.44466318	-122.16080397	4840551	1.2464881935e+12	21.9227649584
1408227303485	71	3945987	336200	390	15	37.44466318	-122.16080397	4840551	1.3266408294e+12	21.9227649584
1408227303506	71	3926829	265000	390	15	37.44466318	-122.16080397	4840551	1.040609685e+12	21.9227649584
1408227303529	71	3940680	316100	390	15	37.44466318	-122.16080397	4840551	1.245648948e+12	21.9227649584
1408227303548	71	3930366	309200	390	15	37.44466318	-122.16080397	4840551	1.2152691672e+12	21.9227649584
1408227303579	71	3936849	465200	390	15	37.44466318	-122.16080397	4840551	1.8314221548e+12	21.9227649584
1408227303595	71	3920934	478400	390	15	37.44466318	-122.16080397	4840551	1.8757748256e+12	21.9227649584
1408227303611	71	3918579	479600	390	15	37.44466318	-122.16080397	4840551	1.8793504884e+12	21.9227649584
1408227303655	71	3935670	470400	390	15	37.44466318	-122.16080397	4840551	1.851339168e+12	21.9227649584
1408227303675	71	3930072	292500	390	15	37.44466318	-122.16080397	4840551	1.14954606e+12	21.9227649584
1408227303696	71	3939798	375200	390	15	37.44466318	-122.16080397	4840551	1.4782122096e+12	21.9227649584
1408227303746	71	3940092	290800	390	15	37.44466318	-122.16080397	4840551	1.1457787536e+12	21.9227649584
1408227303776	71	3943629	277000	390	15	37.44466318	-122.16080397	4840551	1.092385233e+12	21.9227649584
1408227303800	71	3945396	272500	390	15	37.44466318	-122.16080397	4840551	1.07512041e+12	21.9227649584
1408227303883	71	3946872	294800	390	15	37.44466318	-122.16080397	4840551	1.1635378656e+12	21.9227649584
1408227303906	71	3941565	368300	390	15	37.44466318	-122.16080397	4840551	1.4516783895e+12	21.9227649584
1408227303926	71	3927420	331000	390	15	37.44466318	-122.16080397	4840551	1.29997602e+12	21.9227649584
1408227303946	71	3927714	366000	390	15	37.44466318	-122.16080397	4840551	1.437543324e+12	21.9227649584
1408227303984	71	3938028	476200	390	15	37.44466318	-122.16080397	4840551	1.8752889336e+12	21.9227649584
1408227304000	71	3939504	366000	390	15	37.44466318	-122.16080397	4840551	1.441858464e+12	21.9227649584
1408227304019	71	3926829	416400	390	15	37.44466318	-122.16080397	4840551	1.6351315956e+12	21.9227649584
1408227304055	71	3932430	399800	390	15	37.44466318	-122.16080397	4840551	1.572185514e+12	21.9227649584
1408227304075	71	3932724	290300	390	15	37.44466318	-122.16080397	4840551	1.1416697772e+12	21.9227649584
1408227304095	71	3935082	369400	390	15	37.44466318	-122.16080397	4840551	1.4536192908e+12	21.9227649584
1408227304157	71	3936555	334400	390	15	37.44466318	-122.16080397	4840551	1.316383992e+12	21.9227649584
1408227304179	71	3944808	318400	390	15	37.44466318	-122.16080397	4840551	1.2560268672e+12	21.9227649584
1408227304211	71	3939504	305700	390	15	37.44466318	-122.16080397	4840551	1.2043063728e+12	21.9227649584
1408227304295	71	3945102	279900	390	15	37.44466318	-122.16080397	4840551	1.1042340498e+12	21.9227649584
1408227304322	71	3921819	467500	390	15	37.44466318	-122.16080397	4840551	1.8334503825e+12	21.9227649584
1408227304338	71	3922113	468700	390	15	37.44466318	-122.16080397	4840551	1.8382943631e+12	21.9227649584
1408227304356	71	3923589	472200	390	15	37.44466318	-122.16080397	4840551	1.8527187258e+12	21.9227649584
1408227304389	71	3930957	466400	391	15	37.44466318	-122.16080397	4840551	1.8333983448e+12	21.9227649584
1408227304406	71	3931251	398100	390	15	37.44466318	-122.16080397	4840551	1.5650310231e+12	21.9227649584
1408227304427	71	3933312	320100	390	15	37.44466318	-122.16080397	4840551	1.2590531712e+12	21.9227649584
1408227304460	71	3935376	358000	390	15	37.44466318	-122.16080397	4840551	1.408864608e+12	21.9227649584
1408227304479	71	3933312	383200	390	15	37.44466318	-122.16080397	4840551	1.5072451584e+12	21.9227649584
1408227304503	71	3945396	266700	390	15	37.44466318	-122.16080397	4840551	1.0522371132e+12	21.9227649584
1408227304548	71	3935670	277600	390	15	37.44466318	-122.16080397	4840551	1.092541992e+12	21.9227649584
1408227304569	71	3938325	296500	390	15	37.44466318	-122.16080397	4840551	1.1677133625e+12	21.9227649584
1408227304591	71	3939504	329300	391	15	37.44466318	-122.16080397	4840551	1.2972786672e+12	21.9227649584
1408227304673	71	3946872	294800	390	15	37.44466318	-122.16080397	4840551	1.1635378656e+12	21.9227649584
1408227304691	71	3938028	317800	390	15	37.44466318	-122.16080397	4840551	1.2515052984e+12	21.9227649584
1408227304710	71	3931839	394700	390	15	37.44466318	-122.16080397	4840551	1.5518968533e+12	21.9227649584
1408227304727	71	3930366	378000	391	15	37.44466318	-122.16080397	4840551	1.485678348e+12	21.9227649584
1408227304759	71	3933312	499100	391	15	37.44466318	-122.16080397	4840551	1.9631160192e+12	21.9227649584
1408227304776	71	3930072	413100	390	15	37.44466318	-122.16080397	4840551	1.6235127432e+12	21.9227649584
1408227304793	71	3931839	358500	390	15	37.44466318	-122.16080397	4840551	1.4095642815e+12	21.9227649584
1408227304832	71	3931839	331500	390	15	37.44466318	-122.16080397	4840551	1.3034046285e+12	21.9227649584
1408227304852	71	3937440	364800	390	15	37.44466318	-122.16080397	4840551	1.436378112e+12	21.9227649584
1408227304872	71	3939207	329800	390	15	37.44466318	-122.16080397	4840551	1.2991504686e+12	21.9227649584
1408227304928	71	3947460	325300	390	15	37.44466318	-122.16080397	4840551	1.284108738e+12	21.9227649584
1408227304949	71	3935376	278200	390	15	37.44466318	-122.16080397	4840551	1.0948216032e+12	21.9227649584
1408227304970	71	3944217	318900	390	15	37.44466318	-122.16080397	4840551	1.2578108013e+12	21.9227649584
1408227305056	71	3948345	274700	390	15	37.44466318	-122.16080397	4840551	1.0846103715e+12	21.9227649584
1408227305077	71	3943038	274700	390	15	37.44466318	-122.16080397	4840551	1.0831525386e+12	21.9227649584
1408227305101	71	3943335	254100	390	15	37.44466318	-122.16080397	4840551	1.0020014235e+12	21.9227649584
1408227305124	71	3948048	304500	390	15	37.44466318	-122.16080397	4840551	1.202180616e+12	21.9227649584
1408227305204	71	3942744	325800	390	15	37.44466318	-122.16080397	4840551	1.2845459952e+12	21.9227649584
1408227305231	71	3941565	278200	391	15	37.44466318	-122.16080397	4840551	1.096543383e+12	21.9227649584
1408227305253	71	3947166	317800	390	15	37.44466318	-122.16080397	4840551	1.2544093548e+12	21.9227649584
1408227305331	71	3947166	317800	390	15	37.44478538	-122.16068206	4840551	1.2544093548e+12	39.2524668525
1408227305342	71	3924768	312100	390	15	37.44478538	-122.16068206	4840551	1.2249200928e+12	39.2524668525
1408227305362	71	3921231	467500	390	15	37.44478538	-122.16068206	4840551	1.8331754925e+12	39.2524668525
1408227305379	71	3937440	445200	390	15	37.44478538	-122.16068206	4840551	1.752948288e+12	39.2524668525
1408227305415	71	3932430	296500	390	15	37.44478538	-122.16068206	4840551	1.165965495e+12	39.2524668525
1408227305434	71	3933018	316100	390	15	37.44478538	-122.16068206	4840551	1.2432269898e+12	39.2524668525
1408227305456	71	3932724	302300	390	15	37.44478538	-122.16068206	4840551	1.1888624652e+12	39.2524668525
1408227305494	71	3933018	312600	390	15	37.44478538	-122.16068206	4840551	1.2294614268e+12	39.2524668525
1408227305513	71	3935670	391300	391	15	37.44478538	-122.16068206	4840551	1.540027671e+12	39.2524668525
1408227305531	71	3938325	316100	390	15	37.44478538	-122.16068206	4840551	1.2449045325e+12	39.2524668525
1408227305553	71	3942450	341300	390	15	37.44478538	-122.16068206	4840551	1.345558185e+12	39.2524668525
1408227305601	71	3948345	329300	390	15	37.44478538	-122.16068206	4840551	1.3001900085e+12	39.2524668525
1408227305623	71	3946872	285600	390	15	37.44478538	-122.16068206	4840551	1.1272266432e+12	39.2524668525
1408227305656	71	3949227	269500	390	15	37.44478538	-122.16068206	4840551	1.0643166765e+12	39.2524668525
1408227305725	71	3945693	281600	390	15	37.44478538	-122.16068206	4840551	1.1111071488e+12	39.2524668525
1408227305746	71	3922113	291400	390	15	37.44478538	-122.16068206	4840551	1.1429037282e+12	39.2524668525
1408227305766	71	3925356	307400	390	15	37.44478538	-122.16068206	4840551	1.2066544344e+12	39.2524668525
1408227305803	71	3929778	332700	390	15	37.44478538	-122.16068206	4840551	1.3074371406e+12	39.2524668525
1408227305823	71	3940386	321800	390	15	37.44478538	-122.16068206	4840551	1.2680162148e+12	39.2524668525
1408227305845	71	3938028	349900	390	15	37.44478538	-122.16068206	4840551	1.3779159972e+12	39.2524668525
1408227305879	71	3935967	314900	391	15	37.44478538	-122.16068206	4840551	1.2394360083e+12	39.2524668525
1408227305899	71	3925062	299500	390	15	37.44478538	-122.16068206	4840551	1.175556069e+12	39.2524668525
1408227305916	71	3931251	328100	390	15	37.44478538	-122.16068206	4840551	1.2898434531e+12	39.2524668525
1408227305938	71	3942156	332100	390	15	37.44478538	-122.16068206	4840551	1.3091900076e+12	39.2524668525
1408227305997	71	3940092	340200	390	15	37.44478538	-122.16068206	4840551	1.3404192984e+12	39.2524668525
1408227306017	71	3942450	266700	390	15	37.44478538	-122.16068206	4840551	1.051451415e+12	39.2524668525
1408227306039	71	3949818	265000	390	15	37.44478538	-122.16068206	4840551	1.04670177e+12	39.2524668525
1408227306118	71	3943923	277000	390	15	37.44478538	-122.16068206	4840551	1.092466671e+12	39.2524668525
1408227306139	71	3945693	289600	390	15	37.44478538	-122.16068206	4840551	1.1426726928e+12	39.2524668525
1408227306162	71	3949227	309200	390	15	37.44478538	-122.16068206	4840551	1.2211009884e+12	39.2524668525
1408227306236	71	3946281	286800	391	15	37.44478538	-122.16068206	4840551	1.1317933908e+12	39.2524668525
1408227306255	71	3921819	428500	390	15	37.44478538	-122.16068206	4840551	1.6804994415e+12	39.2524668525
1408227306270	71	3936261	370500	390	15	37.44478538	-122.16068206	4840551	1.4583847005e+12	39.2524668525
1408227306309	71	3932136	360800	390	15	37.44478538	-122.16068206	4840551	1.4187146688e+12	39.2524668525
1408227306332	71	3920052	470400	390	15	37.44478538	-122.16068206	4840551	1.8439924608e+12	39.2524668525
1408227306355	71	3922704	454300	390	15	37.44478538	-122.16068206	4840551	1.7820844272e+12	39.2524668525
1408227306373	71	3938913	297100	390	15	37.44478538	-122.16068206	4840551	1.1702510523e+12	39.2524668525
1408227306407	71	3930072	463000	390	15	37.44478538	-122.16068206	4840551	1.819623336e+12	39.2524668525
1408227306426	71	3932136	341300	390	15	37.44478538	-122.16068206	4840551	1.3420380168e+12	39.2524668525
1408227306451	71	3940092	373400	391	15	37.44478538	-122.16068206	4840551	1.4712303528e+12	39.2524668525
1408227306501	71	3941859	282800	390	15	37.44478538	-122.16068206	4840551	1.1147577252e+12	39.2524668525
1408227306520	71	3943335	328100	390	15	37.44478538	-122.16068206	4840551	1.2938082135e+12	39.2524668525
1408227306544	71	3947166	289100	390	15	37.44478538	-122.16068206	4840551	1.1411256906e+12	39.2524668525
1408227306621	71	3946281	292500	390	15	37.44478538	-122.16068206	4840551	1.1542871925e+12	39.2524668525
1408227306646	71	3945396	290300	390	15	37.44478538	-122.16068206	4840551	1.1453484588e+12	39.2524668525
1408227306702	71	3946575	272500	390	15	37.44478538	-122.16068206	4840551	1.0754416875e+12	39.2524668525
1408227306786	71	3947166	271300	390	15	37.44478538	-122.16068206	4840551	1.0708661358e+12	39.2524668525
1408227306806	71	3933312	419900	390	15	37.44478538	-122.16068206	4840551	1.6515977088e+12	39.2524668525
1408227306825	71	3933018	310900	391	15	37.44478538	-122.16068206	4840551	1.2227752962e+12	39.2524668525
1408227306847	71	3933312	366500	390	15	37.44478538	-122.16068206	4840551	1.441558848e+12	39.2524668525
1408227306888	71	3927420	449800	390	15	37.44478538	-122.16068206	4840551	1.766553516e+12	39.2524668525
1408227306907	71	3927714	282200	390	15	37.44478538	-122.16068206	4840551	1.1084008908e+12	39.2524668525
1408227306927	71	3932724	315400	390	15	37.44478538	-122.16068206	4840551	1.2403811496e+12	39.2524668525
1408227306962	71	3939504	261500	390	15	37.44478538	-122.16068206	4840551	1.030180296e+12	39.2524668525
1408227306988	71	3941565	289600	390	15	37.44478538	-122.16068206	4840551	1.141477224e+12	39.2524668525
1408227307011	71	3942744	274200	391	15	37.44478538	-122.16068206	4840551	1.0811004048e+12	39.2524668525
1408227307092	71	3947166	281100	390	15	37.44478538	-122.16068206	4840551	1.1095483626e+12	39.2524668525
1408227307110	71	3940386	379700	390	15	37.44478538	-122.16068206	4840551	1.4961645642e+12	39.2524668525
1408227307126	71	3934788	348800	390	15	37.44478538	-122.16068206	4840551	1.3724540544e+12	39.2524668525
1408227307162	71	3930957	395800	390	15	37.44478538	-122.16068206	4840551	1.5558727806e+12	39.2524668525
1408227307183	71	3937734	301700	390	15	37.44478538	-122.16068206	4840551	1.1880143478e+12	39.2524668525
1408227307203	71	3935967	436500	391	15	37.44478538	-122.16068206	4840551	1.7180495955e+12	39.2524668525
1408227307222	71	3939504	304000	390	15	37.44478538	-122.16068206	4840551	1.197609216e+12	39.2524668525
1408227307255	71	3920346	468200	390	15	37.44478538	-122.16068206	4840551	1.8355059972e+12	39.2524668525
1408227307278	71	3932724	387800	390	15	37.44478538	-122.16068206	4840551	1.5251103672e+12	39.2524668525
1408227307297	71	3932724	387800	390	15	37.444902569999996	-122.1605563	4840551	1.5251103672e+12	56.3700431399
1408227307300	71	3939798	362500	390	15	37.444902569999996	-122.1605563	4840551	1.428176775e+12	56.3700431399
1408227307364	71	3924177	331000	390	15	37.444902569999996	-122.1605563	4840551	1.298902587e+12	56.3700431399
1408227307383	71	3942744	317200	391	15	37.444902569999996	-122.1605563	4840551	1.2506383968e+12	56.3700431399
1408227307402	71	3941565	407200	390	15	37.444902569999996	-122.1605563	4840551	1.605005268e+12	56.3700431399
1408227307436	71	3942156	301700	390	15	37.444902569999996	-122.1605563	4840551	1.1893484652e+12	56.3700431399
1408227307455	71	3928893	298300	390	15	37.444902569999996	-122.1605563	4840551	1.1719887819e+12	56.3700431399
1408227307475	71	3928302	327000	390	15	37.444902569999996	-122.1605563	4840551	1.284554754e+12	56.3700431399
1408227307515	71	3933312	289100	390	15	37.444902569999996	-122.1605563	4840551	1.1371204992e+12	56.3700431399
1408227307536	71	3929778	323500	390	15	37.444902569999996	-122.1605563	4840551	1.271283183e+12	56.3700431399
1408227307558	71	3943923	271300	390	15	37.444902569999996	-122.1605563	4840551	1.0699863099e+12	56.3700431399
1408227307577	71	3942450	296000	391	15	37.444902569999996	-122.1605563	4840551	1.1669652e+12	56.3700431399
1408227307656	71	3928599	421600	390	15	37.444902569999996	-122.1605563	4840551	1.6562973384e+12	56.3700431399
1408227307675	71	3935082	305700	390	15	37.444902569999996	-122.1605563	4840551	1.2029545674e+12	56.3700431399
1408227307692	71	3941271	331500	390	15	37.444902569999996	-122.1605563	4840551	1.3065313365e+12	56.3700431399
1408227307726	71	3930660	393000	390	15	37.444902569999996	-122.1605563	4840551	1.54474938e+12	56.3700431399
1408227307745	71	3928302	330500	390	15	37.444902569999996	-122.1605563	4840551	1.298303811e+12	56.3700431399
1408227307765	71	3928302	333300	391	15	37.444902569999996	-122.1605563	4840551	1.3093030566e+12	56.3700431399
1408227307805	71	3935082	313700	390	15	37.444902569999996	-122.1605563	4840551	1.2344352234e+12	56.3700431399
1408227307825	71	3934788	293700	390	15	37.444902569999996	-122.1605563	4840551	1.1556472356e+12	56.3700431399
1408227307846	71	3944514	362000	390	15	37.444902569999996	-122.1605563	4840551	1.427914068e+12	56.3700431399
1408227307896	71	3943038	278700	390	15	37.444902569999996	-122.1605563	4840551	1.0989246906e+12	56.3700431399
1408227307925	71	3946575	260400	390	15	37.444902569999996	-122.1605563	4840551	1.02768813e+12	56.3700431399
1408227307954	71	3945396	265500	390	15	37.444902569999996	-122.1605563	4840551	1.047502638e+12	56.3700431399
1408227307977	71	3948933	265000	390	15	37.444902569999996	-122.1605563	4840551	1.046467245e+12	56.3700431399
1408227308060	71	3930366	278700	390	15	37.444902569999996	-122.1605563	4840551	1.0953930042e+12	56.3700431399
1408227308079	71	3933609	371700	390	15	37.444902569999996	-122.1605563	4840551	1.4621224653e+12	56.3700431399
1408227308096	71	3928599	289100	390	15	37.444902569999996	-122.1605563	4840551	1.1357579709e+12	56.3700431399
1408227308131	71	3939798	322900	390	15	37.444902569999996	-122.1605563	4840551	1.2721607742e+12	56.3700431399
1408227308148	71	3930957	376400	390	15	37.444902569999996	-122.1605563	4840551	1.4796122148e+12	56.3700431399
1408227308170	71	3940977	320100	390	15	37.444902569999996	-122.1605563	4840551	1.2615067377e+12	56.3700431399
1408227308205	71	3931839	308600	390	15	37.444902569999996	-122.1605563	4840551	1.2133655154e+12	56.3700431399
1408227308225	71	3925947	319500	390	15	37.444902569999996	-122.1605563	4840551	1.2543400665e+12	56.3700431399
1408227308245	71	3925356	425100	390	15	37.444902569999996	-122.1605563	4840551	1.6686688356e+12	56.3700431399
1408227308303	71	3935376	386100	390	15	37.444902569999996	-122.1605563	4840551	1.5194486736e+12	56.3700431399
1408227308322	71	3908853	488800	390	15	37.444902569999996	-122.1605563	4840551	1.9106473464e+12	56.3700431399
1408227308339	71	3931545	496200	390	15	37.444902569999996	-122.1605563	4840551	1.950832629e+12	56.3700431399
1408227308360	71	3938325	298800	390	15	37.444902569999996	-122.1605563	4840551	1.17677151e+12	56.3700431399
1408227308395	71	3926241	467500	390	15	37.444902569999996	-122.1605563	4840551	1.8355176675e+12	56.3700431399
1408227308417	71	3930366	265000	391	15	37.444902569999996	-122.1605563	4840551	1.04154699e+12	56.3700431399
1408227308436	71	3929481	355100	391	15	37.444902569999996	-122.1605563	4840551	1.3953587031e+12	56.3700431399
1408227308476	71	3929481	282800	390	15	37.444902569999996	-122.1605563	4840551	1.1112572268e+12	56.3700431399
1408227308496	71	3932430	377400	390	15	37.444902569999996	-122.1605563	4840551	1.484099082e+12	56.3700431399
1408227308519	71	3939798	341900	390	15	37.444902569999996	-122.1605563	4840551	1.3470169362e+12	56.3700431399
1408227308591	71	3942744	265500	390	15	37.444902569999996	-122.1605563	4840551	1.046798532e+12	56.3700431399
1408227308614	71	3951882	273600	390	15	37.444902569999996	-122.1605563	4840551	1.0812349152e+12	56.3700431399
1408227308635	71	3946575	278700	390	15	37.444902569999996	-122.1605563	4840551	1.0999104525e+12	56.3700431399
1408227308711	71	3947460	276500	390	15	37.444902569999996	-122.1605563	4840551	1.09147269e+12	56.3700431399
1408227308730	71	3940977	289600	391	15	37.444902569999996	-122.1605563	4840551	1.1413069392e+12	56.3700431399
1408227308750	71	3932724	343000	390	15	37.444902569999996	-122.1605563	4840551	1.348924332e+12	56.3700431399
1408227308767	71	3933312	342400	390	15	37.444902569999996	-122.1605563	4840551	1.3467660288e+12	56.3700431399
1408227308800	71	3938913	467500	390	15	37.444902569999996	-122.1605563	4840551	1.8414418275e+12	56.3700431399
1408227308817	71	3930957	327000	390	15	37.444902569999996	-122.1605563	4840551	1.285422939e+12	56.3700431399
1408227308837	71	3934491	321300	390	15	37.444902569999996	-122.1605563	4840551	1.2641519583e+12	56.3700431399
1408227308872	71	3937146	249500	390	15	37.444902569999996	-122.1605563	4840551	9.82317927e+11	56.3700431399
1408227308894	71	3938619	359600	391	15	37.444902569999996	-122.1605563	4840551	1.4163273924e+12	56.3700431399
1408227308923	71	3945693	319500	390	15	37.444902569999996	-122.1605563	4840551	1.2606489135e+12	56.3700431399
1408227308986	71	3947754	285100	390	15	37.444902569999996	-122.1605563	4840551	1.1255046654e+12	56.3700431399
1408227309019	71	3949818	246600	390	15	37.444902569999996	-122.1605563	4840551	9.740251188e+11	56.3700431399
1408227309041	71	3950406	240900	390	15	37.444902569999996	-122.1605563	4840551	9.516528054e+11	56.3700431399
1408227309123	71	3953355	258600	390	15	37.444902569999996	-122.1605563	4840551	1.022337603e+12	56.3700431399
1408227309145	71	3945693	289100	390	15	37.444902569999996	-122.1605563	4840551	1.1406998463e+12	56.3700431399
1408227309171	71	3946872	274200	390	15	37.444902569999996	-122.1605563	4840551	1.0822323024e+12	56.3700431399
1408227309193	71	3948345	280400	390	15	37.444902569999996	-122.1605563	4840551	1.107115938e+12	56.3700431399
1408227309292	71	3942156	312100	390	15	37.444902569999996	-122.1605563	4840551	1.2303468876e+12	56.3700431399
1408227309300	71	3942156	312100	390	15	37.44502132	-122.16043826	4840551	1.2303468876e+12	73.1869049154
1408227309313	71	3924768	379200	390	15	37.44502132	-122.16043826	4840551	1.4882720256e+12	73.1869049154
1408227309328	71	3922410	482400	390	15	37.44502132	-122.16043826	4840551	1.892170584e+12	73.1869049154
1408227309387	71	3926829	463000	390	15	37.44502132	-122.16043826	4840551	1.818121827e+12	73.1869049154
1408227309406	71	3930957	295400	390	15	37.44502132	-122.16043826	4840551	1.1612046978e+12	73.1869049154
1408227309426	71	3933018	313700	390	15	37.44502132	-122.16043826	4840551	1.2337877466e+12	73.1869049154
1408227309464	71	3927714	269500	390	15	37.44502132	-122.16043826	4840551	1.058518923e+12	73.1869049154
1408227309484	71	3938325	328700	390	15	37.44502132	-122.16043826	4840551	1.2945274275e+12	73.1869049154
1408227309505	71	3938913	261000	390	15	37.44502132	-122.16043826	4840551	1.028056293e+12	73.1869049154
1408227309546	71	3935670	304000	390	15	37.44502132	-122.16043826	4840551	1.19644368e+12	73.1869049154
1408227309566	71	3937440	284400	390	15	37.44502132	-122.16043826	4840551	1.119807936e+12	73.1869049154
1408227309594	71	3945396	277000	390	15	37.44502132	-122.16043826	4840551	1.092874692e+12	73.1869049154
1408227309621	71	3947166	285100	390	15	37.44502132	-122.16043826	4840551	1.1253370266e+12	73.1869049154
1408227309706	71	3931839	304500	391	15	37.44502132	-122.16043826	4840551	1.1972449755e+12	73.1869049154
1408227309726	71	3926241	361300	391	15	37.44502132	-122.16043826	4840551	1.4185508733e+12	73.1869049154
1408227309746	71	3926535	358000	390	15	37.44502132	-122.16043826	4840551	1.40569953e+12	73.1869049154
1408227309782	71	3929778	310400	390	15	37.44502132	-122.16043826	4840551	1.2198030912e+12	73.1869049154
1408227309799	71	3939504	346400	390	15	37.44502132	-122.16043826	4840551	1.3646441856e+12	73.1869049154
1408227309819	71	3932430	320600	391	15	37.44502132	-122.16043826	4840551	1.260737058e+12	73.1869049154
1408227309855	71	3930072	414700	390	15	37.44502132	-122.16043826	4840551	1.6298008584e+12	73.1869049154
1408227309875	71	3932724	301200	390	15	37.44502132	-122.16043826	4840551	1.1845364688e+12	73.1869049154
1408227309899	71	3941565	329300	390	15	37.44502132	-122.16043826	4840551	1.2979573545e+12	73.1869049154
1408227309950	71	3940977	302300	390	15	37.44502132	-122.16043826	4840551	1.1913573471e+12	73.1869049154
1408227309973	71	3942156	304500	390	15	37.44502132	-122.16043826	4840551	1.200386502e+12	73.1869049154
1408227309997	71	3946575	285600	390	15	37.44502132	-122.16043826	4840551	1.12714182e+12	73.1869049154
1408227310021	71	3942744	296500	390	15	37.44502132	-122.16043826	4840551	1.169023596e+12	73.1869049154
1408227310091	71	3946872	319500	390	15	37.44502132	-122.16043826	4840551	1.261025604e+12	73.1869049154
1408227310122	71	3939504	315400	390	15	37.44502132	-122.16043826	4840551	1.2425195616e+12	73.1869049154
1408227310142	71	3938913	343600	390	15	37.44502132	-122.16043826	4840551	1.3534105068e+12	73.1869049154
1408227310179	71	3921819	359600	390	15	37.44502132	-122.16043826	4840551	1.4102861124e+12	73.1869049154
1408227310203	71	3924768	317800	391	15	37.44502132	-122.16043826	4840551	1.2472912704e+12	73.1869049154
1408227310222	71	3936849	336700	390	15	37.44502132	-122.16043826	4840551	1.3255370583e+12	73.1869049154
1408227310256	71	3931545	421600	390	15	37.44502132	-122.16043826	4840551	1.657539372e+12	73.1869049154
1408227310281	71	3925062	420500	390	15	37.44502132	-122.16043826	4840551	1.650488571e+12	73.1869049154
1408227310310	71	3923292	402200	390	15	37.44502132	-122.16043826	4840551	1.5779480424e+12	73.1869049154
1408227310365	71	3938325	352200	391	15	37.44502132	-122.16043826	4840551	1.387078065e+12	73.1869049154
1408227310380	71	3926829	441700	391	15	37.44502132	-122.16043826	4840551	1.7344803693e+12	73.1869049154
1408227310396	71	3924177	437700	390	15	37.44502132	-122.16043826	4840551	1.7176122729e+12	73.1869049154
1408227310412	71	3925356	426800	390	15	37.44502132	-122.16043826	4840551	1.6753419408e+12	73.1869049154
1408227310442	71	3920640	538700	390	15	37.44502132	-122.16043826	4840551	2.112048768e+12	73.1869049154
1408227310458	71	3927123	448600	390	15	37.44502132	-122.16043826	4840551	1.7617073778e+12	73.1869049154
1408227310473	71	3924177	436000	390	15	37.44502132	-122.16043826	4840551	1.710941172e+12	73.1869049154
1408227310503	71	3904431	433700	391	15	37.44502132	-122.16043826	4840551	1.6933517247e+12	73.1869049154
1408227310519	71	3927714	406700	390	15	37.44502132	-122.16043826	4840551	1.5974012838e+12	73.1869049154
1408227310534	71	3925947	445200	390	15	37.44502132	-122.16043826	4840551	1.7478316044e+12	73.1869049154
1408227310565	71	3923883	433200	390	15	37.44502132	-122.16043826	4840551	1.6998261156e+12	73.1869049154
1408227310580	71	3927123	416400	391	15	37.44502132	-122.16043826	4840551	1.6352540172e+12	73.1869049154
1408227310596	71	3931839	382600	390	15	37.44502132	-122.16043826	4840551	1.5043216014e+12	73.1869049154
1408227310630	71	3922704	426300	390	15	37.44502132	-122.16043826	4840551	1.6722487152e+12	73.1869049154
1408227310647	71	3938028	384900	390	15	37.44502132	-122.16043826	4840551	1.5157469772e+12	73.1869049154
1408227310664	71	3938028	329800	390	15	37.44502132	-122.16043826	4840551	1.2987616344e+12	73.1869049154
1408227310684	71	3940386	341300	390	15	37.44502132	-122.16043826	4840551	1.3448537418e+12	73.1869049154
1408227310774	71	3944808	301700	390	15	37.44502132	-122.16043826	4840551	1.1901485736e+12	73.1869049154
1408227310797	71	3945693	282200	390	15	37.44502132	-122.16043826	4840551	1.1134745646e+12	73.1869049154
1408227310818	71	3947754	273000	390	15	37.44502132	-122.16043826	4840551	1.077736842e+12	73.1869049154
1408227310893	71	3925947	296500	390	15	37.44502132	-122.16043826	4840551	1.1640432855e+12	73.1869049154
1408227310913	71	3934491	366000	390	15	37.44502132	-122.16043826	4840551	1.440023706e+12	73.1869049154
1408227310932	71	3938028	324600	390	15	37.44502132	-122.16043826	4840551	1.2782838888e+12	73.1869049154
1408227310966	71	3936555	368300	390	15	37.44502132	-122.16043826	4840551	1.4498332065e+12	73.1869049154
1408227310988	71	3929481	376900	391	15	37.44502132	-122.16043826	4840551	1.4810213889e+12	73.1869049154
1408227311006	71	3924471	324100	390	15	37.44502132	-122.16043826	4840551	1.2719210511e+12	73.1869049154
1408227311041	71	3929481	340700	390	15	37.44502132	-122.16043826	4840551	1.3387741767e+12	73.1869049154
1408227311060	71	3937146	350400	390	15	37.44502132	-122.16043826	4840551	1.3795759584e+12	73.1869049154
1408227311077	71	3932430	374600	390	15	37.44502132	-122.16043826	4840551	1.473088278e+12	73.1869049154
1408227311103	71	3945693	301200	390	15	37.44502132	-122.16043826	4840551	1.1884427316e+12	73.1869049154
1408227311168	71	3940092	340200	390	15	37.44502132	-122.16043826	4840551	1.3404192984e+12	73.1869049154
1408227311190	71	3943923	315400	390	15	37.44502132	-122.16043826	4840551	1.2439133142e+12	73.1869049154
1408227311211	71	3946872	305700	390	15	37.44502132	-122.16043826	4840551	1.2065587704e+12	73.1869049154
1408227311289	71	3946872	305700	390	15	37.44515068	-122.16030692	4840551	1.2065587704e+12	91.6586545238
1408227311296	71	3921525	308000	390	15	37.44515068	-122.16030692	4840551	1.2078297e+12	91.6586545238
1408227311312	71	3922113	468200	390	15	37.44515068	-122.16030692	4840551	1.8363333066e+12	91.6586545238
1408227311331	71	3920640	487600	391	15	37.44515068	-122.16030692	4840551	1.911704064e+12	91.6586545238
1408227311365	71	3926241	340200	390	15	37.44515068	-122.16030692	4840551	1.3357071882e+12	91.6586545238
1408227311386	71	3923292	351100	390	15	37.44515068	-122.16030692	4840551	1.3774678212e+12	91.6586545238
1408227311405	71	3925947	385500	390	15	37.44515068	-122.16030692	4840551	1.5134525685e+12	91.6586545238
1408227311442	71	3929187	324600	390	15	37.44515068	-122.16030692	4840551	1.2754141002e+12	91.6586545238
1408227311462	71	3935376	375200	390	15	37.44515068	-122.16030692	4840551	1.4765530752e+12	91.6586545238
1408227311482	71	3937440	340200	390	15	37.44515068	-122.16030692	4840551	1.339517088e+12	91.6586545238
1408227311505	71	3944514	309700	390	15	37.44515068	-122.16030692	4840551	1.2216159858e+12	91.6586545238
1408227311555	71	3937146	355100	390	15	37.44515068	-122.16030692	4840551	1.3980805446e+12	91.6586545238
1408227311576	71	3939207	293100	390	15	37.44515068	-122.16030692	4840551	1.1545815717e+12	91.6586545238
1408227311609	71	3945693	339000	390	15	37.44515068	-122.16030692	4840551	1.337589927e+12	91.6586545238
1408227311677	71	3945987	297100	390	15	37.44515068	-122.16030692	4840551	1.1723527377e+12	91.6586545238
1408227311697	71	3939798	381400	390	15	37.44515068	-122.16030692	4840551	1.5026389572e+12	91.6586545238
1408227311715	71	3924177	355600	390	15	37.44515068	-122.16030692	4840551	1.3954373412e+12	91.6586545238
1408227311748	71	3928302	337300	390	15	37.44515068	-122.16030692	4840551	1.3250162646e+12	91.6586545238
1408227311767	71	3928599	303500	390	15	37.44515068	-122.16030692	4840551	1.1923297965e+12	91.6586545238
1408227311786	71	3930072	347600	390	15	37.44515068	-122.16030692	4840551	1.3660930272e+12	91.6586545238
1408227311822	71	3926829	351600	390	15	37.44515068	-122.16030692	4840551	1.3806730764e+12	91.6586545238
1408227311839	71	3934197	376900	390	15	37.44515068	-122.16030692	4840551	1.4827988493e+12	91.6586545238
1408227311858	71	3928302	310900	390	15	37.44515068	-122.16030692	4840551	1.2213090918e+12	91.6586545238
1408227311876	71	3925062	349900	390	15	37.44515068	-122.16030692	4840551	1.3733791938e+12	91.6586545238
1408227311939	71	3942450	340200	390	15	37.44515068	-122.16030692	4840551	1.34122149e+12	91.6586545238
1408227311961	71	3940092	311400	390	15	37.44515068	-122.16030692	4840551	1.2269446488e+12	91.6586545238
1408227311983	71	3944514	294300	390	15	37.44515068	-122.16030692	4840551	1.1608704702e+12	91.6586545238
1408227312068	71	3945987	305200	390	15	37.44515068	-122.16030692	4840551	1.2043152324e+12	91.6586545238
1408227312091	71	3944808	319500	390	15	37.44515068	-122.16030692	4840551	1.260366156e+12	91.6586545238
1408227312115	71	3943629	318400	390	15	37.44515068	-122.16030692	4840551	1.2556514736e+12	91.6586545238
1408227312193	71	3941271	297700	390	15	37.44515068	-122.16030692	4840551	1.1733163767e+12	91.6586545238
1408227312212	71	3938028	365400	390	15	37.44515068	-122.16030692	4840551	1.4389554312e+12	91.6586545238
1408227312232	71	3937146	312600	391	15	37.44515068	-122.16030692	4840551	1.2307518396e+12	91.6586545238
1408227312273	71	3938028	361300	391	15	37.44515068	-122.16030692	4840551	1.4228095164e+12	91.6586545238
1408227312291	71	3916809	419300	390	15	37.44515068	-122.16030692	4840551	1.6423180137e+12	91.6586545238
1408227312312	71	3920640	473900	390	15	37.44515068	-122.16030692	4840551	1.857991296e+12	91.6586545238
1408227312329	71	3935082	475600	390	15	37.44515068	-122.16030692	4840551	1.8715249992e+12	91.6586545238
1408227312363	71	3931545	472200	390	15	37.44515068	-122.16030692	4840551	1.856475549e+12	91.6586545238
1408227312385	71	3937146	304000	390	15	37.44515068	-122.16030692	4840551	1.196892384e+12	91.6586545238
1408227312406	71	3939504	321800	390	15	37.44515068	-122.16030692	4840551	1.2677323872e+12	91.6586545238
1408227312458	71	3938325	315400	391	15	37.44515068	-122.16030692	4840551	1.242147705e+12	91.6586545238
1408227312478	71	3938619	332100	391	15	37.44515068	-122.16030692	4840551	1.3080153699e+12	91.6586545238
1408227312512	71	3941859	333800	390	15	37.44515068	-122.16030692	4840551	1.3157925342e+12	91.6586545238
1408227312586	71	3947460	277000	390	15	37.44515068	-122.16030692	4840551	1.09344642e+12	91.6586545238
1408227312606	71	3930072	379700	390	15	37.44515068	-122.16030692	4840551	1.4922483384e+12	91.6586545238
1408227312625	71	3935670	321800	390	15	37.44515068	-122.16030692	4840551	1.266498606e+12	91.6586545238
1408227312657	71	3930957	433200	390	15	37.44515068	-122.16030692	4840551	1.7028905724e+12	91.6586545238
1408227312676	71	3932724	324100	390	15	37.44515068	-122.16030692	4840551	1.2745958484e+12	91.6586545238
1408227312696	71	3932724	292000	390	15	37.44515068	-122.16030692	4840551	1.148355408e+12	91.6586545238
1408227312713	71	3939798	317200	390	15	37.44515068	-122.16030692	4840551	1.2497039256e+12	91.6586545238
1408227312747	71	3936555	482400	390	15	37.44515068	-122.16030692	4840551	1.898994132e+12	91.6586545238
1408227312766	71	3932724	288500	390	15	37.44515068	-122.16030692	4840551	1.134590874e+12	91.6586545238
1408227312790	71	3940092	300000	390	15	37.44515068	-122.16030692	4840551	1.1820276e+12	91.6586545238
1408227312838	71	3935967	339600	390	15	37.44515068	-122.16030692	4840551	1.3366543932e+12	91.6586545238
1408227312858	71	3934788	344700	390	15	37.44515068	-122.16030692	4840551	1.3563214236e+12	91.6586545238
1408227312877	71	3938619	329800	391	15	37.44515068	-122.16030692	4840551	1.2989565462e+12	91.6586545238
1408227312963	71	3948345	290300	390	15	37.44515068	-122.16030692	4840551	1.1462045535e+12	91.6586545238
1408227312986	71	3948933	277600	390	15	37.44515068	-122.16030692	4840551	1.0962238008e+12	91.6586545238
1408227313019	71	3941271	327000	390	15	37.44515068	-122.16030692	4840551	1.288795617e+12	91.6586545238
1408227313093	71	3945987	269000	390	15	37.44515068	-122.16030692	4840551	1.061470503e+12	91.6586545238
1408227313120	71	3945693	317800	390	15	37.44515068	-122.16030692	4840551	1.2539412354e+12	91.6586545238
1408227313144	71	3947166	279900	390	15	37.44515068	-122.16030692	4840551	1.1048117634e+12	91.6586545238
1408227313166	71	3944514	276500	390	15	37.44515068	-122.16030692	4840551	1.090658121e+12	91.6586545238
1408227313245	71	3925650	351600	391	15	37.44515068	-122.16030692	4840551	1.38025854e+12	91.6586545238
1408227313265	71	3933312	343600	391	15	37.44515068	-122.16030692	4840551	1.3514860032e+12	91.6586545238
