Time	SOD	Volt	Current	Temp	Signal	Latitude	Longitude	CellID	Power	Distance
1408227280300	71	3927714	375200	391	15	37.44405384	-122.16141485	4840551	1.4736782928e+12	20.6450955772
1408227280310	71	3922704	399300	390	15	37.44405384	-122.16141485	4840551	1.5663357072e+12	20.6450955772
1408227280326	71	3920346	463000	390	15	37.44405384	-122.16141485	4840551	1.815120198e+12	20.6450955772
1408227280346	71	3913863	524300	390	15	37.44405384	-122.16141485	4840551	2.0520383709e+12	20.6450955772
1408227280384	71	3937146	379700	391	15	37.44405384	-122.16141485	4840551	1.4949343362e+12	20.6450955772
1408227280402	71	3939798	386100	390	15	37.44405384	-122.16141485	4840551	1.5211560078e+12	20.6450955772
1408227280419	71	3938619	377400	390	15	37.44405384	-122.16141485	4840551	1.4864348106e+12	20.6450955772
1408227280463	71	3929481	375200	390	15	37.44405384	-122.16141485	4840551	1.4743412712e+12	20.6450955772
1408227280484	71	3947166	288500	390	15	37.44405384	-122.16141485	4840551	1.138757391e+12	20.6450955772
1408227280504	71	3946872	311400	390	15	37.44405384	-122.16141485	4840551	1.2290559408e+12	20.6450955772
1408227280526	71	3938913	335000	390	15	37.44405384	-122.16141485	4840551	1.319535855e+12	20.6450955772
1408227280600	71	3941565	327500	390	15	37.44405384	-122.16141485	4840551	1.2908625375e+12	20.6450955772
1408227280631	71	3944808	289600	390	15	37.44405384	-122.16141485	4840551	1.1424163968e+12	20.6450955772
1408227280653	71	3945102	335000	390	15	37.44405384	-122.16141485	4840551	1.32160917e+12	20.6450955772
1408227280735	71	3940386	296000	390	15	37.44405384	-122.16141485	4840551	1.166354256e+12	20.6450955772
1408227280752	71	3928008	478400	390	15	37.44405384	-122.16141485	4840551	1.8791590272e+12	20.6450955772
1408227280772	71	3938325	421600	390	15	37.44405384	-122.16141485	4840551	1.66039782e+12	20.6450955772
1408227280806	71	3940092	328700	390	15	37.44405384	-122.16141485	4840551	1.2951082404e+12	20.6450955772
1408227280829	71	3931545	305200	390	15	37.44405384	-122.16141485	4840551	1.199907534e+12	20.6450955772
1408227280849	71	3923883	331000	390	15	37.44405384	-122.16141485	4840551	1.298805273e+12	20.6450955772
1408227280886	71	3929481	393500	390	15	37.44405384	-122.16141485	4840551	1.5462507735e+12	20.6450955772
1408227280906	71	3928302	297700	390	15	37.44405384	-122.16141485	4840551	1.1694555054e+12	20.6450955772
1408227280929	71	3932136	306900	390	15	37.44405384	-122.16141485	4840551	1.2067725384e+12	20.6450955772
1408227280950	71	3938619	304500	390	15	37.44405384	-122.16141485	4840551	1.1993094855e+12	20.6450955772
1408227281012	71	3945987	305700	390	15	37.44405384	-122.16141485	4840551	1.2062882259e+12	20.6450955772
1408227281040	71	3947460	304000	390	15	37.44405384	-122.16141485	4840551	1.20002784e+12	20.6450955772
1408227281062	71	3946575	293100	390	15	37.44405384	-122.16141485	4840551	1.1567411325e+12	20.6450955772
1408227281143	71	3932724	294300	390	15	37.44405384	-122.16141485	4840551	1.1574006732e+12	20.6450955772
1408227281164	71	3924768	371700	390	15	37.44405384	-122.16141485	4840551	1.4588362656e+12	20.6450955772
1408227281186	71	3933018	399800	390	15	37.44405384	-122.16141485	4840551	1.5724205964e+12	20.6450955772
1408227281219	71	3931545	394100	390	15	37.44405384	-122.16141485	4840551	1.5494218845e+12	20.6450955772
1408227281239	71	3925062	386600	390	15	37.44405384	-122.16141485	4840551	1.5174289692e+12	20.6450955772
1408227281257	71	3923292	346400	390	15	37.44405384	-122.16141485	4840551	1.3590283488e+12	20.6450955772
1408227281296	71	3935376	404400	390	15	37.44405384	-122.16141485	4840551	1.5914660544e+12	20.6450955772
1408227281312	71	3921819	468200	390	15	37.44405384	-122.16141485	4840551	1.8361956558e+12	20.6450955772
1408227281335	71	3921819	485300	390	15	37.44405384	-122.16141485	4840551	1.9032587607e+12	20.6450955772
1408227281356	71	3938325	294800	390	15	37.44405384	-122.16141485	4840551	1.16101821e+12	20.6450955772
1408227281410	71	3942156	370500	390	15	37.44405384	-122.16141485	4840551	1.460568798e+12	20.6450955772
1408227281442	71	3942744	292500	390	15	37.44405384	-122.16141485	4840551	1.15325262e+12	20.6450955772
1408227281466	71	3942450	265500	390	15	37.44405384	-122.16141485	4840551	1.046720475e+12	20.6450955772
1408227281543	71	3935670	344200	391	15	37.44405384	-122.16141485	4840551	1.354657614e+12	20.6450955772
1408227281564	71	3932430	393500	390	15	37.44405384	-122.16141485	4840551	1.547411205e+12	20.6450955772
1408227281582	71	3940092	385500	390	15	37.44405384	-122.16141485	4840551	1.518905466e+12	20.6450955772
1408227281616	71	3942744	340200	390	15	37.44405384	-122.16141485	4840551	1.3413215088e+12	20.6450955772
1408227281637	71	3932430	358500	390	15	37.44405384	-122.16141485	4840551	1.409776155e+12	20.6450955772
1408227281656	71	3928302	275900	390	15	37.44405384	-122.16141485	4840551	1.0838185218e+12	20.6450955772
1408227281694	71	3930957	370500	390	15	37.44405384	-122.16141485	4840551	1.4564195685e+12	20.6450955772
1408227281716	71	3930366	321300	390	15	37.44405384	-122.16141485	4840551	1.2628265958e+12	20.6450955772
1408227281745	71	3944217	325300	390	15	37.44405384	-122.16141485	4840551	1.2830537901e+12	20.6450955772
1408227281767	71	3941271	289100	390	15	37.44405384	-122.16141485	4840551	1.1394214461e+12	20.6450955772
1408227281841	71	3945396	309700	390	15	37.44405384	-122.16141485	4840551	1.2218891412e+12	20.6450955772
1408227281860	71	3942156	355100	390	15	37.44405384	-122.16141485	4840551	1.3998595956e+12	20.6450955772
1408227281877	71	3933018	391300	390	15	37.44405384	-122.16141485	4840551	1.5389899434e+12	20.6450955772
1408227281913	71	3935376	374000	390	15	37.44405384	-122.16141485	4840551	1.471830624e+12	20.6450955772
1408227281933	71	3940680	332100	390	15	37.44405384	-122.16141485	4840551	1.308699828e+12	20.6450955772
1408227281952	71	3940386	419300	390	15	37.44405384	-122.16141485	4840551	1.6522038498e+12	20.6450955772
1408227281986	71	3940977	317200	390	15	37.44405384	-122.16141485	4840551	1.2500779044e+12	20.6450955772
1408227282006	71	3926535	319500	390	15	37.44405384	-122.16141485	4840551	1.2545279325e+12	20.6450955772
1408227282026	71	3931545	343000	390	15	37.44405384	-122.16141485	4840551	1.348519935e+12	20.6450955772
1408227282086	71	3944217	287400	390	15	37.44405384	-122.16141485	4840551	1.1335679658e+12	20.6450955772
1408227282109	71	3941859	290800	390	15	37.44405384	-122.16141485	4840551	1.1462925972e+12	20.6450955772
1408227282130	71	3917694	451400	390	15	37.44405384	-122.16141485	4840551	1.7684470716e+12	20.6450955772
1408227282160	71	3922410	374600	390	15	37.44405384	-122.16141485	4840551	1.469334786e+12	20.6450955772
1408227282234	71	3943038	304000	390	15	37.44405384	-122.16141485	4840551	1.198683552e+12	20.6450955772
1408227282252	71	3934788	394700	390	15	37.44405384	-122.16141485	4840551	1.5530608236e+12	20.6450955772
1408227282269	71	3925356	558800	390	15	37.44405384	-122.16141485	4840551	2.1934889328e+12	20.6450955772
1408227282299	71	3925356	558800	390	15	37.44412649	-122.16133251	4840551	2.1934889328e+12	31.5127032622
1408227282304	71	3922998	357300	390	15	37.44412649	-122.16133251	4840551	1.4016871854e+12	31.5127032622
1408227282322	71	3920346	465800	390	15	37.44412649	-122.16133251	4840551	1.8260971668e+12	31.5127032622
1408227282340	71	3928302	468200	390	15	37.44412649	-122.16133251	4840551	1.8392309964e+12	31.5127032622
1408227282396	71	3927123	448600	390	15	37.44412649	-122.16133251	4840551	1.7617073778e+12	31.5127032622
1408227282415	71	3915924	522600	390	15	37.44412649	-122.16133251	4840551	2.0464618824e+12	31.5127032622
1408227282436	71	3942450	342400	390	15	37.44412649	-122.16133251	4840551	1.34989488e+12	31.5127032622
1408227282476	71	3933609	371200	390	15	37.44412649	-122.16133251	4840551	1.4601556608e+12	31.5127032622
1408227282496	71	3944217	364300	390	15	37.44412649	-122.16133251	4840551	1.4368782531e+12	31.5127032622
1408227282517	71	3934197	278700	390	15	37.44412649	-122.16133251	4840551	1.0964607039e+12	31.5127032622
1408227282540	71	3948048	283900	390	15	37.44412649	-122.16133251	4840551	1.1208508272e+12	31.5127032622
1408227282612	71	3946575	299500	390	15	37.44412649	-122.16133251	4840551	1.1819992125e+12	31.5127032622
1408227282635	71	3948639	293700	390	15	37.44412649	-122.16133251	4840551	1.1597152743e+12	31.5127032622
1408227282665	71	3946281	300500	390	15	37.44412649	-122.16133251	4840551	1.1858574405e+12	31.5127032622
1408227282735	71	3947754	372900	391	15	37.44412649	-122.16133251	4840551	1.4721174666e+12	31.5127032622
1408227282758	71	3929778	420500	390	15	37.44412649	-122.16133251	4840551	1.652471649e+12	31.5127032622
1408227282776	71	3918579	331000	390	15	37.44412649	-122.16133251	4840551	1.297049649e+12	31.5127032622
1408227282810	71	3931545	469900	391	15	37.44412649	-122.16133251	4840551	1.8474329955e+12	31.5127032622
1408227282827	71	3929187	419900	391	15	37.44412649	-122.16133251	4840551	1.6498656213e+12	31.5127032622
1408227282850	71	3924177	393500	391	15	37.44412649	-122.16133251	4840551	1.5441636495e+12	31.5127032622
1408227282884	71	3932724	403900	390	15	37.44412649	-122.16133251	4840551	1.5884272236e+12	31.5127032622
1408227282902	71	3935376	472200	390	15	37.44412649	-122.16133251	4840551	1.8582845472e+12	31.5127032622
1408227282922	71	3930957	388900	390	15	37.44412649	-122.16133251	4840551	1.5287491773e+12	31.5127032622
1408227282941	71	3947460	345400	390	15	37.44412649	-122.16133251	4840551	1.363452684e+12	31.5127032622
1408227282997	71	3941271	393000	390	15	37.44412649	-122.16133251	4840551	1.548919503e+12	31.5127032622
1408227283018	71	3939798	295400	390	15	37.44412649	-122.16133251	4840551	1.1638163292e+12	31.5127032622
1408227283040	71	3946872	290300	390	15	37.44412649	-122.16133251	4840551	1.1457769416e+12	31.5127032622
1408227283119	71	3944514	292500	390	15	37.44412649	-122.16133251	4840551	1.153770345e+12	31.5127032622
1408227283141	71	3943923	294300	390	15	37.44412649	-122.16133251	4840551	1.1606965389e+12	31.5127032622
1408227283174	71	3947166	313700	390	15	37.44412649	-122.16133251	4840551	1.2382259742e+12	31.5127032622
1408227283246	71	3938028	374000	390	15	37.44412649	-122.16133251	4840551	1.472822472e+12	31.5127032622
1408227283296	71	3933903	300000	390	15	37.44412649	-122.16133251	4840551	1.1801709e+12	31.5127032622
1408227283319	71	3947460	324600	390	15	37.44412649	-122.16133251	4840551	1.281345516e+12	31.5127032622
1408227283368	71	3924768	304500	390	15	37.44412649	-122.16133251	4840551	1.195091856e+12	31.5127032622
1408227283387	71	3909735	472200	391	15	37.44412649	-122.16133251	4840551	1.846176867e+12	31.5127032622
1408227283406	71	3928893	313200	390	15	37.44412649	-122.16133251	4840551	1.2305292876e+12	31.5127032622
1408227283426	71	3930072	369400	390	15	37.44412649	-122.16133251	4840551	1.4517685968e+12	31.5127032622
1408227283460	71	3936555	465200	390	15	37.44412649	-122.16133251	4840551	1.831285386e+12	31.5127032622
1408227283479	71	3931545	392300	390	15	37.44412649	-122.16133251	4840551	1.5423451035e+12	31.5127032622
1408227283499	71	3928893	381400	390	15	37.44412649	-122.16133251	4840551	1.4984797902e+12	31.5127032622
1408227283536	71	3925947	333300	390	15	37.44412649	-122.16133251	4840551	1.3085181351e+12	31.5127032622
1408227283556	71	3940977	283900	390	15	37.44412649	-122.16133251	4840551	1.1188433703e+12	31.5127032622
1408227283578	71	3934197	307400	391	15	37.44412649	-122.16133251	4840551	1.2093721578e+12	31.5127032622
1408227283654	71	3941859	364300	390	15	37.44412649	-122.16133251	4840551	1.4360192337e+12	31.5127032622
1408227283687	71	3946281	302900	390	15	37.44412649	-122.16133251	4840551	1.1953285149e+12	31.5127032622
1408227283710	71	3942450	316100	390	15	37.44412649	-122.16133251	4840551	1.246208445e+12	31.5127032622
1408227283787	71	3939504	257000	390	15	37.44412649	-122.16133251	4840551	1.012452528e+12	31.5127032622
1408227283806	71	3916809	337900	390	15	37.44412649	-122.16133251	4840551	1.3234897611e+12	31.5127032622
1408227283827	71	3933018	420500	390	15	37.44412649	-122.16133251	4840551	1.653834069e+12	31.5127032622
1408227283847	71	3930072	267800	390	15	37.44412649	-122.16133251	4840551	1.0524732816e+12	31.5127032622
1408227283895	71	3923883	463500	390	15	37.44412649	-122.16133251	4840551	1.8187197705e+12	31.5127032622
1408227283911	71	3917400	391800	390	15	37.44412649	-122.16133251	4840551	1.53483732e+12	31.5127032622
1408227283930	71	3935670	317800	390	15	37.44412649	-122.16133251	4840551	1.250755926e+12	31.5127032622
1408227283965	71	3928302	328100	390	15	37.44412649	-122.16133251	4840551	1.2888758862e+12	31.5127032622
1408227283991	71	3944808	331000	390	15	37.44412649	-122.16133251	4840551	1.305731448e+12	31.5127032622
1408227284011	71	3931251	348800	390	15	37.44412649	-122.16133251	4840551	1.3712203488e+12	31.5127032622
1408227284083	71	3937146	292000	390	15	37.44412649	-122.16133251	4840551	1.149646632e+12	31.5127032622
1408227284100	71	3917400	476200	391	15	37.44412649	-122.16133251	4840551	1.86546588e+12	31.5127032622
1408227284118	71	3915336	488800	391	15	37.44412649	-122.16133251	4840551	1.9138162368e+12	31.5127032622
1408227284154	71	3921525	397000	390	15	37.44412649	-122.16133251	4840551	1.556845425e+12	31.5127032622
1408227284175	71	3926829	322400	390	15	37.44412649	-122.16133251	4840551	1.2660096696e+12	31.5127032622
1408227284196	71	3925947	360800	390	15	37.44412649	-122.16133251	4840551	1.4164816776e+12	31.5127032622
1408227284217	71	3932430	302900	390	15	37.44412649	-122.16133251	4840551	1.191133047e+12	31.5127032622
1408227284250	71	3934197	482400	390	15	37.44412649	-122.16133251	4840551	1.8978566328e+12	31.5127032622
1408227284270	71	3930660	375200	390	15	37.44412649	-122.16133251	4840551	1.474783632e+12	31.5127032622
1408227284286	71	3930660	375200	390	15	37.44423362	-122.16120249	4840551	1.474783632e+12	48.0580924965
1408227284299	71	3939504	358500	390	15	37.44423362	-122.16120249	4840551	1.412312184e+12	48.0580924965
1408227284356	71	3922704	352200	390	15	37.44423362	-122.16120249	4840551	1.3815763488e+12	48.0580924965
1408227284372	71	3919461	514100	390	15	37.44423362	-122.16120249	4840551	2.0149949001e+12	48.0580924965
1408227284388	71	3925356	454900	390	15	37.44423362	-122.16120249	4840551	1.7856444444e+12	48.0580924965
1408227284418	71	3925062	482400	390	15	37.44423362	-122.16120249	4840551	1.8934499088e+12	48.0580924965
1408227284433	71	3927420	492800	390	15	37.44423362	-122.16120249	4840551	1.935432576e+12	48.0580924965
1408227284449	71	3927714	433200	390	15	37.44423362	-122.16120249	4840551	1.7014857048e+12	48.0580924965
1408227284479	71	3928302	439400	390	15	37.44423362	-122.16120249	4840551	1.7260958988e+12	48.0580924965
1408227284496	71	3917694	425100	390	15	37.44423362	-122.16120249	4840551	1.6654117194e+12	48.0580924965
1408227284511	71	3916809	433700	391	15	37.44423362	-122.16120249	4840551	1.6987200633e+12	48.0580924965
1408227284528	71	3925062	421100	390	15	37.44423362	-122.16120249	4840551	1.6528436082e+12	48.0580924965
1408227284558	71	3917694	535800	390	15	37.44423362	-122.16120249	4840551	2.0991004452e+12	48.0580924965
1408227284574	71	3930366	440000	390	15	37.44423362	-122.16120249	4840551	1.72936104e+12	48.0580924965
1408227284590	71	3929778	429700	390	15	37.44423362	-122.16120249	4840551	1.6886256066e+12	48.0580924965
1408227284643	71	3931545	471500	390	15	37.44423362	-122.16120249	4840551	1.8537234675e+12	48.0580924965
1408227284663	71	3937146	374000	390	15	37.44423362	-122.16120249	4840551	1.472492604e+12	48.0580924965
1408227284683	71	3936555	343000	390	15	37.44423362	-122.16120249	4840551	1.350238365e+12	48.0580924965
1408227284752	71	3929481	357300	390	15	37.44423362	-122.16120249	4840551	1.4040035613e+12	48.0580924965
1408227284772	71	3939798	368300	390	15	37.44423362	-122.16120249	4840551	1.4510276034e+12	48.0580924965
1408227284792	71	3941565	309200	390	15	37.44423362	-122.16120249	4840551	1.218731898e+12	48.0580924965
1408227284866	71	3940680	344700	390	15	37.44423362	-122.16120249	4840551	1.358352396e+12	48.0580924965
1408227284886	71	3942156	301700	391	15	37.44423362	-122.16120249	4840551	1.1893484652e+12	48.0580924965
1408227284907	71	3940977	306900	390	15	37.44423362	-122.16120249	4840551	1.2094858413e+12	48.0580924965
1408227284928	71	3941565	308600	390	15	37.44423362	-122.16120249	4840551	1.216366959e+12	48.0580924965
1408227284991	71	3914157	368300	390	15	37.44423362	-122.16120249	4840551	1.4415840231e+12	48.0580924965
1408227285008	71	3925947	541600	390	15	37.44423362	-122.16120249	4840551	2.1262928952e+12	48.0580924965
1408227285023	71	3925356	464100	390	15	37.44423362	-122.16120249	4840551	1.8217577196e+12	48.0580924965
1408227285053	71	3911799	415900	390	15	37.44423362	-122.16120249	4840551	1.6269172041e+12	48.0580924965
1408227285069	71	3928893	468700	391	15	37.44423362	-122.16120249	4840551	1.8414721491e+12	48.0580924965
1408227285084	71	3928302	442200	390	15	37.44423362	-122.16120249	4840551	1.7370951444e+12	48.0580924965
1408227285116	71	3916809	429100	390	15	37.44423362	-122.16120249	4840551	1.6807027419e+12	48.0580924965
1408227285131	71	3919755	471000	390	15	37.44423362	-122.16120249	4840551	1.846204605e+12	48.0580924965
1408227285146	71	3930072	460100	390	15	37.44423362	-122.16120249	4840551	1.8082261272e+12	48.0580924965
1408227285177	71	3929187	414700	390	15	37.44423362	-122.16120249	4840551	1.6294338489e+12	48.0580924965
1408227285193	71	3927714	447400	390	15	37.44423362	-122.16120249	4840551	1.7572592436e+12	48.0580924965
1408227285208	71	3926241	432500	390	15	37.44423362	-122.16120249	4840551	1.6980992325e+12	48.0580924965
1408227285223	71	3923292	436000	390	15	37.44423362	-122.16120249	4840551	1.710555312e+12	48.0580924965
1408227285263	71	3904431	460100	391	15	37.44423362	-122.16120249	4840551	1.7964287031e+12	48.0580924965
1408227285279	71	3920346	398700	390	15	37.44423362	-122.16120249	4840551	1.5630419502e+12	48.0580924965
1408227285297	71	3910620	476700	390	15	37.44423362	-122.16120249	4840551	1.864192554e+12	48.0580924965
1408227285342	71	3919755	519800	390	15	37.44423362	-122.16120249	4840551	2.037488649e+12	48.0580924965
1408227285358	71	3932724	393000	390	15	37.44423362	-122.16120249	4840551	1.545560532e+12	48.0580924965
1408227285375	71	3933018	398700	391	15	37.44423362	-122.16120249	4840551	1.5680942766e+12	48.0580924965
1408227285408	71	3928893	427300	390	15	37.44423362	-122.16120249	4840551	1.6788159789e+12	48.0580924965
1408227285426	71	3933312	452100	390	15	37.44423362	-122.16120249	4840551	1.7782503552e+12	48.0580924965
1408227285443	71	3926829	427300	391	15	37.44423362	-122.16120249	4840551	1.6779340317e+12	48.0580924965
1408227285495	71	3931545	376900	390	15	37.44423362	-122.16120249	4840551	1.4817993105e+12	48.0580924965
1408227285511	71	3922113	351600	390	15	37.44423362	-122.16120249	4840551	1.3790149308e+12	48.0580924965
1408227285528	71	3934788	352800	390	15	37.44423362	-122.16120249	4840551	1.3881932064e+12	48.0580924965
1408227285546	71	3930957	399800	390	15	37.44423362	-122.16120249	4840551	1.5715966086e+12	48.0580924965
1408227285586	71	3924177	496800	390	15	37.44423362	-122.16120249	4840551	1.9495311336e+12	48.0580924965
1408227285605	71	3930660	289600	390	15	37.44423362	-122.16120249	4840551	1.138319136e+12	48.0580924965
1408227285625	71	3927714	392300	390	15	37.44423362	-122.16120249	4840551	1.5408422022e+12	48.0580924965
1408227285699	71	3946575	410200	390	15	37.44423362	-122.16120249	4840551	1.618885065e+12	48.0580924965
1408227285734	71	3944808	287400	390	15	37.44423362	-122.16120249	4840551	1.1337378192e+12	48.0580924965
1408227285758	71	3946281	339600	390	15	37.44423362	-122.16120249	4840551	1.3401570276e+12	48.0580924965
1408227285837	71	3947166	291400	390	15	37.44423362	-122.16120249	4840551	1.1502041724e+12	48.0580924965
1408227285856	71	3933312	306300	390	15	37.44423362	-122.16120249	4840551	1.2047734656e+12	48.0580924965
1408227285876	71	3931839	329300	390	15	37.44423362	-122.16120249	4840551	1.2947545827e+12	48.0580924965
1408227285914	71	3933903	265000	390	15	37.44423362	-122.16120249	4840551	1.042484295e+12	48.0580924965
1408227285934	71	3925650	363700	390	15	37.44423362	-122.16120249	4840551	1.427758905e+12	48.0580924965
1408227285955	71	3928893	274200	390	15	37.44423362	-122.16120249	4840551	1.0773024606e+12	48.0580924965
1408227285975	71	3934491	310400	390	15	37.44423362	-122.16120249	4840551	1.2212660064e+12	48.0580924965
1408227286013	71	3923292	468700	391	15	37.44423362	-122.16120249	4840551	1.8388469604e+12	48.0580924965
1408227286043	71	3940092	389500	390	15	37.44423362	-122.16120249	4840551	1.534665834e+12	48.0580924965
1408227286064	71	3933018	287400	390	15	37.44423362	-122.16120249	4840551	1.1303493732e+12	48.0580924965
1408227286143	71	3937146	329300	390	15	37.44423362	-122.16120249	4840551	1.2965021778e+12	48.0580924965
1408227286163	71	3933609	338400	390	15	37.44423362	-122.16120249	4840551	1.3311332856e+12	48.0580924965
1408227286180	71	3939504	343600	390	15	37.44423362	-122.16120249	4840551	1.3536135744e+12	48.0580924965
1408227286216	71	3928008	352200	390	15	37.44423362	-122.16120249	4840551	1.3834444176e+12	48.0580924965
1408227286240	71	3937734	350400	391	15	37.44423362	-122.16120249	4840551	1.3797819936e+12	48.0580924965
1408227286257	71	3925062	348200	390	15	37.44423362	-122.16120249	4840551	1.3667065884e+12	48.0580924965
1408227286295	71	3925062	348200	390	15	37.4443133	-122.16113288	4840551	1.3667065884e+12	58.8353228449
1408227286296	71	3939207	420500	390	15	37.4443133	-122.16113288	4840551	1.6564365435e+12	58.8353228449
1408227286312	71	3922998	457300	390	15	37.4443133	-122.16113288	4840551	1.7939869854e+12	58.8353228449
1408227286343	71	3934491	418800	390	15	37.4443133	-122.16113288	4840551	1.6477648308e+12	58.8353228449
1408227286364	71	3935967	305700	390	15	37.4443133	-122.16113288	4840551	1.2032251119e+12	58.8353228449
1408227286437	71	3946281	301700	390	15	37.4443133	-122.16113288	4840551	1.1905929777e+12	58.8353228449
1408227286456	71	3928008	313200	390	15	37.4443133	-122.16113288	4840551	1.2302521056e+12	58.8353228449
1408227286476	71	3931545	367700	390	15	37.4443133	-122.16113288	4840551	1.4456290965e+12	58.8353228449
1408227286509	71	3938619	257000	390	15	37.4443133	-122.16113288	4840551	1.012225083e+12	58.8353228449
1408227286529	71	3932430	378000	390	15	37.4443133	-122.16113288	4840551	1.48645854e+12	58.8353228449
1408227286549	71	3930957	410200	390	15	37.4443133	-122.16113288	4840551	1.6124785614e+12	58.8353228449
1408227286584	71	3926535	393000	390	15	37.4443133	-122.16113288	4840551	1.543128255e+12	58.8353228449
1408227286605	71	3929778	257500	390	15	37.4443133	-122.16113288	4840551	1.011917835e+12	58.8353228449
1408227286626	71	3933609	312600	390	15	37.4443133	-122.16113288	4840551	1.2296461734e+12	58.8353228449
1408227286738	71	3942156	316100	390	15	37.4443133	-122.16113288	4840551	1.2461155116e+12	58.8353228449
1408227286754	71	3921231	467000	390	15	37.4443133	-122.16113288	4840551	1.831214877e+12	58.8353228449
1408227286770	71	3905022	527800	390	15	37.4443133	-122.16113288	4840551	2.0610706116e+12	58.8353228449
1408227286785	71	3918579	464700	391	15	37.4443133	-122.16113288	4840551	1.8209636613e+12	58.8353228449
1408227286816	71	3911799	562800	390	15	37.4443133	-122.16113288	4840551	2.2015604772e+12	58.8353228449
1408227286831	71	3919755	495100	390	15	37.4443133	-122.16113288	4840551	1.9406707005e+12	58.8353228449
1408227286846	71	3922704	482400	390	15	37.4443133	-122.16113288	4840551	1.8923124096e+12	58.8353228449
1408227286877	71	3906789	508200	390	15	37.4443133	-122.16113288	4840551	1.9854301698e+12	58.8353228449
1408227286892	71	3922113	516900	390	15	37.4443133	-122.16113288	4840551	2.0273402097e+12	58.8353228449
1408227286908	71	3920346	465200	390	15	37.4443133	-122.16113288	4840551	1.8237449592e+12	58.8353228449
1408227286938	71	3922410	469200	390	15	37.4443133	-122.16113288	4840551	1.840394772e+12	58.8353228449
1408227286956	71	3919755	487100	391	15	37.4443133	-122.16113288	4840551	1.9093126605e+12	58.8353228449
1408227286974	71	3911505	500200	390	15	37.4443133	-122.16113288	4840551	1.956534801e+12	58.8353228449
1408227287026	71	3921231	526600	391	15	37.4443133	-122.16113288	4840551	2.0649202446e+12	58.8353228449
1408227287046	71	3930072	442200	390	15	37.4443133	-122.16113288	4840551	1.7378778384e+12	58.8353228449
1408227287074	71	3932136	342400	390	15	37.4443133	-122.16113288	4840551	1.3463633664e+12	58.8353228449
1408227287094	71	3938028	346400	390	15	37.4443133	-122.16113288	4840551	1.3641328992e+12	58.8353228449
1408227287187	71	3939798	314400	390	15	37.4443133	-122.16113288	4840551	1.2386724912e+12	58.8353228449
1408227287206	71	3927123	295400	390	15	37.4443133	-122.16113288	4840551	1.1600721342e+12	58.8353228449
1408227287227	71	3928302	372300	391	15	37.4443133	-122.16113288	4840551	1.4625068346e+12	58.8353228449
1408227287261	71	3937440	314400	390	15	37.4443133	-122.16113288	4840551	1.237931136e+12	58.8353228449
1408227287284	71	3929481	421600	390	15	37.4443133	-122.16113288	4840551	1.6566691896e+12	58.8353228449
1408227287311	71	3917988	503700	390	15	37.4443133	-122.16113288	4840551	1.9734905556e+12	58.8353228449
1408227287345	71	3925062	409600	390	15	37.4443133	-122.16113288	4840551	1.6077053952e+12	58.8353228449
1408227287363	71	3935967	308600	390	15	37.4443133	-122.16113288	4840551	1.2146394162e+12	58.8353228449
1408227287382	71	3937146	389500	390	15	37.4443133	-122.16113288	4840551	1.533518367e+12	58.8353228449
1408227287426	71	3933903	341300	390	15	37.4443133	-122.16113288	4840551	1.3426410939e+12	58.8353228449
1408227287446	71	3942156	347100	390	15	37.4443133	-122.16113288	4840551	1.3683223476e+12	58.8353228449
1408227287467	71	3943923	296500	390	15	37.4443133	-122.16113288	4840551	1.1693731695e+12	58.8353228449
1408227287489	71	3946872	334400	390	15	37.4443133	-122.16113288	4840551	1.3198339968e+12	58.8353228449
1408227287562	71	3946872	301700	390	15	37.4443133	-122.16113288	4840551	1.1907712824e+12	58.8353228449
1408227287590	71	3947460	304000	390	15	37.4443133	-122.16113288	4840551	1.20002784e+12	58.8353228449
1408227287612	71	3945102	294300	390	15	37.4443133	-122.16113288	4840551	1.1610435186e+12	58.8353228449
1408227287692	71	3939798	293100	390	15	37.4443133	-122.16113288	4840551	1.1547547938e+12	58.8353228449
1408227287710	71	3937146	387800	390	15	37.4443133	-122.16113288	4840551	1.5268252188e+12	58.8353228449
1408227287729	71	3928008	313200	391	15	37.4443133	-122.16113288	4840551	1.2302521056e+12	58.8353228449
1408227287764	71	3931839	349900	390	15	37.4443133	-122.16113288	4840551	1.3757504661e+12	58.8353228449
1408227287785	71	3922998	370500	390	15	37.4443133	-122.16113288	4840551	1.453470759e+12	58.8353228449
1408227287805	71	3926535	299500	390	15	37.4443133	-122.16113288	4840551	1.1759972325e+12	58.8353228449
1408227287842	71	3928893	344700	390	15	37.4443133	-122.16113288	4840551	1.3542894171e+12	58.8353228449
1408227287862	71	3939207	314400	390	15	37.4443133	-122.16113288	4840551	1.2384866808e+12	58.8353228449
1408227287887	71	3929481	310400	391	15	37.4443133	-122.16113288	4840551	1.2197109024e+12	58.8353228449
1408227287908	71	3942156	283400	390	15	37.4443133	-122.16113288	4840551	1.1172070104e+12	58.8353228449
1408227287985	71	3946575	334400	390	15	37.4443133	-122.16113288	4840551	1.31973468e+12	58.8353228449
1408227288005	71	3934197	250600	390	15	37.4443133	-122.16113288	4840551	9.859097682e+11	58.8353228449
1408227288024	71	3941565	305700	390	15	37.4443133	-122.16113288	4840551	1.2049364205e+12	58.8353228449
1408227288059	71	3928302	354500	390	15	37.4443133	-122.16113288	4840551	1.392583059e+12	58.8353228449
1408227288077	71	3929778	405000	391	15	37.4443133	-122.16113288	4840551	1.59156009e+12	58.8353228449
1408227288096	71	3928599	364300	390	15	37.4443133	-122.16113288	4840551	1.4311886157e+12	58.8353228449
1408227288132	71	3931545	328700	390	15	37.4443133	-122.16113288	4840551	1.2922988415e+12	58.8353228449
1408227288152	71	3935670	360300	390	15	37.4443133	-122.16113288	4840551	1.418021901e+12	58.8353228449
1408227288172	71	3936555	323500	390	15	37.4443133	-122.16113288	4840551	1.2734755425e+12	58.8353228449
1408227288230	71	3943335	360300	390	15	37.4443133	-122.16113288	4840551	1.4207836005e+12	58.8353228449
1408227288250	71	3940386	298300	390	15	37.4443133	-122.16113288	4840551	1.1754171438e+12	58.8353228449
1408227288273	71	3943629	365400	390	15	37.4443133	-122.16113288	4840551	1.4410020366e+12	58.8353228449
1408227288330	71	3945987	301200	390	15	37.4443133	-122.16113288	4840551	1.1885312844e+12	58.8353228449
1408227288367	71	3918873	483600	390	15	37.4443133	-122.16113288	4840551	1.8951669828e+12	58.8353228449
1408227288383	71	3919755	476200	390	15	37.4443133	-122.16113288	4840551	1.866587331e+12	58.8353228449
1408227288399	71	3922410	480200	390	15	37.4443133	-122.16113288	4840551	1.883541282e+12	58.8353228449
1408227288432	71	3935376	379700	390	15	37.4443133	-122.16113288	4840551	1.4942622672e+12	58.8353228449
1408227288452	71	3933312	362500	391	15	37.4443133	-122.16113288	4840551	1.4258256e+12	58.8353228449
1408227288469	71	3936849	374000	390	15	37.4443133	-122.16113288	4840551	1.472381526e+12	58.8353228449
1408227288508	71	3932724	305700	390	15	37.4443133	-122.16113288	4840551	1.2022337268e+12	58.8353228449
1408227288529	71	3933018	350400	390	15	37.4443133	-122.16113288	4840551	1.3781295072e+12	58.8353228449
1408227288547	71	3940092	285100	390	15	37.4443133	-122.16113288	4840551	1.1233202292e+12	58.8353228449
1408227288594	71	3939504	312600	390	15	37.4443133	-122.16113288	4840551	1.2314889504e+12	58.8353228449
1408227288617	71	3943038	313700	390	15	37.4443133	-122.16113288	4840551	1.2369310206e+12	58.8353228449
1408227288640	71	3940386	312600	390	15	37.4443133	-122.16113288	4840551	1.2317646636e+12	58.8353228449
1408227288664	71	3946281	288500	390	15	37.4443133	-122.16113288	4840551	1.1385020685e+12	58.8353228449
1408227288738	71	3936849	331000	390	15	37.4443133	-122.16113288	4840551	1.303097019e+12	58.8353228449
1408227288757	71	3929187	330500	390	15	37.4443133	-122.16113288	4840551	1.2985963035e+12	58.8353228449
1408227288774	71	3930660	362500	390	15	37.4443133	-122.16113288	4840551	1.42486425e+12	58.8353228449
1408227288809	71	3925650	410700	390	15	37.4443133	-122.16113288	4840551	1.612264455e+12	58.8353228449
1408227288831	71	3926535	421100	390	15	37.4443133	-122.16113288	4840551	1.6534638885e+12	58.8353228449
1408227288849	71	3935376	340200	390	15	37.4443133	-122.16113288	4840551	1.3388149152e+12	58.8353228449
1408227288885	71	3929481	383800	390	15	37.4443133	-122.16113288	4840551	1.5081348078e+12	58.8353228449
1408227288906	71	3930072	316100	390	15	37.4443133	-122.16113288	4840551	1.2422957592e+12	58.8353228449
1408227288924	71	3933903	336700	390	15	37.4443133	-122.16113288	4840551	1.3245451401e+12	58.8353228449
1408227288980	71	3943335	377400	390	15	37.4443133	-122.16113288	4840551	1.488214629e+12	58.8353228449
1408227289000	71	3943038	290800	390	15	37.4443133	-122.16113288	4840551	1.1466354504e+12	58.8353228449
1408227289023	71	3936555	351100	390	15	37.4443133	-122.16113288	4840551	1.3821244605e+12	58.8353228449
1408227289048	71	3946281	296000	390	15	37.4443133	-122.16113288	4840551	1.168099176e+12	58.8353228449
1408227289121	71	3943923	318400	390	15	37.4443133	-122.16113288	4840551	1.2557450832e+12	58.8353228449
1408227289151	71	3943335	330500	390	15	37.4443133	-122.16113288	4840551	1.3032722175e+12	58.8353228449
1408227289174	71	3946281	281600	390	15	37.4443133	-122.16113288	4840551	1.1112727296e+12	58.8353228449
1408227289265	71	3936555	302900	391	15	37.4443133	-122.16113288	4840551	1.1923825095e+12	58.8353228449
1408227289291	71	3937440	345900	390	15	37.4443133	-122.16113288	4840551	1.361960496e+12	58.8353228449
1408227289312	71	3943038	308000	390	15	37.4443133	-122.16113288	4840551	1.214455704e+12	58.8353228449
1408227289369	71	3940680	313700	390	15	37.4443133	-122.16113288	4840551	1.236191316e+12	58.8353228449
1408227289389	71	3930366	355600	391	15	37.4443133	-122.16113288	4840551	1.3976381496e+12	58.8353228449
1408227289406	71	3932136	343000	390	15	37.4443133	-122.16113288	4840551	1.348722648e+12	58.8353228449
1408227289446	71	3930366	338400	390	15	37.4443133	-122.16113288	4840551	1.3300358544e+12	58.8353228449
1408227289467	71	3932430	319500	390	15	37.4443133	-122.16113288	4840551	1.256411385e+12	58.8353228449
1408227289485	71	3932724	364800	390	15	37.4443133	-122.16113288	4840551	1.4346577152e+12	58.8353228449
1408227289505	71	3931545	302900	390	15	37.4443133	-122.16113288	4840551	1.1908649805e+12	58.8353228449
1408227289550	71	3945693	364300	390	15	37.4443133	-122.16113288	4840551	1.4374159599e+12	58.8353228449
1408227289573	71	3939798	339600	391	15	37.4443133	-122.16113288	4840551	1.3379554008e+12	58.8353228449
1408227289597	71	3940680	329300	391	15	37.4443133	-122.16113288	4840551	1.297665924e+12	58.8353228449
1408227289671	71	3945987	330500	390	15	37.4443133	-122.16113288	4840551	1.3041487035e+12	58.8353228449
1408227289794	71	3948048	287900	390	15	37.4443133	-122.16113288	4840551	1.1366430192e+12	58.8353228449
1408227289809	71	3920346	460600	390	15	37.4443133	-122.16113288	4840551	1.8057113676e+12	58.8353228449
1408227289846	71	3927714	461800	390	15	37.4443133	-122.16113288	4840551	1.8138183252e+12	58.8353228449
1408227289866	71	3940680	363700	390	15	37.4443133	-122.16113288	4840551	1.433225316e+12	58.8353228449
1408227289887	71	3932136	290300	390	15	37.4443133	-122.16113288	4840551	1.1414990808e+12	58.8353228449
1408227289925	71	3933018	347100	390	15	37.4443133	-122.16113288	4840551	1.3651505478e+12	58.8353228449
1408227289940	71	3932724	410700	390	15	37.4443133	-122.16113288	4840551	1.6151697468e+12	58.8353228449
1408227289955	71	3931839	392300	391	15	37.4443133	-122.16113288	4840551	1.5424604397e+12	58.8353228449
1408227289972	71	3931545	442200	391	15	37.4443133	-122.16113288	4840551	1.738529199e+12	58.8353228449
1408227290011	71	3932724	423300	391	15	37.4443133	-122.16113288	4840551	1.6647220692e+12	58.8353228449
1408227290031	71	3938028	314900	390	15	37.4443133	-122.16113288	4840551	1.2400850172e+12	58.8353228449
1408227290050	71	3943923	278200	390	15	37.4443133	-122.16113288	4840551	1.0971993786e+12	58.8353228449
1408227290117	71	3947166	344200	390	15	37.4443133	-122.16113288	4840551	1.3586145372e+12	58.8353228449
1408227290138	71	3944808	281600	391	15	37.4443133	-122.16113288	4840551	1.1108579328e+12	58.8353228449
1408227290160	71	3945102	286800	390	15	37.4443133	-122.16113288	4840551	1.1314552536e+12	58.8353228449
1408227290246	71	3943923	292000	390	15	37.4443133	-122.16113288	4840551	1.151625516e+12	58.8353228449
1408227290300	71	3950406	269500	390	15	37.4443133	-122.16113288	4840551	1.064634417e+12	58.8353228449
1408227290320	71	3944808	313200	391	15	37.4443133	-122.16113288	4840551	1.2355138656e+12	58.8353228449
1408227290371	71	3924177	337300	391	15	37.4443133	-122.16113288	4840551	1.3236249021e+12	58.8353228449
1408227290390	71	3928008	342400	391	15	37.4443133	-122.16113288	4840551	1.3449499392e+12	58.8353228449
1408227290407	71	3931545	329300	390	15	37.4443133	-122.16113288	4840551	1.2946577685e+12	58.8353228449
1408227290426	71	3930957	301200	390	15	37.4443133	-122.16113288	4840551	1.1840042484e+12	58.8353228449
1408227290461	71	3936555	461200	390	15	37.4443133	-122.16113288	4840551	1.815539166e+12	58.8353228449
1408227290478	71	3927714	356800	390	15	37.4443133	-122.16113288	4840551	1.4014083552e+12	58.8353228449
1408227290496	71	3937734	394700	391	15	37.4443133	-122.16113288	4840551	1.5542236098e+12	58.8353228449
1408227290532	71	3923883	393000	390	15	37.4443133	-122.16113288	4840551	1.542086019e+12	58.8353228449
1408227290552	71	3944514	283900	390	15	37.4443133	-122.16113288	4840551	1.1198475246e+12	58.8353228449
1408227290576	71	3944808	333300	390	15	37.4443133	-122.16113288	4840551	1.3148045064e+12	58.8353228449
1408227290646	71	3946872	313200	390	15	37.4443133	-122.16113288	4840551	1.2361603104e+12	58.8353228449
1408227290668	71	3947166	276500	390	15	37.4443133	-122.16113288	4840551	1.091391399e+12	58.8353228449
1408227290702	71	3943923	287900	391	15	37.4443133	-122.16113288	4840551	1.1354554317e+12	58.8353228449
1408227290784	71	3946281	303500	390	15	37.4443133	-122.16113288	4840551	1.1976962835e+12	58.8353228449
1408227290802	71	3941565	330500	390	15	37.4443133	-122.16113288	4840551	1.3026872325e+12	58.8353228449
1408227290821	71	3938913	347600	390	15	37.4443133	-122.16113288	4840551	1.3691661588e+12	58.8353228449
1408227290839	71	3940092	325800	390	15	37.4443133	-122.16113288	4840551	1.2836819736e+12	58.8353228449
1408227290876	71	3928302	469900	390	15	37.4443133	-122.16113288	4840551	1.8459091098e+12	58.8353228449
1408227290896	71	3927420	407900	390	15	37.4443133	-122.16113288	4840551	1.601994618e+12	58.8353228449
1408227290915	71	3933312	387300	390	15	37.4443133	-122.16113288	4840551	1.5233717376e+12	58.8353228449
1408227290949	71	3935376	285600	390	15	37.4443133	-122.16113288	4840551	1.1239433856e+12	58.8353228449
1408227290967	71	3934491	301700	390	15	37.4443133	-122.16113288	4840551	1.1870359347e+12	58.8353228449
1408227290986	71	3941565	305200	390	15	37.4443133	-122.16113288	4840551	1.202965638e+12	58.8353228449
1408227291037	71	3943335	321300	390	15	37.4443133	-122.16113288	4840551	1.2669935355e+12	58.8353228449
1408227291058	71	3940977	312600	390	15	37.4443133	-122.16113288	4840551	1.2319494102e+12	58.8353228449
1408227291091	71	3941271	302900	390	15	37.4443133	-122.16113288	4840551	1.1938109859e+12	58.8353228449
1408227291165	71	3941565	316100	390	15	37.4443133	-122.16113288	4840551	1.2459286965e+12	58.8353228449
1408227291197	71	3948639	318400	390	15	37.4443133	-122.16113288	4840551	1.2572466576e+12	58.8353228449
1408227291221	71	3946575	244400	390	15	37.4443133	-122.16113288	4840551	9.6454293e+11	58.8353228449
1408227291247	71	3946575	297100	390	15	37.4443133	-122.16113288	4840551	1.1725274325e+12	58.8353228449
1408227291341	71	3927123	321300	390	15	37.4443133	-122.16113288	4840551	1.2617846199e+12	58.8353228449
1408227291362	71	3921525	475600	390	15	37.4443133	-122.16113288	4840551	1.86507729e+12	58.8353228449
1408227291383	71	3938028	340200	390	15	37.4443133	-122.16113288	4840551	1.3397171256e+12	58.8353228449
1408227291417	71	3930957	321800	390	15	37.4443133	-122.16113288	4840551	1.2649819626e+12	58.8353228449
1408227291436	71	3941271	302300	390	15	37.4443133	-122.16113288	4840551	1.1914462233e+12	58.8353228449
1408227291457	71	3929481	432500	391	15	37.4443133	-122.16113288	4840551	1.6995005325e+12	58.8353228449
1408227291494	71	3929481	333300	391	15	37.4443133	-122.16113288	4840551	1.3096960173e+12	58.8353228449
1408227291513	71	3935967	386600	391	15	37.4443133	-122.16113288	4840551	1.5216448422e+12	58.8353228449
1408227291538	71	3938619	308600	390	15	37.4443133	-122.16113288	4840551	1.2154578234e+12	58.8353228449
1408227291584	71	3940386	289100	390	15	37.4443133	-122.16113288	4840551	1.1391655926e+12	58.8353228449
1408227291606	71	3943923	298800	390	15	37.4443133	-122.16113288	4840551	1.1784441924e+12	58.8353228449
1408227291628	71	3945102	245500	390	15	37.4443133	-122.16113288	4840551	9.68522541e+11	58.8353228449
1408227291653	71	3951291	329300	390	15	37.4443133	-122.16113288	4840551	1.3011601263e+12	58.8353228449
1408227291730	71	3950406	300500	390	15	37.4443133	-122.16113288	4840551	1.187097003e+12	58.8353228449
1408227291758	71	3947460	331000	390	15	37.4443133	-122.16113288	4840551	1.30660926e+12	58.8353228449
1408227291781	71	3944514	274700	391	15	37.4443133	-122.16113288	4840551	1.0835579958e+12	58.8353228449
1408227291863	71	3939207	294300	391	15	37.4443133	-122.16113288	4840551	1.1593086201e+12	58.8353228449
1408227291888	71	3940680	288500	391	15	37.4443133	-122.16113288	4840551	1.13688618e+12	58.8353228449
1408227291909	71	3948933	246100	390	15	37.4443133	-122.16113288	4840551	9.718324113e+11	58.8353228449
1408227291989	71	3949524	263300	390	15	37.4443133	-122.16113288	4840551	1.0399096692e+12	58.8353228449
1408227292007	71	3922410	312600	391	15	37.4443133	-122.16113288	4840551	1.226145366e+12	58.8353228449
1408227292026	71	3931251	340700	390	15	37.4443133	-122.16113288	4840551	1.3393772157e+12	58.8353228449
1408227292061	71	3930957	351600	390	15	37.4443133	-122.16113288	4840551	1.3821244812e+12	58.8353228449
1408227292081	71	3939504	339000	390	15	37.4443133	-122.16113288	4840551	1.335491856e+12	58.8353228449
1408227292099	71	3938325	326400	390	15	37.4443133	-122.16113288	4840551	1.28546928e+12	58.8353228449
1408227292116	71	3931839	328100	390	15	37.4443133	-122.16113288	4840551	1.2900363759e+12	58.8353228449
1408227292152	71	3934491	481300	390	15	37.4443133	-122.16113288	4840551	1.8936705183e+12	58.8353228449
1408227292171	71	3938619	346400	390	15	37.4443133	-122.16113288	4840551	1.3643376216e+12	58.8353228449
1408227292196	71	3937734	377400	391	15	37.4443133	-122.16113288	4840551	1.4861008116e+12	58.8353228449
1408227292299	71	3937734	377400	391	15	37.44439289	-122.16107958	4840551	1.4861008116e+12	68.8490313792
1408227292305	71	3923292	384300	390	15	37.44439289	-122.16107958	4840551	1.5077211156e+12	68.8490313792
1408227292321	71	3920934	460100	390	15	37.44439289	-122.16107958	4840551	1.8040217334e+12	68.8490313792
1408227292337	71	3920934	463000	390	15	37.44439289	-122.16107958	4840551	1.815392442e+12	68.8490313792
1408227292381	71	3921525	464100	391	15	37.44439289	-122.16107958	4840551	1.8199797525e+12	68.8490313792
1408227292397	71	3905316	574200	390	15	37.44439289	-122.16107958	4840551	2.2424324472e+12	68.8490313792
1408227292413	71	3912978	521500	390	15	37.44439289	-122.16107958	4840551	2.040618027e+12	68.8490313792
1408227292443	71	3922113	532400	391	15	37.44439289	-122.16107958	4840551	2.0881329612e+12	68.8490313792
1408227292459	71	3923589	469200	390	15	37.44439289	-122.16107958	4840551	1.8409479588e+12	68.8490313792
1408227292474	71	3922113	445700	390	15	37.44439289	-122.16107958	4840551	1.7480857641e+12	68.8490313792
1408227292489	71	3924471	427300	390	15	37.44439289	-122.16107958	4840551	1.6769264583e+12	68.8490313792
1408227292520	71	3905022	557100	391	15	37.44439289	-122.16107958	4840551	2.1754877562e+12	68.8490313792
1408227292535	71	3924177	488100	390	15	37.44439289	-122.16107958	4840551	1.9153907937e+12	68.8490313792
1408227292550	71	3924471	448600	390	15	37.44439289	-122.16107958	4840551	1.7605176906e+12	68.8490313792
1408227292581	71	3912684	436500	391	15	37.44439289	-122.16107958	4840551	1.707886566e+12	68.8490313792
1408227292596	71	3920934	452100	391	15	37.44439289	-122.16107958	4840551	1.7726542614e+12	68.8490313792
1408227292611	71	3918873	473200	391	15	37.44439289	-122.16107958	4840551	1.8544107036e+12	68.8490313792
1408227292642	71	3909735	473200	391	15	37.44439289	-122.16107958	4840551	1.850086602e+12	68.8490313792
1408227292658	71	3926535	435400	390	15	37.44439289	-122.16107958	4840551	1.709613339e+12	68.8490313792
1408227292675	71	3927123	502500	390	15	37.44439289	-122.16107958	4840551	1.9733793075e+12	68.8490313792
1408227292706	71	3927714	415900	391	15	37.44439289	-122.16107958	4840551	1.6335362526e+12	68.8490313792
1408227292721	71	3912978	388300	390	15	37.44439289	-122.16107958	4840551	1.5194093574e+12	68.8490313792
1408227292737	71	3928599	478400	391	15	37.44439289	-122.16107958	4840551	1.8794417616e+12	68.8490313792
1408227292752	71	3930957	431400	390	15	37.44439289	-122.16107958	4840551	1.6958148498e+12	68.8490313792
1408227292783	71	3925947	510000	390	15	37.44439289	-122.16107958	4840551	2.00223297e+12	68.8490313792
1408227292798	71	3931545	401500	390	15	37.44439289	-122.16107958	4840551	1.5785153175e+12	68.8490313792
1408227292813	71	3932136	386100	390	15	37.44439289	-122.16107958	4840551	1.5181977096e+12	68.8490313792
1408227292857	71	3933312	416400	390	15	37.44439289	-122.16107958	4840551	1.6378311168e+12	68.8490313792
1408227292875	71	3934788	314400	390	15	37.44439289	-122.16107958	4840551	1.2370973472e+12	68.8490313792
1408227292894	71	3943629	319500	390	15	37.44439289	-122.16107958	4840551	1.2599894655e+12	68.8490313792
1408227292983	71	3942744	294800	391	15	37.44439289	-122.16107958	4840551	1.1623209312e+12	68.8490313792
1408227293000	71	3933018	372900	391	15	37.44439289	-122.16107958	4840551	1.4666224122e+12	68.8490313792
1408227293017	71	3930366	343600	390	15	37.44439289	-122.16107958	4840551	1.3504737576e+12	68.8490313792
1408227293053	71	3929481	425100	391	15	37.44439289	-122.16107958	4840551	1.6704223731e+12	68.8490313792
1408227293073	71	3933018	403300	391	15	37.44439289	-122.16107958	4840551	1.5861861594e+12	68.8490313792
1408227293092	71	3932724	355600	390	15	37.44439289	-122.16107958	4840551	1.3984766544e+12	68.8490313792
1408227293112	71	3933312	380400	390	15	37.44439289	-122.16107958	4840551	1.4962318848e+12	68.8490313792
1408227293146	71	3922998	484800	390	15	37.44439289	-122.16107958	4840551	1.9018694304e+12	68.8490313792
1408227293166	71	3926829	314400	390	15	37.44439289	-122.16107958	4840551	1.2345950376e+12	68.8490313792
1408227293187	71	3940386	324100	390	15	37.44439289	-122.16107958	4840551	1.2770791026e+12	68.8490313792
1408227293247	71	3939207	294300	390	15	37.44439289	-122.16107958	4840551	1.1593086201e+12	68.8490313792
1408227293273	71	3936555	273000	390	15	37.44439289	-122.16107958	4840551	1.074679515e+12	68.8490313792
1408227293304	71	3942450	312100	390	15	37.44439289	-122.16107958	4840551	1.230438645e+12	68.8490313792
1408227293403	71	3945102	302300	390	15	37.44439289	-122.16107958	4840551	1.1926043346e+12	68.8490313792
1408227293428	71	3918873	464700	390	15	37.44439289	-122.16107958	4840551	1.8211002831e+12	68.8490313792
1408227293446	71	3928008	449800	390	15	37.44439289	-122.16107958	4840551	1.7668179984e+12	68.8490313792
1408227293484	71	3930072	265500	390	15	37.44439289	-122.16107958	4840551	1.043434116e+12	68.8490313792
1408227293503	71	3932136	339000	390	15	37.44439289	-122.16107958	4840551	1.332994104e+12	68.8490313792
1408227293522	71	3938028	406200	390	15	37.44439289	-122.16107958	4840551	1.5996269736e+12	68.8490313792
1408227293542	71	3926829	343000	390	15	37.44439289	-122.16107958	4840551	1.346902347e+12	68.8490313792
1408227293579	71	3928302	464100	390	15	37.44439289	-122.16107958	4840551	1.8231249582e+12	68.8490313792
1408227293597	71	3940092	368300	390	15	37.44439289	-122.16107958	4840551	1.4511358836e+12	68.8490313792
1408227293617	71	3937734	352200	390	15	37.44439289	-122.16107958	4840551	1.3868699148e+12	68.8490313792
1408227293692	71	3944514	315400	390	15	37.44439289	-122.16107958	4840551	1.2440997156e+12	68.8490313792
1408227293712	71	3932724	347600	391	15	37.44439289	-122.16107958	4840551	1.3670148624e+12	68.8490313792
1408227293729	71	3934491	395300	391	15	37.44439289	-122.16107958	4840551	1.5553042923e+12	68.8490313792
1408227293766	71	3934491	410200	391	15	37.44439289	-122.16107958	4840551	1.6139282082e+12	68.8490313792
1408227293786	71	3927714	328100	390	15	37.44439289	-122.16107958	4840551	1.2886829634e+12	68.8490313792
1408227293807	71	3941565	355600	390	15	37.44439289	-122.16107958	4840551	1.401620514e+12	68.8490313792
1408227293844	71	3929481	278700	390	15	37.44439289	-122.16107958	4840551	1.0951463547e+12	68.8490313792
1408227293862	71	3937734	372300	390	15	37.44439289	-122.16107958	4840551	1.4660183682e+12	68.8490313792
1408227293881	71	3940092	306300	391	15	37.44439289	-122.16107958	4840551	1.2068501796e+12	68.8490313792
1408227293902	71	3948345	296000	390	15	37.44439289	-122.16107958	4840551	1.16871012e+12	68.8490313792
1408227293976	71	3947754	297100	390	15	37.44439289	-122.16107958	4840551	1.1728777134e+12	68.8490313792
1408227293998	71	3948639	285100	390	15	37.44439289	-122.16107958	4840551	1.1257569789e+12	68.8490313792
1408227294024	71	3948048	297100	390	15	37.44439289	-122.16107958	4840551	1.1729650608e+12	68.8490313792
1408227294096	71	3939504	281600	391	15	37.44439289	-122.16107958	4840551	1.1093643264e+12	68.8490313792
1408227294126	71	3937440	313200	391	15	37.44439289	-122.16107958	4840551	1.233206208e+12	68.8490313792
1408227294150	71	3944514	333800	390	15	37.44439289	-122.16107958	4840551	1.3166787732e+12	68.8490313792
1408227294231	71	3946281	308000	390	15	37.44439289	-122.16107958	4840551	1.215454548e+12	68.8490313792
1408227294249	71	3937734	337900	390	15	37.44439289	-122.16107958	4840551	1.3305603186e+12	68.8490313792
1408227294268	71	3928893	403900	390	15	37.44439289	-122.16107958	4840551	1.5868798827e+12	68.8490313792
1408227294305	71	3932136	331000	390	15	37.44439289	-122.16107958	4840551	1.301537016e+12	68.8490313792
1408227294332	71	3921819	476700	391	15	37.44439289	-122.16107958	4840551	1.8695311173e+12	68.8490313792
1408227294352	71	3932724	408400	391	15	37.44439289	-122.16107958	4840551	1.6061244816e+12	68.8490313792
1408227294372	71	3937146	371200	390	15	37.44439289	-122.16107958	4840551	1.4614685952e+12	68.8490313792
1408227294408	71	3927714	460600	390	15	37.44439289	-122.16107958	4840551	1.8091050684e+12	68.8490313792
1408227294425	71	3930072	360300	390	15	37.44439289	-122.16107958	4840551	1.4160049416e+12	68.8490313792
1408227294453	71	3942156	322400	391	15	37.44439289	-122.16107958	4840551	1.2709510944e+12	68.8490313792
1408227294513	71	3937146	327500	390	15	37.44439289	-122.16107958	4840551	1.289415315e+12	68.8490313792
1408227294546	71	3947754	243700	390	15	37.44439289	-122.16107958	4840551	9.620676498e+11	68.8490313792
1408227294568	71	3947460	269500	390	15	37.44439289	-122.16107958	4840551	1.06384047e+12	68.8490313792
1408227294642	71	3948933	289100	390	15	37.44439289	-122.16107958	4840551	1.1416365303e+12	68.8490313792
1408227294661	71	3939504	351100	390	15	37.44439289	-122.16107958	4840551	1.3831598544e+12	68.8490313792
1408227294679	71	3933903	349400	390	15	37.44439289	-122.16107958	4840551	1.3745057082e+12	68.8490313792
1408227294714	71	3933903	299500	390	15	37.44439289	-122.16107958	4840551	1.1782039485e+12	68.8490313792
1408227294733	71	3940386	287900	391	15	37.44439289	-122.16107958	4840551	1.1344371294e+12	68.8490313792
1408227294756	71	3932724	322400	390	15	37.44439289	-122.16107958	4840551	1.2679102176e+12	68.8490313792
1408227294775	71	3928302	309700	390	15	37.44439289	-122.16107958	4840551	1.2165951294e+12	68.8490313792
1408227294810	71	3936261	467500	390	15	37.44439289	-122.16107958	4840551	1.8402020175e+12	68.8490313792
1408227294829	71	3929778	360800	391	15	37.44439289	-122.16107958	4840551	1.4178639024e+12	68.8490313792
1408227294853	71	3942450	343000	391	15	37.44439289	-122.16107958	4840551	1.35226035e+12	68.8490313792
1408227294917	71	3944514	299500	390	15	37.44439289	-122.16107958	4840551	1.181381943e+12	68.8490313792
1408227294948	71	3945396	297700	390	15	37.44439289	-122.16107958	4840551	1.1745443892e+12	68.8490313792
1408227294975	71	3945987	251800	390	15	37.44439289	-122.16107958	4840551	9.935995266e+11	68.8490313792
1408227295061	71	3942744	321300	390	15	37.44439289	-122.16107958	4840551	1.2668036472e+12	68.8490313792
1408227295085	71	3945396	291400	390	15	37.44439289	-122.16107958	4840551	1.1496883944e+12	68.8490313792
1408227295111	71	3941859	330500	390	15	37.44439289	-122.16107958	4840551	1.3027843995e+12	68.8490313792
1408227295203	71	3946872	283400	391	15	37.44439289	-122.16107958	4840551	1.1185435248e+12	68.8490313792
1408227295223	71	3933903	402200	391	15	37.44439289	-122.16107958	4840551	1.5822157866e+12	68.8490313792
1408227295243	71	3936261	343000	391	15	37.44439289	-122.16107958	4840551	1.350137523e+12	68.8490313792
1408227295264	71	3935376	399300	391	15	37.44439289	-122.16107958	4840551	1.5713956368e+12	68.8490313792
1408227295304	71	3916809	487100	390	15	37.44439289	-122.16107958	4840551	1.9078776639e+12	68.8490313792
1408227295319	71	3917103	475600	390	15	37.44439289	-122.16107958	4840551	1.8629741868e+12	68.8490313792
1408227295338	71	3926535	475000	390	15	37.44439289	-122.16107958	4840551	1.865104125e+12	68.8490313792
1408227295372	71	3925062	321300	390	15	37.44439289	-122.16107958	4840551	1.2611224206e+12	68.8490313792
1408227295393	71	3930366	382600	391	15	37.44439289	-122.16107958	4840551	1.5037580316e+12	68.8490313792
1408227295414	71	3941565	414200	390	15	37.44439289	-122.16107958	4840551	1.632596223e+12	68.8490313792
1408227295455	71	3940680	318900	390	15	37.44439289	-122.16107958	4840551	1.256682852e+12	68.8490313792
1408227295477	71	3934788	308600	390	15	37.44439289	-122.16107958	4840551	1.2142755768e+12	68.8490313792
1408227295508	71	3942156	308600	390	15	37.44439289	-122.16107958	4840551	1.2165493416e+12	68.8490313792
1408227295581	71	3943629	270200	391	15	37.44439289	-122.16107958	4840551	1.0655685558e+12	68.8490313792
1408227295615	71	3940092	317800	391	15	37.44439289	-122.16107958	4840551	1.2521612376e+12	68.8490313792
1408227295638	71	3939207	305700	391	15	37.44439289	-122.16107958	4840551	1.2042155799e+12	68.8490313792
1408227295659	71	3938028	308000	391	15	37.44439289	-122.16107958	4840551	1.212912624e+12	68.8490313792
1408227295721	71	3923589	453200	390	15	37.44439289	-122.16107958	4840551	1.7781705348e+12	68.8490313792
1408227295741	71	3929187	373400	390	15	37.44439289	-122.16107958	4840551	1.4671584258e+12	68.8490313792
1408227295759	71	3926829	344200	391	15	37.44439289	-122.16107958	4840551	1.3516145418e+12	68.8490313792
1408227295795	71	3929778	382600	390	15	37.44439289	-122.16107958	4840551	1.5035330628e+12	68.8490313792
1408227295816	71	3929481	360300	390	15	37.44439289	-122.16107958	4840551	1.4157920043e+12	68.8490313792
1408227295836	71	3932136	347600	390	15	37.44439289	-122.16107958	4840551	1.3668104736e+12	68.8490313792
1408227295870	71	3930660	383200	390	15	37.44439289	-122.16107958	4840551	1.506228912e+12	68.8490313792
1408227295887	71	3930660	381400	390	15	37.44439289	-122.16107958	4840551	1.499153724e+12	68.8490313792
1408227295911	71	3940386	259800	390	15	37.44439289	-122.16107958	4840551	1.0237122828e+12	68.8490313792
1408227295958	71	3938325	334400	391	15	37.44439289	-122.16107958	4840551	1.31697588e+12	68.8490313792
1408227295977	71	3938325	332700	391	15	37.44439289	-122.16107958	4840551	1.3102807275e+12	68.8490313792
1408227296000	71	3937146	343000	390	15	37.44439289	-122.16107958	4840551	1.350441078e+12	68.8490313792
1408227296031	71	3946872	294800	390	15	37.44439289	-122.16107958	4840551	1.1635378656e+12	68.8490313792
1408227296105	71	3944514	318400	390	15	37.44439289	-122.16107958	4840551	1.2559332576e+12	68.8490313792
1408227296127	71	3929187	307400	390	15	37.44439289	-122.16107958	4840551	1.2078320838e+12	68.8490313792
1408227296149	71	3922113	395800	390	15	37.44439289	-122.16107958	4840551	1.5523723254e+12	68.8490313792
1408227296183	71	3933018	321800	390	15	37.44439289	-122.16107958	4840551	1.2656451924e+12	68.8490313792
1408227296202	71	3935376	378600	390	15	37.44439289	-122.16107958	4840551	1.4899333536e+12	68.8490313792
1408227296226	71	3940977	375200	390	15	37.44439289	-122.16107958	4840551	1.4786545704e+12	68.8490313792
1408227296266	71	3928599	321300	390	15	37.44439289	-122.16107958	4840551	1.2622588587e+12	68.8490313792
1408227296288	71	3930660	383800	390	15	37.44439289	-122.16107958	4840551	1.508587308e+12	68.8490313792
1408227296312	71	3936261	457800	390	15	37.44439289	-122.16107958	4840551	1.8020202858e+12	68.8490313792
1408227296360	71	3932724	348800	391	15	37.44439289	-122.16107958	4840551	1.3717341312e+12	68.8490313792
1408227296379	71	3927420	464100	391	15	37.44439289	-122.16107958	4840551	1.822715622e+12	68.8490313792
1408227296399	71	3930957	404400	390	15	37.44439289	-122.16107958	4840551	1.5896790108e+12	68.8490313792
1408227296421	71	3932136	330500	390	15	37.44439289	-122.16107958	4840551	1.299570948e+12	68.8490313792
1408227296456	71	3925650	475600	390	15	37.44439289	-122.16107958	4840551	1.86703914e+12	68.8490313792
1408227296475	71	3928008	321300	390	15	37.44439289	-122.16107958	4840551	1.2620689704e+12	68.8490313792
1408227296496	71	3933312	349400	390	15	37.44439289	-122.16107958	4840551	1.3742992128e+12	68.8490313792
1408227296536	71	3926829	384900	390	15	37.44439289	-122.16107958	4840551	1.5114364821e+12	68.8490313792
1408227296560	71	3937440	288500	390	15	37.44439289	-122.16107958	4840551	1.13595144e+12	68.8490313792
1408227296579	71	3939798	329800	390	15	37.44439289	-122.16107958	4840551	1.2993453804e+12	68.8490313792
1408227296699	71	3938913	329300	390	15	37.44439289	-122.16107958	4840551	1.2970840509e+12	68.8490313792
1408227296720	71	3913863	518600	391	15	37.44439289	-122.16107958	4840551	2.0297293518e+12	68.8490313792
1408227296738	71	3925650	508200	391	15	37.44439289	-122.16107958	4840551	1.99501533e+12	68.8490313792
1408227296775	71	3928008	399800	390	15	37.44439289	-122.16107958	4840551	1.5704175984e+12	68.8490313792
1408227296795	71	3933903	344700	390	15	37.44439289	-122.16107958	4840551	1.3560163641e+12	68.8490313792
1408227296815	71	3931251	274700	390	15	37.44439289	-122.16107958	4840551	1.0799146497e+12	68.8490313792
1408227296835	71	3935670	329300	390	15	37.44439289	-122.16107958	4840551	1.296016131e+12	68.8490313792
1408227296886	71	3932136	374000	391	15	37.44439289	-122.16107958	4840551	1.470618864e+12	68.8490313792
1408227296908	71	3933903	324600	391	15	37.44439289	-122.16107958	4840551	1.2769449138e+12	68.8490313792
1408227296929	71	3936555	343000	390	15	37.44439289	-122.16107958	4840551	1.350238365e+12	68.8490313792
1408227297005	71	3949227	285600	390	15	37.44439289	-122.16107958	4840551	1.1278992312e+12	68.8490313792
1408227297025	71	3934197	328700	390	15	37.44439289	-122.16107958	4840551	1.2931705539e+12	68.8490313792
1408227297045	71	3928302	348200	390	15	37.44439289	-122.16107958	4840551	1.3678347564e+12	68.8490313792
1408227297081	71	3933312	289100	390	15	37.44439289	-122.16107958	4840551	1.1371204992e+12	68.8490313792
1408227297102	71	3926535	457300	390	15	37.44439289	-122.16107958	4840551	1.7956044555e+12	68.8490313792
1408227297122	71	3936849	396300	390	15	37.44439289	-122.16107958	4840551	1.5601732587e+12	68.8490313792
1408227297156	71	3936555	322400	390	15	37.44439289	-122.16107958	4840551	1.269145332e+12	68.8490313792
1408227297177	71	3925062	327000	390	15	37.44439289	-122.16107958	4840551	1.283495274e+12	68.8490313792
1408227297201	71	3931839	347600	390	15	37.44439289	-122.16107958	4840551	1.3667072364e+12	68.8490313792
1408227297221	71	3944808	316100	390	15	37.44439289	-122.16107958	4840551	1.2469538088e+12	68.8490313792
1408227297311	71	3926241	293100	390	15	37.44439289	-122.16107958	4840551	1.1507812371e+12	68.8490313792
1408227297326	71	3920934	448600	390	15	37.44439289	-122.16107958	4840551	1.7589309924e+12	68.8490313792
1408227297347	71	3925947	477900	390	15	37.44439289	-122.16107958	4840551	1.8762100713e+12	68.8490313792
1408227297383	71	3935967	261500	390	15	37.44439289	-122.16107958	4840551	1.0292553705e+12	68.8490313792
1408227297405	71	3931251	344200	390	15	37.44439289	-122.16107958	4840551	1.3531365942e+12	68.8490313792
1408227297425	71	3934491	304500	390	15	37.44439289	-122.16107958	4840551	1.1980525095e+12	68.8490313792
1408227297459	71	3923589	358000	390	15	37.44439289	-122.16107958	4840551	1.404644862e+12	68.8490313792
1408227297479	71	3918873	388900	390	15	37.44439289	-122.16107958	4840551	1.5240497097e+12	68.8490313792
1408227297504	71	3920934	463500	390	15	37.44439289	-122.16107958	4840551	1.817352909e+12	68.8490313792
1408227297545	71	3940386	306300	390	15	37.44439289	-122.16107958	4840551	1.2069402318e+12	68.8490313792
1408227297569	71	3938028	330500	390	15	37.44439289	-122.16107958	4840551	1.301518254e+12	68.8490313792
1408227297590	71	3943923	358500	390	15	37.44439289	-122.16107958	4840551	1.4138963955e+12	68.8490313792
1408227297619	71	3941859	338400	390	15	37.44439289	-122.16107958	4840551	1.3339250856e+12	68.8490313792
1408227297691	71	3944808	326400	390	15	37.44439289	-122.16107958	4840551	1.2875853312e+12	68.8490313792
1408227297723	71	3946872	311400	390	15	37.44439289	-122.16107958	4840551	1.2290559408e+12	68.8490313792
1408227297747	71	3944514	310900	390	15	37.44439289	-122.16107958	4840551	1.2263494026e+12	68.8490313792
1408227297840	71	3944514	265000	390	15	37.44439289	-122.16107958	4840551	1.04529621e+12	68.8490313792
1408227297866	71	3945987	278700	390	15	37.44439289	-122.16107958	4840551	1.0997465769e+12	68.8490313792
1408227297888	71	3947166	286200	390	15	37.44439289	-122.16107958	4840551	1.1296789092e+12	68.8490313792
1408227297964	71	3948639	253600	390	15	37.44439289	-122.16107958	4840551	1.0013748504e+12	68.8490313792
1408227297981	71	3939504	310900	390	15	37.44439289	-122.16107958	4840551	1.2247917936e+12	68.8490313792
1408227297998	71	3930072	333800	390	15	37.44439289	-122.16107958	4840551	1.3118580336e+12	68.8490313792
1408227298036	71	3928893	335000	390	15	37.44439289	-122.16107958	4840551	1.316179155e+12	68.8490313792
1408227298059	71	3928302	388300	390	15	37.44439289	-122.16107958	4840551	1.5253596666e+12	68.8490313792
1408227298077	71	3930660	329800	390	15	37.44439289	-122.16107958	4840551	1.296331668e+12	68.8490313792
1408227298093	71	3934788	371700	390	15	37.44439289	-122.16107958	4840551	1.4625606996e+12	68.8490313792
1408227298129	71	3924177	493300	390	15	37.44439289	-122.16107958	4840551	1.9357965141e+12	68.8490313792
1408227298149	71	3925062	329800	390	15	37.44439289	-122.16107958	4840551	1.2944854476e+12	68.8490313792
1408227298175	71	3934491	336700	391	15	37.44439289	-122.16107958	4840551	1.3247431197e+12	68.8490313792
1408227298243	71	3940977	359100	390	15	37.44439289	-122.16107958	4840551	1.4152048407e+12	68.8490313792
1408227298299	71	3947166	297100	390	15	37.44439289	-122.16107958	4840551	1.1727030186e+12	68.8490313792
1408227298321	71	3943923	322400	390	15	37.44439289	-122.16107958	4840551	1.2715207752e+12	68.8490313792
1408227298400	71	3944217	312600	390	15	37.44439289	-122.16107958	4840551	1.2329622342e+12	68.8490313792
1408227298420	71	3909441	454900	390	15	37.44439289	-122.16107958	4840551	1.7784047109e+12	68.8490313792
1408227298438	71	3896178	608100	390	15	37.44439289	-122.16107958	4840551	2.3692658418e+12	68.8490313792
1408227298487	71	3904137	596000	390	15	37.44439289	-122.16107958	4840551	2.326865652e+12	68.8490313792
1408227298503	71	3907674	581100	390	15	37.44439289	-122.16107958	4840551	2.2707493614e+12	68.8490313792
1408227298519	71	3907377	553600	390	15	37.44439289	-122.16107958	4840551	2.1631239072e+12	68.8490313792
1408227298534	71	3907674	547900	390	15	37.44439289	-122.16107958	4840551	2.1410145846e+12	68.8490313792
1408227298565	71	3903252	635100	391	15	37.44439289	-122.16107958	4840551	2.4789553452e+12	68.8490313792
1408227298581	71	3899127	586300	390	15	37.44439289	-122.16107958	4840551	2.2860581601e+12	68.8490313792
1408227298597	71	3916809	557100	390	15	37.44439289	-122.16107958	4840551	2.1820542939e+12	68.8490313792
1408227298627	71	3912684	468700	390	15	37.44439289	-122.16107958	4840551	1.8338749908e+12	68.8490313792
1408227298643	71	3926241	452100	390	15	37.44439289	-122.16107958	4840551	1.7750535561e+12	68.8490313792
1408227298658	71	3925947	425100	390	15	37.44439289	-122.16107958	4840551	1.6689200697e+12	68.8490313792
1408227298689	71	3926535	440600	390	15	37.44439289	-122.16107958	4840551	1.730031321e+12	68.8490313792
1408227298704	71	3926241	422300	390	15	37.44439289	-122.16107958	4840551	1.6580515743e+12	68.8490313792
1408227298720	71	3928893	494000	390	15	37.44439289	-122.16107958	4840551	1.940873142e+12	68.8490313792
1408227298750	71	3927420	426300	390	15	37.44439289	-122.16107958	4840551	1.674259146e+12	68.8490313792
1408227298765	71	3922410	429700	391	15	37.44439289	-122.16107958	4840551	1.685459577e+12	68.8490313792
1408227298780	71	3926241	408400	390	15	37.44439289	-122.16107958	4840551	1.6034768244e+12	68.8490313792
1408227298797	71	3930072	405500	390	15	37.44439289	-122.16107958	4840551	1.593644196e+12	68.8490313792
1408227298827	71	3917400	520900	390	15	37.44439289	-122.16107958	4840551	2.04057366e+12	68.8490313792
1408227298843	71	3929778	438900	390	15	37.44439289	-122.16107958	4840551	1.7247795642e+12	68.8490313792
1408227298858	71	3930957	390100	390	15	37.44439289	-122.16107958	4840551	1.5334663257e+12	68.8490313792
1408227298889	71	3925062	402700	390	15	37.44439289	-122.16107958	4840551	1.5806224674e+12	68.8490313792
1408227298904	71	3934788	401500	390	15	37.44439289	-122.16107958	4840551	1.579817382e+12	68.8490313792
1408227298920	71	3933312	358000	390	15	37.44439289	-122.16107958	4840551	1.408125696e+12	68.8490313792
1408227298951	71	3936261	414200	391	15	37.44439289	-122.16107958	4840551	1.6303993062e+12	68.8490313792
1408227298966	71	3927714	411300	390	15	37.44439289	-122.16107958	4840551	1.6154687682e+12	68.8490313792
1408227298982	71	3936555	385500	390	15	37.44439289	-122.16107958	4840551	1.5175419525e+12	68.8490313792
1408227299015	71	3936849	364800	390	15	37.44439289	-122.16107958	4840551	1.4361625152e+12	68.8490313792
1408227299032	71	3933312	365400	390	15	37.44439289	-122.16107958	4840551	1.4372322048e+12	68.8490313792
1408227299050	71	3941565	323500	390	15	37.44439289	-122.16107958	4840551	1.2750962775e+12	68.8490313792
1408227299067	71	3938619	331500	390	15	37.44439289	-122.16107958	4840551	1.3056521985e+12	68.8490313792
1408227299147	71	3921525	334400	390	15	37.44439289	-122.16107958	4840551	1.31135796e+12	68.8490313792
1408227299166	71	3928599	308600	390	15	37.44439289	-122.16107958	4840551	1.2123656514e+12	68.8490313792
1408227299186	71	3927123	385500	390	15	37.44439289	-122.16107958	4840551	1.5139059165e+12	68.8490313792
1408227299222	71	3937734	271300	390	15	37.44439289	-122.16107958	4840551	1.0683072342e+12	68.8490313792
1408227299245	71	3921231	366500	390	15	37.44439289	-122.16107958	4840551	1.4371311615e+12	68.8490313792
1408227299264	71	3935670	412400	390	15	37.44439289	-122.16107958	4840551	1.623070308e+12	68.8490313792
1408227299298	71	3935670	412400	390	15	37.44449138	-122.16099611	4840551	1.623070308e+12	82.0416227784
1408227299301	71	3923589	378600	390	15	37.44449138	-122.16099611	4840551	1.4854707954e+12	82.0416227784
1408227299333	71	3913863	498500	390	15	37.44449138	-122.16099611	4840551	1.9510607055e+12	82.0416227784
1408227299353	71	3933903	362500	390	15	37.44449138	-122.16099611	4840551	1.4260398375e+12	82.0416227784
1408227299399	71	3944514	289600	390	15	37.44449138	-122.16099611	4840551	1.1423312544e+12	82.0416227784
1408227299419	71	3942744	301200	390	15	37.44449138	-122.16099611	4840551	1.1875544928e+12	82.0416227784
1408227299452	71	3949524	309700	390	15	37.44449138	-122.16099611	4840551	1.2231675828e+12	82.0416227784
1408227299474	71	3938028	328700	390	15	37.44449138	-122.16099611	4840551	1.2944298036e+12	82.0416227784
1408227299551	71	3943629	327500	390	15	37.44449138	-122.16099611	4840551	1.2915384975e+12	82.0416227784
1408227299574	71	3945102	297100	390	15	37.44449138	-122.16099611	4840551	1.1720898042e+12	82.0416227784
1408227299596	71	3949227	300000	390	15	37.44449138	-122.16099611	4840551	1.1847681e+12	82.0416227784
1408227299679	71	3946575	285100	390	15	37.44449138	-122.16099611	4840551	1.1251685325e+12	82.0416227784
1408227299702	71	3935967	371700	391	15	37.44449138	-122.16099611	4840551	1.4629989339e+12	82.0416227784
1408227299721	71	3941565	326400	390	15	37.44449138	-122.16099611	4840551	1.286526816e+12	82.0416227784
1408227299757	71	3930072	352800	390	15	37.44449138	-122.16099611	4840551	1.3865294016e+12	82.0416227784
1408227299775	71	3929481	441200	390	15	37.44449138	-122.16099611	4840551	1.7336870172e+12	82.0416227784
1408227299796	71	3929778	349900	390	15	37.44449138	-122.16099611	4840551	1.3750293222e+12	82.0416227784
1408227299833	71	3930957	265000	390	15	37.44449138	-122.16099611	4840551	1.041703605e+12	82.0416227784
1408227299855	71	3939207	360800	390	15	37.44449138	-122.16099611	4840551	1.4212658856e+12	82.0416227784
1408227299875	71	3930366	334400	390	15	37.44449138	-122.16099611	4840551	1.3143143904e+12	82.0416227784
1408227299899	71	3936849	393500	390	15	37.44449138	-122.16099611	4840551	1.5491500815e+12	82.0416227784
1408227299961	71	3947460	297100	390	15	37.44449138	-122.16099611	4840551	1.172790366e+12	82.0416227784
1408227299986	71	3946575	294300	390	15	37.44449138	-122.16099611	4840551	1.1614770225e+12	82.0416227784
1408227300031	71	3943629	273000	390	15	37.44449138	-122.16099611	4840551	1.076610717e+12	82.0416227784
1408227300116	71	3921231	305700	390	15	37.44449138	-122.16099611	4840551	1.1987203167e+12	82.0416227784
1408227300136	71	3918579	460600	390	15	37.44449138	-122.16099611	4840551	1.8048974874e+12	82.0416227784
1408227300151	71	3919167	478400	390	15	37.44449138	-122.16099611	4840551	1.8749294928e+12	82.0416227784
1408227300193	71	3920052	472200	390	15	37.44449138	-122.16099611	4840551	1.8510485544e+12	82.0416227784
1408227300210	71	3921525	486500	390	15	37.44449138	-122.16099611	4840551	1.9078219125e+12	82.0416227784
1408227300226	71	3919461	475600	391	15	37.44449138	-122.16099611	4840551	1.8640956516e+12	82.0416227784
1408227300263	71	3920934	480200	391	15	37.44449138	-122.16099611	4840551	1.8828325068e+12	82.0416227784
1408227300279	71	3915042	422800	390	15	37.44449138	-122.16099611	4840551	1.6552797576e+12	82.0416227784
1408227300295	71	3912978	522100	391	15	37.44449138	-122.16099611	4840551	2.0429658138e+12	82.0416227784
1408227300313	71	3914451	545000	390	15	37.44449138	-122.16099611	4840551	2.133375795e+12	82.0416227784
1408227300344	71	3910620	590900	390	15	37.44449138	-122.16099611	4840551	2.310785358e+12	82.0416227784
1408227300360	71	3908853	543900	390	15	37.44449138	-122.16099611	4840551	2.1260251467e+12	82.0416227784
1408227300376	71	3910326	533500	390	15	37.44449138	-122.16099611	4840551	2.086158921e+12	82.0416227784
1408227300412	71	3912387	523800	390	15	37.44449138	-122.16099611	4840551	2.0493083106e+12	82.0416227784
1408227300427	71	3905610	553600	390	15	37.44449138	-122.16099611	4840551	2.162145696e+12	82.0416227784
1408227300443	71	3906495	553100	390	15	37.44449138	-122.16099611	4840551	2.1606823845e+12	82.0416227784
1408227300474	71	3911211	586900	390	15	37.44449138	-122.16099611	4840551	2.2954897359e+12	82.0416227784
1408227300491	71	3901188	534200	390	15	37.44449138	-122.16099611	4840551	2.0840146296e+12	82.0416227784
1408227300511	71	3913863	503200	390	15	37.44449138	-122.16099611	4840551	1.9694558616e+12	82.0416227784
1408227300542	71	3911799	545000	391	15	37.44449138	-122.16099611	4840551	2.131930455e+12	82.0416227784
1408227300558	71	3912387	538700	390	15	37.44449138	-122.16099611	4840551	2.1076028769e+12	82.0416227784
1408227300574	71	3912093	528300	390	15	37.44449138	-122.16099611	4840551	2.0667587319e+12	82.0416227784
1408227300589	71	3911211	520300	390	15	37.44449138	-122.16099611	4840551	2.0350030833e+12	82.0416227784
1408227300624	71	3901779	592000	391	15	37.44449138	-122.16099611	4840551	2.309853168e+12	82.0416227784
1408227300639	71	3906198	550100	391	15	37.44449138	-122.16099611	4840551	2.1487995198e+12	82.0416227784
1408227300655	71	3925947	399300	391	15	37.44449138	-122.16099611	4840551	1.5676306371e+12	82.0416227784
1408227300685	71	3919167	388900	390	15	37.44449138	-122.16099611	4840551	1.5241640463e+12	82.0416227784
1408227300700	71	3929481	417100	390	15	37.44449138	-122.16099611	4840551	1.6389865251e+12	82.0416227784
1408227300716	71	3931839	402700	390	15	37.44449138	-122.16099611	4840551	1.5833515653e+12	82.0416227784
1408227300746	71	3930366	440600	391	15	37.44449138	-122.16099611	4840551	1.7317192596e+12	82.0416227784
1408227300761	71	3926241	400400	391	15	37.44449138	-122.16099611	4840551	1.5720668964e+12	82.0416227784
1408227300777	71	3929187	439400	390	15	37.44449138	-122.16099611	4840551	1.7264847678e+12	82.0416227784
1408227300807	71	3930366	403900	391	15	37.44449138	-122.16099611	4840551	1.5874748274e+12	82.0416227784
1408227300823	71	3907083	390100	391	15	37.44449138	-122.16099611	4840551	1.5241530783e+12	82.0416227784
1408227300840	71	3929481	398700	390	15	37.44449138	-122.16099611	4840551	1.5666840747e+12	82.0416227784
1408227300857	71	3932724	374600	390	15	37.44449138	-122.16099611	4840551	1.4731984104e+12	82.0416227784
1408227300906	71	3932724	418200	390	15	37.44449138	-122.16099611	4840551	1.6446651768e+12	82.0416227784
1408227300924	71	3918579	376400	391	15	37.44449138	-122.16099611	4840551	1.4749531356e+12	82.0416227784
1408227300942	71	3929187	367700	390	15	37.44449138	-122.16099611	4840551	1.4447620599e+12	82.0416227784
1408227300993	71	3915630	383800	390	15	37.44449138	-122.16099611	4840551	1.502818794e+12	82.0416227784
1408227301011	71	3921819	384900	391	15	37.44449138	-122.16099611	4840551	1.5095081331e+12	82.0416227784
1408227301035	71	3915924	475000	390	15	37.44449138	-122.16099611	4840551	1.8600639e+12	82.0416227784
1408227301101	71	3935670	351600	390	15	37.44449138	-122.16099611	4840551	1.383781572e+12	82.0416227784
1408227301118	71	3936555	409000	390	15	37.44449138	-122.16099611	4840551	1.610050995e+12	82.0416227784
1408227301135	71	3933609	407900	391	15	37.44449138	-122.16099611	4840551	1.6045191111e+12	82.0416227784
1408227301166	71	3931251	403900	390	15	37.44449138	-122.16099611	4840551	1.5878322789e+12	82.0416227784
1408227301182	71	3930072	392300	390	15	37.44449138	-122.16099611	4840551	1.5417672456e+12	82.0416227784
1408227301197	71	3931545	372900	391	15	37.44449138	-122.16099611	4840551	1.4660731305e+12	82.0416227784
1408227301213	71	3935376	369400	390	15	37.44449138	-122.16099611	4840551	1.4537278944e+12	82.0416227784
1408227301263	71	3931839	378600	390	15	37.44449138	-122.16099611	4840551	1.4885942454e+12	82.0416227784
1408227301282	71	3933018	332100	390	15	37.44449138	-122.16099611	4840551	1.3061552778e+12	82.0416227784
