Time	SOD	Volt	Current	Temp	Signal	Latitude	Longitude	CellID	Power	Distance
1408228122355	67	3892641	326700	380	14	37.44641617	-122.16517739	4791830	1.2717258147e+12	19.7680462766
1408228122398	67	3873780	369800	380	14	37.44641617	-122.16517739	4791830	1.432523844e+12	19.7680462766
1408228122416	67	3871128	475900	381	14	37.44641617	-122.16517739	4791830	1.8422698152e+12	19.7680462766
1408228122436	67	3873486	385200	381	14	37.44641617	-122.16517739	4791830	1.4920668072e+12	19.7680462766
1408228122468	67	3874371	325600	381	14	37.44641617	-122.16517739	4791830	1.2614951976e+12	19.7680462766
1408228122486	67	3880854	332500	381	14	37.44641617	-122.16517739	4791830	1.290383955e+12	19.7680462766
1408228122511	67	3882327	265300	380	14	37.44641617	-122.16517739	4791830	1.0299813531e+12	19.7680462766
1408228122545	67	3872601	350200	381	14	37.44641617	-122.16517739	4791830	1.3561848702e+12	19.7680462766
1408228122566	67	3884094	320400	382	14	37.44641617	-122.16517739	4791830	1.2444637176e+12	19.7680462766
1408228122587	67	3886158	348500	381	14	37.44641617	-122.16517739	4791830	1.354326063e+12	19.7680462766
1408228122604	67	3887631	296900	380	14	37.44641617	-122.16517739	4791830	1.1542376439e+12	19.7680462766
1408228122657	67	3884391	387000	380	14	37.44641617	-122.16517739	4791830	1.503259317e+12	19.7680462766
1408228122674	67	3884979	397900	380	14	37.44641617	-122.16517739	4791830	1.5458331441e+12	19.7680462766
1408228122692	67	3883800	354900	381	14	37.44641617	-122.16517739	4791830	1.37836062e+12	19.7680462766
1408228122728	67	3868476	430000	381	14	37.44641617	-122.16517739	4791830	1.66344468e+12	19.7680462766
1408228122744	67	3865527	463800	380	14	37.44641617	-122.16517739	4791830	1.7928314226e+12	19.7680462766
1408228122759	67	3877905	497000	381	14	37.44641617	-122.16517739	4791830	1.927318785e+12	19.7680462766
1408228122790	67	3876729	310200	381	14	37.44641617	-122.16517739	4791830	1.2025613358e+12	19.7680462766
1408228122805	67	3877905	415000	381	14	37.44641617	-122.16517739	4791830	1.609330575e+12	19.7680462766
1408228122824	67	3873192	432900	381	14	37.44641617	-122.16517739	4791830	1.6767048168e+12	19.7680462766
1408228122875	67	3872601	513700	381	14	37.44641617	-122.16517739	4791830	1.9893551337e+12	19.7680462766
1408228122892	67	3877023	432200	382	14	37.44641617	-122.16517739	4791830	1.6756493406e+12	19.7680462766
1408228122910	67	3883212	418000	381	14	37.44641617	-122.16517739	4791830	1.623182616e+12	19.7680462766
1408228122927	67	3868476	361100	381	14	37.44641617	-122.16517739	4791830	1.3969066836e+12	19.7680462766
1408228122979	67	3877023	433400	381	14	37.44641617	-122.16517739	4791830	1.6803017682e+12	19.7680462766
1408228122996	67	3881739	386400	381	14	37.44641617	-122.16517739	4791830	1.4999039496e+12	19.7680462766
1408228123014	67	3884391	368100	381	14	37.44641617	-122.16517739	4791830	1.4298443271e+12	19.7680462766
1408228123082	67	3887337	371500	382	14	37.44641617	-122.16517739	4791830	1.4441456955e+12	19.7680462766
1408228123100	67	3884094	406400	381	14	37.44641617	-122.16517739	4791830	1.5784958016e+12	19.7680462766
1408228123117	67	3873780	386400	381	14	37.44641617	-122.16517739	4791830	1.496828592e+12	19.7680462766
1408228123169	67	3876138	410500	381	14	37.44641617	-122.16517739	4791830	1.591154649e+12	19.7680462766
1408228123186	67	3883212	397200	381	14	37.44641617	-122.16517739	4791830	1.5424118064e+12	19.7680462766
1408228123204	67	3881148	369800	381	14	37.44641617	-122.16517739	4791830	1.4352485304e+12	19.7680462766
1408228123276	67	3882327	414500	380	14	37.44641617	-122.16517739	4791830	1.6092245415e+12	19.7680462766
1408228123299	67	3870537	299800	381	14	37.44641617	-122.16517739	4791830	1.1603869926e+12	19.7680462766
1408228123317	67	3869655	409900	380	14	37.44641617	-122.16517739	4791830	1.5861715845e+12	19.7680462766
1408228123334	67	3869655	428800	380	14	37.44641617	-122.16517739	4791830	1.659308064e+12	19.7680462766
1408228123373	67	3870243	481600	380	14	37.44641617	-122.16517739	4791830	1.8639090288e+12	19.7680462766
1408228123390	67	3882918	478700	380	14	37.44641617	-122.16517739	4791830	1.8587528466e+12	19.7680462766
1408228123408	67	3879381	356500	380	14	37.44641617	-122.16517739	4791830	1.3829993265e+12	19.7680462766
1408228123440	67	3885864	383000	380	14	37.44641617	-122.16517739	4791830	1.488285912e+12	19.7680462766
1408228123462	67	3879675	345700	381	14	37.44641617	-122.16517739	4791830	1.3412036475e+12	19.7680462766
1408228123478	67	3871716	404700	380	14	37.44641617	-122.16517739	4791830	1.5668834652e+12	19.7680462766
1408228123524	67	3887928	279700	380	14	37.44641617	-122.16517739	4791830	1.0874534616e+12	19.7680462766
1408228123546	67	3892938	335300	380	14	37.44641617	-122.16517739	4791830	1.3053021114e+12	19.7680462766
1408228123572	67	3893232	266000	380	14	37.44641617	-122.16517739	4791830	1.035599712e+12	19.7680462766
1408228123645	67	3893526	329600	381	14	37.44641617	-122.16517739	4791830	1.2833061696e+12	19.7680462766
1408228123666	67	3879084	340500	380	14	37.44641617	-122.16517739	4791830	1.320828102e+12	19.7680462766
1408228123687	67	3878790	307200	380	14	37.44641617	-122.16517739	4791830	1.191564288e+12	19.7680462766
1408228123707	67	3881148	310700	380	14	37.44641617	-122.16517739	4791830	1.2058726836e+12	19.7680462766
1408228123740	67	3886452	486800	380	14	37.44641617	-122.16517739	4791830	1.8919248336e+12	19.7680462766
1408228123758	67	3881442	349700	380	14	37.44641617	-122.16517739	4791830	1.3573402674e+12	19.7680462766
1408228123783	67	3879969	327300	380	14	37.44641617	-122.16517739	4791830	1.2699138537e+12	19.7680462766
1408228123819	67	3870834	404100	380	14	37.44641617	-122.16517739	4791830	1.5642040194e+12	19.7680462766
1408228123836	67	3867885	427700	381	14	37.44641617	-122.16517739	4791830	1.6542944145e+12	19.7680462766
1408228123861	67	3887043	334800	381	14	37.44641617	-122.16517739	4791830	1.3013819964e+12	19.7680462766
1408228123925	67	3888810	347400	380	14	37.44641617	-122.16517739	4791830	1.350972594e+12	19.7680462766
1408228123950	67	3887928	322700	380	14	37.44641617	-122.16517739	4791830	1.2546343656e+12	19.7680462766
1408228123981	67	3897063	288300	380	14	37.44641617	-122.16517739	4791830	1.1235232629e+12	19.7680462766
1408228124092	67	3889107	343300	380	14	37.44641617	-122.16517739	4791830	1.3351304331e+12	19.7680462766
1408228124111	67	3884979	348500	380	14	37.44641617	-122.16517739	4791830	1.3539151815e+12	19.7680462766
1408228124131	67	3884979	393200	381	14	37.44641617	-122.16517739	4791830	1.5275737428e+12	19.7680462766
1408228124146	67	3874074	388700	380	14	37.44641617	-122.16517739	4791830	1.5058525638e+12	19.7680462766
1408228124188	67	3877317	492500	380	14	37.44641617	-122.16517739	4791830	1.9095786225e+12	19.7680462766
1408228124208	67	3872601	379000	381	14	37.44641617	-122.16517739	4791830	1.467715779e+12	19.7680462766
1408228124227	67	3875253	495300	380	14	37.44641617	-122.16517739	4791830	1.9194128109e+12	19.7680462766
1408228124305	67	3881442	434500	381	14	37.44641617	-122.16517739	4791830	1.686486549e+12	19.7680462766
1408228124321	67	3876729	397900	380	14	37.44641617	-122.16517739	4791830	1.5425504691e+12	19.7680462766
1408228124342	67	3878202	419600	380	14	37.44641617	-122.16517739	4791830	1.6272935592e+12	19.7680462766
1408228124380	67	3878202	419600	380	14	37.44653784	-122.16506182	4791830	1.6272935592e+12	36.7071103876
1408228124384	67	3867003	487800	380	14	37.44653784	-122.16506182	4791830	1.8863240634e+12	36.7071103876
1408228124403	67	3873486	495800	380	14	37.44653784	-122.16506182	4791830	1.9204743588e+12	36.7071103876
1408228124423	67	3852267	533800	381	14	37.44653784	-122.16506182	4791830	2.0563401246e+12	36.7071103876
1408228124472	67	3853446	572200	380	14	37.44653784	-122.16506182	4791830	2.2049418012e+12	36.7071103876
1408228124490	67	3854919	568700	380	14	37.44653784	-122.16506182	4791830	2.1922924353e+12	36.7071103876
1408228124508	67	3861402	525100	380	14	37.44653784	-122.16506182	4791830	2.0276221902e+12	36.7071103876
1408228124526	67	3858456	517100	380	14	37.44653784	-122.16506182	4791830	1.9952075976e+12	36.7071103876
1408228124592	67	3877317	540700	380	14	37.44653784	-122.16506182	4791830	2.0964653019e+12	36.7071103876
1408228124610	67	3879675	427700	380	14	37.44653784	-122.16506182	4791830	1.6593369975e+12	36.7071103876
1408228124629	67	3881442	392700	380	14	37.44653784	-122.16506182	4791830	1.5242422734e+12	36.7071103876
1408228124687	67	3888810	357700	380	14	37.44653784	-122.16506182	4791830	1.391027337e+12	36.7071103876
1408228124711	67	3891168	310200	380	14	37.44653784	-122.16506182	4791830	1.2070403136e+12	36.7071103876
1408228124731	67	3892641	328400	380	14	37.44653784	-122.16506182	4791830	1.2783433044e+12	36.7071103876
1408228124794	67	3892641	341100	381	14	37.44653784	-122.16506182	4791830	1.3277798451e+12	36.7071103876
1408228124816	67	3895296	342800	380	14	37.44653784	-122.16506182	4791830	1.3353074688e+12	36.7071103876
1408228124836	67	3894999	317000	380	14	37.44653784	-122.16506182	4791830	1.234714683e+12	36.7071103876
1408228124903	67	3894117	311200	380	14	37.44653784	-122.16506182	4791830	1.2118492104e+12	36.7071103876
1408228124923	67	3895590	331300	380	14	37.44653784	-122.16506182	4791830	1.290608967e+12	36.7071103876
1408228124942	67	3890286	322200	380	14	37.44653784	-122.16506182	4791830	1.2534501492e+12	36.7071103876
1408228124961	67	3889401	342200	381	14	37.44653784	-122.16506182	4791830	1.3309530222e+12	36.7071103876
1408228125039	67	3871422	300300	380	14	37.44653784	-122.16506182	4791830	1.1625880266e+12	36.7071103876
1408228125059	67	3879381	393900	380	14	37.44653784	-122.16506182	4791830	1.5280881759e+12	36.7071103876
1408228125076	67	3869655	396100	380	14	37.44653784	-122.16506182	4791830	1.5327703455e+12	36.7071103876
1408228125109	67	3876729	353700	380	14	37.44653784	-122.16506182	4791830	1.3711990473e+12	36.7071103876
1408228125127	67	3879084	352000	381	14	37.44653784	-122.16506182	4791830	1.365437568e+12	36.7071103876
1408228125144	67	3882621	431100	381	14	37.44653784	-122.16506182	4791830	1.6737979131e+12	36.7071103876
1408228125179	67	3867297	369800	380	14	37.44653784	-122.16506182	4791830	1.4301264306e+12	36.7071103876
1408228125199	67	3878790	335300	380	14	37.44653784	-122.16506182	4791830	1.300558287e+12	36.7071103876
1408228125219	67	3880560	395500	380	14	37.44653784	-122.16506182	4791830	1.53476148e+12	36.7071103876
1408228125274	67	3888810	295800	380	14	37.44653784	-122.16506182	4791830	1.150309998e+12	36.7071103876
1408228125295	67	3890580	298100	381	14	37.44653784	-122.16506182	4791830	1.159781898e+12	36.7071103876
1408228125318	67	3887631	338200	380	14	37.44653784	-122.16506182	4791830	1.3147968042e+12	36.7071103876
1408228125368	67	3895884	307800	380	14	37.44653784	-122.16506182	4791830	1.1991530952e+12	36.7071103876
1408228125405	67	3862581	503400	380	14	37.44653784	-122.16506182	4791830	1.9444232754e+12	36.7071103876
1408228125438	67	3877905	451100	380	14	37.44653784	-122.16506182	4791830	1.7493229455e+12	36.7071103876
1408228125457	67	3878496	474700	380	14	37.44653784	-122.16506182	4791830	1.8411220512e+12	36.7071103876
1408228125492	67	3874959	366900	380	14	37.44653784	-122.16506182	4791830	1.4217224571e+12	36.7071103876
1408228125515	67	3886158	330800	381	14	37.44653784	-122.16506182	4791830	1.2855410664e+12	36.7071103876
1408228125533	67	3887337	378300	380	14	37.44653784	-122.16506182	4791830	1.4705795871e+12	36.7071103876
1408228125565	67	3885570	395500	380	14	37.44653784	-122.16506182	4791830	1.536742935e+12	36.7071103876
1408228125586	67	3886452	389800	380	14	37.44653784	-122.16506182	4791830	1.5149389896e+12	36.7071103876
1408228125607	67	3888516	296300	380	14	37.44653784	-122.16506182	4791830	1.1521672908e+12	36.7071103876
1408228125683	67	3892053	305000	380	14	37.44653784	-122.16506182	4791830	1.187076165e+12	36.7071103876
1408228125702	67	3885273	416800	381	14	37.44653784	-122.16506182	4791830	1.6193817864e+12	36.7071103876
1408228125722	67	3882621	344500	381	14	37.44653784	-122.16506182	4791830	1.3375629345e+12	36.7071103876
1408228125742	67	3885570	369100	380	14	37.44653784	-122.16506182	4791830	1.434163887e+12	36.7071103876
1408228125777	67	3879969	488500	380	14	37.44653784	-122.16506182	4791830	1.8953648565e+12	36.7071103876
1408228125799	67	3875844	400100	381	14	37.44653784	-122.16506182	4791830	1.5507251844e+12	36.7071103876
1408228125819	67	3874371	407600	380	14	37.44653784	-122.16506182	4791830	1.5791936196e+12	36.7071103876
1408228125852	67	3881148	318200	380	14	37.44653784	-122.16506182	4791830	1.2349812936e+12	36.7071103876
1408228125872	67	3887043	294100	380	14	37.44653784	-122.16506182	4791830	1.1431793463e+12	36.7071103876
1408228125897	67	3891168	370900	381	14	37.44653784	-122.16506182	4791830	1.4432342112e+12	36.7071103876
1408228125961	67	3884391	311800	380	14	37.44653784	-122.16506182	4791830	1.2111531138e+12	36.7071103876
1408228125981	67	3900894	272300	380	14	37.44653784	-122.16506182	4791830	1.0622134362e+12	36.7071103876
1408228126004	67	3896475	303300	380	14	37.44653784	-122.16506182	4791830	1.1818008675e+12	36.7071103876
1408228126077	67	3887928	323300	380	14	37.44653784	-122.16506182	4791830	1.2569671224e+12	36.7071103876
1408228126096	67	3876432	432900	381	14	37.44653784	-122.16506182	4791830	1.6781074128e+12	36.7071103876
1408228126116	67	3874665	361100	381	14	37.44653784	-122.16506182	4791830	1.3991415315e+12	36.7071103876
1408228126136	67	3875253	316400	381	14	37.44653784	-122.16506182	4791830	1.2261300492e+12	36.7071103876
1408228126170	67	3882918	508500	380	14	37.44653784	-122.16506182	4791830	1.974463803e+12	36.7071103876
1408228126190	67	3887631	320400	380	14	37.44653784	-122.16506182	4791830	1.2455969724e+12	36.7071103876
1408228126209	67	3877611	380100	380	14	37.44653784	-122.16506182	4791830	1.4738799411e+12	36.7071103876
1408228126242	67	3880263	335300	380	14	37.44653784	-122.16506182	4791830	1.3010521839e+12	36.7071103876
1408228126265	67	3889107	342200	381	14	37.44653784	-122.16506182	4791830	1.3308524154e+12	36.7071103876
1408228126283	67	3889107	378300	380	14	37.44653784	-122.16506182	4791830	1.4712491781e+12	36.7071103876
1408228126354	67	3885273	311800	380	14	37.44653784	-122.16506182	4791830	1.2114281214e+12	36.7071103876
1408228126356	67	3885273	311800	380	14	37.44667028	-122.16493929	4791830	1.2114281214e+12	54.9723404276
1408228126373	67	3887043	339300	380	14	37.44667028	-122.16493929	4791830	1.3188736899e+12	54.9723404276
1408228126390	67	3869361	345100	380	14	37.44667028	-122.16493929	4791830	1.3353164811e+12	54.9723404276
1408228126424	67	3875550	463200	381	14	37.44667028	-122.16493929	4791830	1.79515476e+12	54.9723404276
1408228126446	67	3875844	313000	380	14	37.44667028	-122.16493929	4791830	1.213139172e+12	54.9723404276
1408228126466	67	3876729	353700	381	14	37.44667028	-122.16493929	4791830	1.3711990473e+12	54.9723404276
1408228126489	67	3878790	307800	381	14	37.44667028	-122.16493929	4791830	1.193891562e+12	54.9723404276
1408228126523	67	3876432	536000	381	14	37.44667028	-122.16493929	4791830	2.077767552e+12	54.9723404276
1408228126542	67	3883800	435100	380	14	37.44667028	-122.16493929	4791830	1.68984138e+12	54.9723404276
1408228126562	67	3887043	319200	380	14	37.44667028	-122.16493929	4791830	1.2407441256e+12	54.9723404276
1408228126613	67	3887337	344000	380	14	37.44667028	-122.16493929	4791830	1.337243928e+12	54.9723404276
1408228126636	67	3887928	367400	380	14	37.44667028	-122.16493929	4791830	1.4284247472e+12	54.9723404276
1408228126748	67	3863169	328400	380	14	37.44667028	-122.16493929	4791830	1.2686646996e+12	54.9723404276
1408228126783	67	3872307	504500	380	14	37.44667028	-122.16493929	4791830	1.9535788815e+12	54.9723404276
1408228126798	67	3881739	423700	381	14	37.44667028	-122.16493929	4791830	1.6446928143e+12	54.9723404276
1408228126817	67	3880263	457000	380	14	37.44667028	-122.16493929	4791830	1.773280191e+12	54.9723404276
1408228126848	67	3873192	411000	381	14	37.44667028	-122.16493929	4791830	1.591881912e+12	54.9723404276
1408228126863	67	3871128	485600	381	14	37.44667028	-122.16493929	4791830	1.8798197568e+12	54.9723404276
1408228126879	67	3873486	457500	381	14	37.44667028	-122.16493929	4791830	1.772119845e+12	54.9723404276
1408228126897	67	3872601	429400	380	14	37.44667028	-122.16493929	4791830	1.6628948694e+12	54.9723404276
1408228126935	67	3876138	478100	380	14	37.44667028	-122.16493929	4791830	1.8531815778e+12	54.9723404276
1408228126953	67	3872601	309000	380	14	37.44667028	-122.16493929	4791830	1.196633709e+12	54.9723404276
1408228126973	67	3874665	366900	380	14	37.44667028	-122.16493929	4791830	1.4216145885e+12	54.9723404276
1408228127045	67	3886452	397900	380	14	37.44667028	-122.16493929	4791830	1.5464192508e+12	54.9723404276
1408228127065	67	3882033	329100	380	14	37.44667028	-122.16493929	4791830	1.2775770603e+12	54.9723404276
1408228127085	67	3878496	325100	380	14	37.44667028	-122.16493929	4791830	1.2608990496e+12	54.9723404276
1408228127123	67	3872895	337100	380	14	37.44667028	-122.16493929	4791830	1.3055529045e+12	54.9723404276
1408228127145	67	3879675	361100	380	14	37.44667028	-122.16493929	4791830	1.4009506425e+12	54.9723404276
1408228127166	67	3877023	314200	380	14	37.44667028	-122.16493929	4791830	1.2181606266e+12	54.9723404276
1408228127202	67	3881148	290100	381	14	37.44667028	-122.16493929	4791830	1.1259210348e+12	54.9723404276
1408228127221	67	3884094	348000	381	14	37.44667028	-122.16493929	4791830	1.351664712e+12	54.9723404276
1408228127243	67	3889401	358200	381	14	37.44667028	-122.16493929	4791830	1.3931834382e+12	54.9723404276
1408228127266	67	3884391	365700	381	14	37.44667028	-122.16493929	4791830	1.4205217887e+12	54.9723404276
1408228127354	67	3876138	407000	380	14	37.44667028	-122.16493929	4791830	1.577588166e+12	54.9723404276
1408228127373	67	3870243	546400	380	14	37.44667028	-122.16493929	4791830	2.1147007752e+12	54.9723404276
1408228127390	67	3885570	435100	381	14	37.44667028	-122.16493929	4791830	1.690611507e+12	54.9723404276
1408228127423	67	3884685	384000	380	14	37.44667028	-122.16493929	4791830	1.49171904e+12	54.9723404276
1408228127444	67	3888810	378300	380	14	37.44667028	-122.16493929	4791830	1.471136823e+12	54.9723404276
1408228127465	67	3872601	296900	380	14	37.44667028	-122.16493929	4791830	1.1497752369e+12	54.9723404276
1408228127500	67	3875844	385200	380	14	37.44667028	-122.16493929	4791830	1.4929751088e+12	54.9723404276
1408228127516	67	3880854	408800	380	14	37.44667028	-122.16493929	4791830	1.5864931152e+12	54.9723404276
1408228127537	67	3889989	309000	380	14	37.44667028	-122.16493929	4791830	1.202006601e+12	54.9723404276
1408228127593	67	3893526	286600	381	14	37.44667028	-122.16493929	4791830	1.1158845516e+12	54.9723404276
1408228127615	67	3891462	313000	380	14	37.44667028	-122.16493929	4791830	1.218027606e+12	54.9723404276
1408228127638	67	3890286	302600	380	14	37.44667028	-122.16493929	4791830	1.1772005436e+12	54.9723404276
1408228127671	67	3893820	310200	380	14	37.44667028	-122.16493929	4791830	1.207862964e+12	54.9723404276
1408228127752	67	3900306	303800	380	14	37.44667028	-122.16493929	4791830	1.1849129628e+12	54.9723404276
1408228127777	67	3890580	275700	380	14	37.44667028	-122.16493929	4791830	1.072632906e+12	54.9723404276
1408228127801	67	3894117	279200	380	14	37.44667028	-122.16493929	4791830	1.0872374664e+12	54.9723404276
1408228127886	67	3899715	301500	380	14	37.44667028	-122.16493929	4791830	1.1757640725e+12	54.9723404276
1408228127903	67	3887631	322700	380	14	37.44667028	-122.16493929	4791830	1.2545385237e+12	54.9723404276
1408228127922	67	3887631	349700	380	14	37.44667028	-122.16493929	4791830	1.3595045607e+12	54.9723404276
1408228127954	67	3890874	366900	380	14	37.44667028	-122.16493929	4791830	1.4275616706e+12	54.9723404276
1408228127977	67	3878202	376100	381	14	37.44667028	-122.16493929	4791830	1.4585917722e+12	54.9723404276
1408228127996	67	3877611	329600	381	14	37.44667028	-122.16493929	4791830	1.2780605856e+12	54.9723404276
1408228128033	67	3879675	363400	380	14	37.44667028	-122.16493929	4791830	1.409873895e+12	54.9723404276
1408228128053	67	3888222	300300	380	14	37.44667028	-122.16493929	4791830	1.1676330666e+12	54.9723404276
1408228128076	67	3881739	323300	380	14	37.44667028	-122.16493929	4791830	1.2549662187e+12	54.9723404276
1408228128099	67	3890874	289400	380	14	37.44667028	-122.16493929	4791830	1.1260189356e+12	54.9723404276
1408228128162	67	3892938	333100	380	14	37.44667028	-122.16493929	4791830	1.2967376478e+12	54.9723404276
1408228128185	67	3894705	305000	380	14	37.44667028	-122.16493929	4791830	1.187885025e+12	54.9723404276
1408228128205	67	3881739	305000	380	14	37.44667028	-122.16493929	4791830	1.183930395e+12	54.9723404276
1408228128239	67	3876138	368100	380	14	37.44667028	-122.16493929	4791830	1.4268063978e+12	54.9723404276
1408228128256	67	3879084	353700	380	14	37.44667028	-122.16493929	4791830	1.3720320108e+12	54.9723404276
1408228128279	67	3876138	372600	380	14	37.44667028	-122.16493929	4791830	1.4442490188e+12	54.9723404276
1408228128314	67	3877023	319900	380	14	37.44667028	-122.16493929	4791830	1.2402596577e+12	54.9723404276
1408228128336	67	3883506	395000	381	14	37.44667028	-122.16493929	4791830	1.53398487e+12	54.9723404276
1408228128357	67	3879084	331900	381	14	37.44667028	-122.16493929	4791830	1.2874679796e+12	54.9723404276
1408228128361	67	3879084	331900	381	14	37.44674689	-122.16485308	4791830	1.2874679796e+12	66.3955393863
1408228128401	67	3867297	423700	380	14	37.44674689	-122.16485308	4791830	1.6385737389e+12	66.3955393863
1408228128422	67	3884979	369100	380	14	37.44674689	-122.16485308	4791830	1.4339457489e+12	66.3955393863
1408228128440	67	3897063	306100	380	14	37.44674689	-122.16485308	4791830	1.1928909843e+12	66.3955393863
1408228128459	67	3891168	315200	380	14	37.44674689	-122.16485308	4791830	1.2264961536e+12	66.3955393863
1408228128533	67	3899715	326200	380	14	37.44674689	-122.16485308	4791830	1.272087033e+12	66.3955393863
1408228128555	67	3885570	330800	380	14	37.44674689	-122.16485308	4791830	1.285346556e+12	66.3955393863
1408228128576	67	3878496	356000	380	14	37.44674689	-122.16485308	4791830	1.380744576e+12	66.3955393863
1408228128609	67	3879381	286100	380	14	37.44674689	-122.16485308	4791830	1.1098909041e+12	66.3955393863
1408228128629	67	3880560	402400	380	14	37.44674689	-122.16485308	4791830	1.561537344e+12	66.3955393863
1408228128649	67	3880854	303800	380	14	37.44674689	-122.16485308	4791830	1.1790034452e+12	66.3955393863
1408228128684	67	3876729	378300	380	14	37.44674689	-122.16485308	4791830	1.4665665807e+12	66.3955393863
1408228128706	67	3877317	268300	381	14	37.44674689	-122.16485308	4791830	1.0402841511e+12	66.3955393863
1408228128727	67	3879084	359400	381	14	37.44674689	-122.16485308	4791830	1.3941427896e+12	66.3955393863
1408228128776	67	3884685	325600	380	14	37.44674689	-122.16485308	4791830	1.264853436e+12	66.3955393863
1408228128799	67	3892641	307200	380	14	37.44674689	-122.16485308	4791830	1.1958193152e+12	66.3955393863
1408228128825	67	3896475	337600	380	14	37.44674689	-122.16485308	4791830	1.31544996e+12	66.3955393863
1408228128848	67	3896178	282600	380	14	37.44674689	-122.16485308	4791830	1.1010599028e+12	66.3955393863
1408228128928	67	3895884	318200	380	14	37.44674689	-122.16485308	4791830	1.2396702888e+12	66.3955393863
1408228128947	67	3878790	364100	380	14	37.44674689	-122.16485308	4791830	1.412267439e+12	66.3955393863
1408228128966	67	3872895	359400	380	14	37.44674689	-122.16485308	4791830	1.391918463e+12	66.3955393863
1408228128999	67	3875844	462700	380	14	37.44674689	-122.16485308	4791830	1.7933530188e+12	66.3955393863
1408228129016	67	3880854	372100	380	14	37.44674689	-122.16485308	4791830	1.4440657734e+12	66.3955393863
1408228129036	67	3882918	369800	380	14	37.44674689	-122.16485308	4791830	1.4359030764e+12	66.3955393863
1408228129068	67	3873486	317500	380	14	37.44674689	-122.16485308	4791830	1.229831805e+12	66.3955393863
1408228129086	67	3873780	350200	381	14	37.44674689	-122.16485308	4791830	1.356597756e+12	66.3955393863
1408228129106	67	3877905	339300	381	14	37.44674689	-122.16485308	4791830	1.3157731665e+12	66.3955393863
1408228129157	67	3877611	368600	380	14	37.44674689	-122.16485308	4791830	1.4292874146e+12	66.3955393863
1408228129179	67	3885864	328400	380	14	37.44674689	-122.16485308	4791830	1.2761177376e+12	66.3955393863
1408228129199	67	3890286	296300	380	14	37.44674689	-122.16485308	4791830	1.1526917418e+12	66.3955393863
1408228129218	67	3890580	291800	380	14	37.44674689	-122.16485308	4791830	1.135271244e+12	66.3955393863
1408228129286	67	3886749	323900	380	14	37.44674689	-122.16485308	4791830	1.2589180011e+12	66.3955393863
1408228129306	67	3879084	323300	381	14	37.44674689	-122.16485308	4791830	1.2541078572e+12	66.3955393863
1408228129331	67	3889989	271700	380	14	37.44674689	-122.16485308	4791830	1.0569100113e+12	66.3955393863
1408228129366	67	3868770	392700	380	14	37.44674689	-122.16485308	4791830	1.519265979e+12	66.3955393863
1408228129386	67	3874074	479900	380	14	37.44674689	-122.16485308	4791830	1.8591681126e+12	66.3955393863
1408228129405	67	3874665	278000	380	14	37.44674689	-122.16485308	4791830	1.07715687e+12	66.3955393863
1408228129440	67	3887928	337100	380	14	37.44674689	-122.16485308	4791830	1.3106205288e+12	66.3955393863
1408228129459	67	3876432	370300	381	14	37.44674689	-122.16485308	4791830	1.4354427696e+12	66.3955393863
1408228129479	67	3878496	349200	380	14	37.44674689	-122.16485308	4791830	1.3543708032e+12	66.3955393863
1408228129523	67	3886158	324400	380	14	37.44674689	-122.16485308	4791830	1.2606696552e+12	66.3955393863
1408228129547	67	3891462	290600	380	14	37.44674689	-122.16485308	4791830	1.1308588572e+12	66.3955393863
1408228129568	67	3892053	295200	380	14	37.44674689	-122.16485308	4791830	1.1489340456e+12	66.3955393863
1408228129590	67	3896178	263100	380	14	37.44674689	-122.16485308	4791830	1.0250844318e+12	66.3955393863
1408228129702	66	3876729	386400	380	14	37.44674689	-122.16485308	4791830	1.4979680856e+12	66.3955393863
1408228129749	66	3860223	468900	380	14	37.44674689	-122.16485308	4791830	1.8100585647e+12	66.3955393863
1408228129770	66	3872307	505000	380	14	37.44674689	-122.16485308	4791830	1.955515035e+12	66.3955393863
1408228129822	66	3869064	411600	380	14	37.44674689	-122.16485308	4791830	1.5925067424e+12	66.3955393863
1408228129839	66	3881442	394400	381	14	37.44674689	-122.16485308	4791830	1.5308407248e+12	66.3955393863
1408228129857	66	3879675	395500	381	14	37.44674689	-122.16485308	4791830	1.5344114625e+12	66.3955393863
1408228129910	66	3881739	391000	380	14	37.44674689	-122.16485308	4791830	1.517759949e+12	66.3955393863
1408228129930	66	3890580	386400	380	14	37.44674689	-122.16485308	4791830	1.503320112e+12	66.3955393863
1408228129949	66	3894999	301500	380	14	37.44674689	-122.16485308	4791830	1.1743421985e+12	66.3955393863
1408228130036	66	3892347	321600	380	14	37.44674689	-122.16485308	4791830	1.2517787952e+12	66.3955393863
1408228130056	66	3882918	309500	380	14	37.44674689	-122.16485308	4791830	1.201763121e+12	66.3955393863
1408228130075	66	3881739	310200	380	14	37.44674689	-122.16485308	4791830	1.2041154378e+12	66.3955393863
1408228130096	66	3883506	378300	380	14	37.44674689	-122.16485308	4791830	1.4691303198e+12	66.3955393863
1408228130131	66	3887337	483300	380	14	37.44674689	-122.16485308	4791830	1.8787499721e+12	66.3955393863
1408228130150	66	3887337	339300	380	14	37.44674689	-122.16485308	4791830	1.3189734441e+12	66.3955393863
1408228130168	66	3886158	344500	380	14	37.44674689	-122.16485308	4791830	1.338781431e+12	66.3955393863
1408228130203	66	3884391	387000	381	14	37.44674689	-122.16485308	4791830	1.503259317e+12	66.3955393863
1408228130222	66	3886749	325600	380	14	37.44674689	-122.16485308	4791830	1.2655254744e+12	66.3955393863
1408228130246	66	3885570	390400	380	14	37.44674689	-122.16485308	4791830	1.516926528e+12	66.3955393863
1408228130315	66	3884685	348000	380	14	37.44674689	-122.16485308	4791830	1.35187038e+12	66.3955393863
1408228130371	66	3901188	292900	380	14	37.44674689	-122.16485308	4791830	1.1426579652e+12	66.3955393863
1408228130391	66	3871128	307200	380	14	37.44674689	-122.16485308	4791830	1.1892105216e+12	66.3955393863
1408228130424	66	3873780	474700	380	14	37.44674689	-122.16485308	4791830	1.838883366e+12	66.3955393863
1408228130444	66	3890286	319900	380	14	37.44674689	-122.16485308	4791830	1.2445024914e+12	66.3955393863
1408228130465	66	3877317	266500	380	14	37.44674689	-122.16485308	4791830	1.0333049805e+12	66.3955393863
1408228130484	66	3891168	352000	380	14	37.44674689	-122.16485308	4791830	1.369691136e+12	66.3955393863
1408228130518	66	3874371	478700	380	14	37.44674689	-122.16485308	4791830	1.8546613977e+12	66.3955393863
1408228130537	66	3884391	369100	380	14	37.44674689	-122.16485308	4791830	1.4337287181e+12	66.3955393863
1408228130555	66	3881442	389200	380	14	37.44674689	-122.16485308	4791830	1.5106572264e+12	66.3955393863
1408228130597	66	3882327	331300	380	14	37.44674689	-122.16485308	4791830	1.2862149351e+12	66.3955393863
1408228130620	66	3889107	332500	380	14	37.44674689	-122.16485308	4791830	1.2931280775e+12	66.3955393863
1408228130652	66	3893526	296900	380	14	37.44674689	-122.16485308	4791830	1.1559878694e+12	66.3955393863
1408228130728	66	3893526	259600	380	14	37.44674689	-122.16485308	4791830	1.0107593496e+12	66.3955393863
1408228130749	66	3890580	339300	380	14	37.44674689	-122.16485308	4791830	1.320073794e+12	66.3955393863
1408228130767	66	3877611	321000	380	14	37.44674689	-122.16485308	4791830	1.244713131e+12	66.3955393863
1408228130803	66	3878496	374900	380	14	37.44674689	-122.16485308	4791830	1.4540481504e+12	66.3955393863
1408228130822	66	3890580	353700	380	14	37.44674689	-122.16485308	4791830	1.376098146e+12	66.3955393863
1408228130839	66	3890874	327900	380	14	37.44674689	-122.16485308	4791830	1.2758175846e+12	66.3955393863
1408228130859	66	3882327	408100	380	14	37.44674689	-122.16485308	4791830	1.5843776487e+12	66.3955393863
1408228130895	66	3882621	495800	380	14	37.44674689	-122.16485308	4791830	1.9250034918e+12	66.3955393863
1408228130915	66	3881739	340500	380	14	37.44674689	-122.16485308	4791830	1.3217321295e+12	66.3955393863
1408228130938	66	3890580	366900	380	14	37.44674689	-122.16485308	4791830	1.427453802e+12	66.3955393863
1408228130993	66	3874074	364600	380	14	37.44674689	-122.16485308	4791830	1.4124873804e+12	66.3955393863
1408228131013	66	3891759	410500	380	14	37.44674689	-122.16485308	4791830	1.5975670695e+12	66.3955393863
1408228131036	66	3895590	300300	380	14	37.44674689	-122.16485308	4791830	1.169845677e+12	66.3955393863
1408228131115	66	3897948	293500	380	14	37.44674689	-122.16485308	4791830	1.144047738e+12	66.3955393863
1408228131140	66	3895590	260300	380	14	37.44674689	-122.16485308	4791830	1.014022077e+12	66.3955393863
1408228131169	66	3886452	331300	380	14	37.44674689	-122.16485308	4791830	1.2875815476e+12	66.3955393863
1408228131203	66	3882033	353700	380	14	37.44674689	-122.16485308	4791830	1.3730750721e+12	66.3955393863
1408228131219	66	3880263	416800	380	14	37.44674689	-122.16485308	4791830	1.6172936184e+12	66.3955393863
1408228131234	66	3869064	508500	380	14	37.44674689	-122.16485308	4791830	1.967419044e+12	66.3955393863
1408228131250	66	3863466	492500	380	14	37.44674689	-122.16485308	4791830	1.902757005e+12	66.3955393863
1408228131290	66	3863466	498800	380	14	37.44674689	-122.16485308	4791830	1.9270968408e+12	66.3955393863
1408228131307	66	3865233	494800	380	14	37.44674689	-122.16485308	4791830	1.9125172884e+12	66.3955393863
1408228131327	66	3861402	491800	381	14	37.44674689	-122.16485308	4791830	1.8990375036e+12	66.3955393863
1408228131374	66	3858159	516600	380	14	37.44674689	-122.16485308	4791830	1.9931249394e+12	66.3955393863
1408228131375	66	3858159	516600	380	14	37.44681212	-122.16476489	4791830	1.9931249394e+12	77.0402744033
1408228131389	66	3843423	575600	381	14	37.44681212	-122.16476489	4791830	2.2122742788e+12	77.0402744033
1408228131405	66	3854034	648500	380	14	37.44681212	-122.16476489	4791830	2.499341049e+12	77.0402744033
1408228131440	66	3856098	543500	380	14	37.44681212	-122.16476489	4791830	2.095789263e+12	77.0402744033
1408228131456	66	3854328	548100	380	14	37.44681212	-122.16476489	4791830	2.1125571768e+12	77.0402744033
1408228131473	66	3856392	529800	380	14	37.44681212	-122.16476489	4791830	2.0431164816e+12	77.0402744033
1408228131502	66	3856392	548100	380	14	37.44681212	-122.16476489	4791830	2.1136884552e+12	77.0402744033
1408228131530	66	3840771	558400	381	14	37.44681212	-122.16476489	4791830	2.1446865264e+12	77.0402744033
1408228131546	66	3851676	624400	381	14	37.44681212	-122.16476489	4791830	2.4049864944e+12	77.0402744033
1408228131562	66	3855801	531500	380	14	37.44681212	-122.16476489	4791830	2.0493582315e+12	77.0402744033
1408228131591	66	3853149	610500	380	14	37.44681212	-122.16476489	4791830	2.3523474645e+12	77.0402744033
1408228131607	66	3855507	552700	380	14	37.44681212	-122.16476489	4791830	2.1309387189e+12	77.0402744033
1408228131624	66	3844014	565800	380	14	37.44681212	-122.16476489	4791830	2.1749431212e+12	77.0402744033
1408228131654	66	3856686	576700	380	14	37.44681212	-122.16476489	4791830	2.2241508162e+12	77.0402744033
1408228131689	66	3844308	528600	380	14	37.44681212	-122.16476489	4791830	2.0321012088e+12	77.0402744033
1408228131705	66	3854625	594600	381	14	37.44681212	-122.16476489	4791830	2.291960025e+12	77.0402744033
1408228131736	66	3837531	563600	380	14	37.44681212	-122.16476489	4791830	2.1628324716e+12	77.0402744033
1408228131751	66	3850203	655900	380	14	37.44681212	-122.16476489	4791830	2.5253481477e+12	77.0402744033
1408228131767	66	3852855	556100	381	14	37.44681212	-122.16476489	4791830	2.1425726655e+12	77.0402744033
1408228131797	66	3854919	601400	380	14	37.44681212	-122.16476489	4791830	2.3183482866e+12	77.0402744033
1408228131813	66	3846666	560600	380	14	37.44681212	-122.16476489	4791830	2.1564409596e+12	77.0402744033
1408228131829	66	3856392	542400	380	14	37.44681212	-122.16476489	4791830	2.0917070208e+12	77.0402744033
1408228131845	66	3870537	455800	380	14	37.44681212	-122.16476489	4791830	1.7641907646e+12	77.0402744033
1408228131875	66	3854919	594600	380	14	37.44681212	-122.16476489	4791830	2.2921348374e+12	77.0402744033
1408228131890	66	3866118	490100	381	14	37.44681212	-122.16476489	4791830	1.8947844318e+12	77.0402744033
1408228131906	66	3868182	489000	380	14	37.44681212	-122.16476489	4791830	1.891540998e+12	77.0402744033
1408228131935	66	3854625	423000	380	14	37.44681212	-122.16476489	4791830	1.630506375e+12	77.0402744033
1408228131951	66	3868182	506800	380	14	37.44681212	-122.16476489	4791830	1.9603946376e+12	77.0402744033
1408228131966	66	3870537	454600	380	14	37.44681212	-122.16476489	4791830	1.7595461202e+12	77.0402744033
1408228131995	66	3875844	485000	380	14	37.44681212	-122.16476489	4791830	1.87978434e+12	77.0402744033
1408228132010	66	3865233	477600	380	14	37.44681212	-122.16476489	4791830	1.8460352808e+12	77.0402744033
1408228132025	66	3867297	510800	380	14	37.44681212	-122.16476489	4791830	1.9754153076e+12	77.0402744033
1408228132055	66	3863466	489000	380	14	37.44681212	-122.16476489	4791830	1.889234874e+12	77.0402744033
1408228132070	66	3872601	454000	380	14	37.44681212	-122.16476489	4791830	1.758160854e+12	77.0402744033
1408228132086	66	3870834	512500	381	14	37.44681212	-122.16476489	4791830	1.983802425e+12	77.0402744033
1408228132101	66	3870834	524600	381	14	37.44681212	-122.16476489	4791830	2.0306395164e+12	77.0402744033
1408228132131	66	3862875	596800	381	14	37.44681212	-122.16476489	4791830	2.3053638e+12	77.0402744033
1408228132147	66	3869064	486800	381	14	37.44681212	-122.16476489	4791830	1.8834603552e+12	77.0402744033
1408228132162	66	3869361	452900	380	14	37.44681212	-122.16476489	4791830	1.7524335969e+12	77.0402744033
1408228132191	66	3856686	454000	380	14	37.44681212	-122.16476489	4791830	1.750935444e+12	77.0402744033
1408228132207	66	3868770	479900	380	14	37.44681212	-122.16476489	4791830	1.856622723e+12	77.0402744033
1408228132222	66	3868476	482700	380	14	37.44681212	-122.16476489	4791830	1.8673133652e+12	77.0402744033
1408228132251	66	3870834	467800	380	14	37.44681212	-122.16476489	4791830	1.8107761452e+12	77.0402744033
1408228132267	66	3872013	513100	380	14	37.44681212	-122.16476489	4791830	1.9867298703e+12	77.0402744033
1408228132282	66	3868770	467800	380	14	37.44681212	-122.16476489	4791830	1.809810606e+12	77.0402744033
1408228132311	66	3868476	474100	380	14	37.44681212	-122.16476489	4791830	1.8340444716e+12	77.0402744033
1408228132328	66	3868770	467200	380	14	37.44681212	-122.16476489	4791830	1.807489344e+12	77.0402744033
1408228132343	66	3870243	470100	380	14	37.44681212	-122.16476489	4791830	1.8194012343e+12	77.0402744033
1408228132359	66	3841362	502800	380	14	37.44681212	-122.16476489	4791830	1.9314368136e+12	77.0402744033
1408228132390	66	3849909	568700	380	14	37.44681212	-122.16476489	4791830	2.1894432483e+12	77.0402744033
1408228132405	66	3872013	440900	380	14	37.44681212	-122.16476489	4791830	1.7071705317e+12	77.0402744033
1408228132421	66	3859044	484400	380	14	37.44681212	-122.16476489	4791830	1.8693209136e+12	77.0402744033
1408228132455	66	3842541	454600	380	14	37.44681212	-122.16476489	4791830	1.7468191386e+12	77.0402744033
1408228132470	66	3842244	681700	380	14	37.44681212	-122.16476489	4791830	2.6192577348e+12	77.0402744033
1408228132486	66	3856686	552700	380	14	37.44681212	-122.16476489	4791830	2.1315903522e+12	77.0402744033
1408228132526	66	3854328	543500	380	14	37.44681212	-122.16476489	4791830	2.094827268e+12	77.0402744033
1408228132542	66	3826920	739600	380	14	37.44681212	-122.16476489	4791830	2.830390032e+12	77.0402744033
1408228132558	66	3845781	733900	380	14	37.44681212	-122.16476489	4791830	2.8224186759e+12	77.0402744033
1408228132589	66	3829278	685700	380	14	37.44681212	-122.16476489	4791830	2.6257359246e+12	77.0402744033
1408228132604	66	3818667	778600	380	14	37.44681212	-122.16476489	4791830	2.9732141262e+12	77.0402744033
1408228132621	66	3818667	789500	380	14	37.44681212	-122.16476489	4791830	3.0148375965e+12	77.0402744033
1408228132636	66	3816015	794100	380	14	37.44681212	-122.16476489	4791830	3.0302975115e+12	77.0402744033
1408228132668	66	3820437	782100	380	14	37.44681212	-122.16476489	4791830	2.9879637777e+12	77.0402744033
1408228132684	66	3811299	813000	380	14	37.44681212	-122.16476489	4791830	3.098586087e+12	77.0402744033
1408228132699	66	3809238	898400	380	14	37.44681212	-122.16476489	4791830	3.4222194192e+12	77.0402744033
1408228132729	66	3804816	845100	380	14	37.44681212	-122.16476489	4791830	3.2154500016e+12	77.0402744033
1408228132744	66	3818964	772200	380	14	37.44681212	-122.16476489	4791830	2.9490040008e+12	77.0402744033
1408228132760	66	3832815	800300	380	14	37.44681212	-122.16476489	4791830	3.0674018445e+12	77.0402744033
1408228132789	66	3836646	676500	380	14	37.44681212	-122.16476489	4791830	2.595491019e+12	77.0402744033
1408228132805	66	3833700	692000	381	14	37.44681212	-122.16476489	4791830	2.6529204e+12	77.0402744033
1408228132821	66	3818667	718300	381	14	37.44681212	-122.16476489	4791830	2.7429485061e+12	77.0402744033
1408228132850	66	3821319	750500	381	14	37.44681212	-122.16476489	4791830	2.8678999095e+12	77.0402744033
1408228132865	66	3833994	727000	381	14	37.44681212	-122.16476489	4791830	2.787313638e+12	77.0402744033
1408228132881	66	3828984	677600	381	14	37.44681212	-122.16476489	4791830	2.5945195584e+12	77.0402744033
1408228132896	66	3831045	620400	381	14	37.44681212	-122.16476489	4791830	2.376780318e+12	77.0402744033
1408228132926	66	3834582	759100	380	14	37.44681212	-122.16476489	4791830	2.9108311962e+12	77.0402744033
1408228132941	66	3833700	682300	380	14	37.44681212	-122.16476489	4791830	2.61573351e+12	77.0402744033
1408228132956	66	3835467	668400	380	14	37.44681212	-122.16476489	4791830	2.5636261428e+12	77.0402744033
1408228132988	66	3849024	689200	380	14	37.44681212	-122.16476489	4791830	2.6527473408e+12	77.0402744033
1408228133003	66	3853149	587100	380	14	37.44681212	-122.16476489	4791830	2.2621837779e+12	77.0402744033
1408228133019	66	3840771	646700	381	14	37.44681212	-122.16476489	4791830	2.4838266057e+12	77.0402744033
1408228133058	66	3852855	666800	380	14	37.44681212	-122.16476489	4791830	2.569083714e+12	77.0402744033
1408228133074	66	3857865	534300	380	14	37.44681212	-122.16476489	4791830	2.0612572695e+12	77.0402744033
1408228133095	66	3855213	526300	380	14	37.44681212	-122.16476489	4791830	2.0289986019e+12	77.0402744033
1408228133143	66	3853446	524000	380	14	37.44681212	-122.16476489	4791830	2.019205704e+12	77.0402744033
1408228133160	66	3855801	550400	380	14	37.44681212	-122.16476489	4791830	2.1222328704e+12	77.0402744033
1408228133178	66	3856392	543500	380	14	37.44681212	-122.16476489	4791830	2.095949052e+12	77.0402744033
1408228133201	66	3856392	497000	380	14	37.44681212	-122.16476489	4791830	1.916626824e+12	77.0402744033
1408228133253	66	3845487	620900	381	14	37.44681212	-122.16476489	4791830	2.3876628783e+12	77.0402744033
1408228133274	66	3850791	566500	380	14	37.44681212	-122.16476489	4791830	2.1814731015e+12	77.0402744033
1408228133298	66	3852561	521100	380	14	37.44681212	-122.16476489	4791830	2.0075695371e+12	77.0402744033
