Time	SOD	Volt	Current	Temp	Signal	Latitude	Longitude	CellID	Power	Distance
1408227056827	83	4012500	0	437	22	37.44706371250716	-122.16055054992715	4818529	0.0	12.5813825125
1408227062825	83	4012500	0	437	22	37.44699715006335	-122.16062959098383	4818529	0.0	22.7545446022
1408227067862	83	4012500	0	437	22	37.44691506144831	-122.16072178161693	4818529	0.0	34.9837366782
1408227070819	83	4012500	0	437	22	37.44683479907221	-122.16079086612919	4818529	0.0	45.787570878
1408227072326	83	4012500	0	437	20	37.44683479907221	-122.16079086612919	4818529	0.0	45.787570878
1408227074827	83	4012500	0	437	20	37.44676081031341	-122.16087212353108	4818529	0.0	56.7023552548
1408227080909	83	4012500	0	437	20	37.44668790058422	-122.16094977533068	4818529	0.0	67.3180877005
1408227081318	83	4012500	0	437	21	37.44668790058422	-122.16094977533068	4818529	0.0	67.3180877005
1408227085311	83	4023125	0	448	21	37.44668790058422	-122.16094977533068	4818529	0.0	67.3180877005
1408227089325	83	4023125	0	448	20	37.44668790058422	-122.16094977533068	4818529	0.0	67.3180877005
1408227111816	83	4023125	0	448	20	37.44658685191394	-122.16104229598815	4818529	0.0	81.2034169453
1408227113522	83	4023125	0	448	19	37.44658685191394	-122.16104229598815	4818529	0.0	81.2034169453
1408227113828	83	4023125	0	448	19	37.44647659082758	-122.16113178373263	4818529	0.0	95.7793944506
1408227115828	83	4023125	0	448	19	37.44637517016497	-122.16122302890908	4818529	0.0	109.632017835
1408227117533	83	4023125	0	448	18	37.44637517016497	-122.16122302890908	4818529	0.0	109.632017835
1408227117849	83	4023125	0	448	18	37.44626436060835	-122.16132444202427	4818529	0.0	124.85630504
1408227119922	83	4023125	0	448	18	37.446163439607055	-122.16142412505329	4818529	0.0	139.113401901
1408227121868	83	4023125	0	448	18	37.44608971991603	-122.16149966660674	4818529	0.0	149.678728157
1408227122521	83	4023125	0	448	17	37.44608971991603	-122.16149966660674	4818529	0.0	149.678728157
1408227128524	83	4023125	0	448	18	37.44608971991603	-122.16149966660674	4818529	0.0	149.678728157
1408227134874	83	4023125	0	448	18	37.44600505804274	-122.16157456522693	4818529	0.0	161.177260867
1408227136524	83	4023125	0	448	16	37.44600505804274	-122.16157456522693	4818529	0.0	161.177260867
1408227136856	83	4023125	0	448	16	37.44589858152792	-122.16167675733757	4818529	0.0	176.057590523
1408227137521	83	4023125	0	448	15	37.44589858152792	-122.16167675733757	4818529	0.0	176.057590523
1408227138524	83	4023125	0	448	14	37.44589858152792	-122.16167675733757	4818529	0.0	176.057590523
