Time	SOD	Volt	Current	Temp	Signal	Latitude	Longitude	CellID	Power	Distance
1408228130825	79	4017500	0	433	13	37.446787638903245	-122.16457944319977	4818529	0.0	16.0469594275
1408228132481	78	4005000	0	437	13	37.446787638903245	-122.16457944319977	4818529	0.0	16.0469594275
1408228132895	78	4005000	0	437	13	37.446691804680256	-122.16442540199378	4818529	0.0	33.3365395087
1408228134838	78	4005000	0	437	13	37.446588547680655	-122.16427408021757	4818529	0.0	50.9612746959
1408228136820	78	4005000	0	437	13	37.44648710271052	-122.16411708346227	4818529	0.0	68.8432003621
1408228138875	78	4005000	0	437	13	37.44638989200621	-122.16396098005355	4818529	0.0	86.370672168
1408228139816	78	4005000	0	437	15	37.44638989200621	-122.16396098005355	4818529	0.0	86.370672168
1408228140817	78	4005000	0	437	16	37.44638989200621	-122.16396098005355	4818529	0.0	86.370672168
1408228140893	78	4005000	0	437	16	37.446292823031456	-122.16380584753476	4818529	0.0	103.820814596
1408228142834	78	4005000	0	437	16	37.446203653076005	-122.16367100651429	4818529	0.0	119.322870875
1408228143820	78	4005000	0	437	17	37.446203653076005	-122.16367100651429	4818529	0.0	119.322870875
1408228144816	78	4005000	0	437	17	37.44612130548879	-122.16352870701787	4818529	0.0	134.881976489
1408228146828	78	4005000	0	437	17	37.446029587546896	-122.16337965436446	4818529	0.0	151.542822641
1408228148825	78	4005000	0	437	17	37.445926673480464	-122.16323099013142	4818529	0.0	168.964676019
1408228150824	78	4005000	0	437	17	37.44584521733021	-122.16310610409543	4818529	0.0	183.242474396
1408228152826	78	4005000	0	437	17	37.44577519083333	-122.1629903985615	4818529	0.0	196.096791961
1408228153824	78	4005000	0	437	16	37.44577519083333	-122.1629903985615	4818529	0.0	196.096791961
1408228154828	78	4005000	0	437	16	37.44569270437268	-122.16286447753096	4818529	0.0	210.517931825
1408228155818	78	4005000	0	437	15	37.44569270437268	-122.16286447753096	4818529	0.0	210.517931825
1408228156842	78	4005000	0	437	15	37.445606831364785	-122.16272610532609	4818529	0.0	226.034430937
1408228158860	78	4005000	0	437	15	37.44552078947394	-122.1625920137047	4818529	0.0	241.265552976
1408228160896	78	4005000	0	437	15	37.44546503316891	-122.16249097548233	4818529	0.0	252.138976947
1408228163830	78	4005000	0	437	15	37.44539793036256	-122.16239669469631	4818529	0.0	263.3223543
1408228171081	78	4005000	0	437	15	37.44539793036256	-122.16239669469631	4818530	0.0	263.3223543
1408228176688	78	4005000	0	437	14	37.44539793036256	-122.16239669469631	4818530	0.0	263.3223543
1408228181887	78	4005000	0	437	15	37.44539793036256	-122.16239669469631	4818530	0.0	263.3223543
1408228185006	78	4005000	0	437	16	37.44539793036256	-122.16239669469631	4818530	0.0	263.3223543
1408228185830	78	4005000	0	437	16	37.44531730521513	-122.16226497987228	4818530	0.0	278.016581485
1408228186006	78	4005000	0	437	17	37.44531730521513	-122.16226497987228	4818530	0.0	278.016581485
1408228187012	78	4005000	0	437	18	37.44531730521513	-122.16226497987228	4818530	0.0	278.016581485
