Time	SOD	Volt	Current	Temp	Signal	Latitude	Longitude	CellID	Power	Distance
1408227614828	81	4031250	0	433	19	37.448235499990226	-122.15912523100818	4818529	0.0	13.2942265691
1408227617856	81	4031250	0	433	19	37.44815811781424	-122.15901092320556	4818529	0.0	26.5632057943
1408227621814	81	4031250	0	433	19	37.44810661775067	-122.15890786353849	4818529	0.0	37.3257749205
1408227624858	81	4031250	0	433	19	37.44804083798887	-122.15880609017974	4818529	0.0	48.9188368382
1408227625308	81	4031250	0	433	20	37.44804083798887	-122.15880609017974	4818529	0.0	48.9188368382
1408227627906	81	4031250	0	433	20	37.44795840899935	-122.15869022220679	4818529	0.0	62.6597606453
1408227629835	81	4031250	0	433	20	37.447894340977264	-122.15860470283852	4818529	0.0	73.0436670253
1408227631815	81	4031250	0	433	20	37.44783176103266	-122.15850536532832	4818529	0.0	84.2465494779
1408227633845	81	4031250	0	433	20	37.4477636901929	-122.15840101323177	4818529	0.0	96.1771416139
1408227635861	81	4031250	0	433	20	37.44768939003424	-122.1582848020766	4818529	0.0	109.358342018
1408227636569	81	4031250	0	433	21	37.44768939003424	-122.1582848020766	4818529	0.0	109.358342018
1408227637868	81	4031250	0	433	21	37.44763067804581	-122.15818609079042	4818529	0.0	120.255815792
1408227642843	81	4031250	0	433	21	37.44755489298835	-122.15808740652257	4818529	0.0	132.380115082
1408227645822	81	4031250	0	433	21	37.447442749039105	-122.15813441367744	4818529	0.0	145.503179072
1408227647568	81	4031250	0	433	20	37.447442749039105	-122.15813441367744	4818529	0.0	145.503179072
1408227647826	81	4031250	0	433	20	37.447342282289945	-122.15822741158028	4818529	0.0	159.361383457
1408227649621	81	4031250	0	433	21	37.447342282289945	-122.15822741158028	4818529	0.0	159.361383457
1408227649910	81	4031250	0	433	21	37.4472324699867	-122.15833427350165	4818529	0.0	174.787096292
1408227651825	81	4031250	0	433	21	37.447114767318034	-122.15845393173477	4818529	0.0	191.602622121
1408227651975	80	4016875	0	433	21	37.447114767318034	-122.15845393173477	4818529	0.0	191.602622121
1408227652622	80	4016875	0	433	22	37.447114767318034	-122.15845393173477	4818529	0.0	191.602622121
1408227653629	80	4016875	0	433	23	37.447114767318034	-122.15845393173477	4818529	0.0	191.602622121
1408227653886	80	4016875	0	433	23	37.44699958703003	-122.15857712541025	4818529	0.0	208.4028974
1408227655817	80	4016875	0	433	23	37.446877530937286	-122.15870021012375	4818529	0.0	225.784852058
1408227657629	80	4016875	0	433	24	37.446877530937286	-122.15870021012375	4818529	0.0	225.784852058
1408227657845	80	4016875	0	433	24	37.446753979480576	-122.15882495676624	4818529	0.0	243.388311761
1408227658624	80	4016875	0	433	25	37.446753979480576	-122.15882495676624	4818529	0.0	243.388311761
1408227659817	80	4016875	0	433	25	37.446628836837554	-122.15894549122902	4818529	0.0	260.900216239
1408227661857	80	4016875	0	433	25	37.44652615499417	-122.15904103984393	4818529	0.0	275.090352314
1408227672851	80	4016875	0	433	25	37.44644612571896	-122.15913500656558	4818529	0.0	287.257128895
1408227673623	80	4016875	0	433	24	37.44644612571896	-122.15913500656558	4818529	0.0	287.257128895
1408227675620	80	4016875	0	433	23	37.44644612571896	-122.15913500656558	4818529	0.0	287.257128895
