Time	SOD	Volt	Current	Temp	Signal	Latitude	Longitude	CellID	Power	Distance
1408227982815	79	3999375	0	435	15	37.44576632105448	-122.1614625244021	4818529	0.0	21.3788460956
1408227984818	79	3999375	0	435	15	37.445676292558815	-122.16131435046825	4818529	0.0	37.8639324981
1408227985447	79	3999375	0	435	14	37.445676292558815	-122.16131435046825	4818529	0.0	37.8639324981
1408227986860	79	3999375	0	435	14	37.44558786517572	-122.16117664274135	4818529	0.0	53.5103255507
1408227987455	79	3999375	0	435	13	37.44558786517572	-122.16117664274135	4818529	0.0	53.5103255507
1408227988707	79	3999375	0	435	14	37.44558786517572	-122.16117664274135	4818529	0.0	53.5103255507
1408227988891	79	3999375	0	435	14	37.445503364119254	-122.16104140913248	4818529	0.0	68.7142276166
1408227990814	79	3999375	0	435	14	37.44542281544072	-122.16090024829901	4818529	0.0	84.0749477988
1408227991830	79	3999375	0	435	16	37.44542281544072	-122.16090024829901	4818529	0.0	84.0749477988
1408227992825	79	3999375	0	435	16	37.445339524233205	-122.16075903876208	4818529	0.0	99.6182620795
1408227993825	79	3999375	0	435	17	37.445339524233205	-122.16075903876208	4818529	0.0	99.6182620795
1408227994823	79	3999375	0	435	17	37.44525624843898	-122.16062861924185	4818529	0.0	114.403835177
1408227997822	79	3999375	0	435	17	37.445190487751	-122.16053254625719	4818529	0.0	125.608439589
1408227998960	79	3999375	0	435	15	37.445190487751	-122.16053254625719	4818529	0.0	125.608439589
1408227999964	79	3999375	0	435	14	37.445190487751	-122.16053254625719	4818529	0.0	125.608439589
1408228000960	79	3999375	0	435	13	37.445190487751	-122.16053254625719	4818529	0.0	125.608439589
1408228008826	79	3999375	0	435	13	37.44510452156962	-122.1604552224925	4818529	0.0	137.349365266
