Distance	Power
14.1519287003	1.34154363472e+12
34.4085535374	1.57633855909e+12
45.3326265339	1.43341939171e+12
64.7166486358	1.32410892065e+12
83.1675816505	1.38752593617e+12
93.5387475458	1.32975630416e+12
113.361744006	1.25121289811e+12
130.261016796	1.38996007958e+12
142.972199549	1.32178497875e+12
158.110357745	1.28703902257e+12
20.9947561908	1.27317916467e+12
31.0371073971	1.23091878134e+12
50.3202360347	1.3554563163e+12
68.8284356193	1.23093739287e+12
87.9808063587	1.2366294161e+12
98.3315068729	1.23659524064e+12
115.899426517	1.24465765823e+12
131.436448228	1.27107908243e+12
141.861202417	1.2421754459e+12
151.986486503	1.24992464213e+12
165.371622173	1.27868516461e+12
26.7385019865	1.29716707438e+12
37.0570028485	1.60398428943e+12
47.2835607948	1.68080869234e+12
65.7581829226	1.66908310153e+12
85.494423078	1.35779440121e+12
105.092164107	1.49519115918e+12
121.564967445	1.3439260656e+12
135.507324483	1.41035312347e+12
145.820322749	1.35407277931e+12
160.998813957	1.53832761464e+12
