Distance	Power
19.3627955032	1.45113390089e+12
30.7583650111	1.42337257288e+12
40.9654739204	1.38368186912e+12
52.8099923846	1.38259794611e+12
65.72498781	1.32850762462e+12
79.4968766966	1.35567749432e+12
14.3111192488	1.27261917081e+12
26.8852033902	1.32275621094e+12
37.3390973456	1.33005384835e+12
48.4775540814	1.29015276466e+12
58.6111179326	1.29568083126e+12
68.9614965276	1.26677461944e+12
11.5022122748	1.63497594083e+12
22.551605217	1.60400327041e+12
32.757553456	1.63725489538e+12
42.876018736	1.49144756855e+12
53.247518542	1.49411857415e+12
64.3247507768	2.40756243812e+12
77.0629548454	1.8562728664e+12
