Distance	Power
12.503493301	1.35162209766e+12
27.3343285099	1.36222849419e+12
44.4650420441	1.27675614152e+12
62.4482441828	1.34816941087e+12
80.8620876013	1.33509222808e+12
98.883492602	1.30437576098e+12
114.919629068	1.28189588559e+12
130.049433698	1.33032212725e+12
145.661223287	1.33790385368e+12
161.825857556	1.3499858912e+12
178.703011685	1.33613494779e+12
194.191659035	1.35570246286e+12
206.562852056	1.36732668457e+12
216.065474506	1.8158673624e+12
229.423857249	1.33515542358e+12
244.996056262	1.36326691525e+12
259.790066716	1.40553917761e+12
271.995671958	1.33035419253e+12
18.3060744915	1.26819395132e+12
35.3594020406	1.16604226812e+12
53.2135808031	1.2439764962e+12
71.8446200578	1.20913796916e+12
90.5115751579	1.20610401581e+12
107.882614775	1.21504916186e+12
122.426910967	1.28436240189e+12
137.55821034	1.22087441971e+12
154.194803749	1.2559016267e+12
170.923677446	1.24481109499e+12
185.353389957	1.24055380947e+12
198.527939973	1.24522671476e+12
214.705922521	1.25560933388e+12
230.50747873	1.24711835644e+12
245.381189311	1.29138234704e+12
256.178963178	1.26860484281e+12
266.288939157	1.24473918772e+12
12.5984248012	2.4203527663e+12
27.3856589091	1.72338531612e+12
44.5846745158	1.32197082085e+12
62.1763596139	2.82686941347e+12
87.8870487491	1.65897698927e+12
104.329029996	2.15114020004e+12
118.785468295	1.36841968815e+12
133.711685476	1.49834688171e+12
150.364623549	1.61267854766e+12
166.459748725	1.48674162144e+12
182.206270716	1.85293924977e+12
195.437411902	1.31491095468e+12
212.441976317	1.48397918173e+12
228.474722916	1.8570978345e+12
243.784380186	1.45554354098e+12
257.532726511	1.35706767208e+12
271.153471158	1.25829628111e+12
