Distance	Power
13.1956664618	1.3195034135e+12
24.8318917851	1.32948049319e+12
35.4849028442	1.28503524917e+12
46.9518858926	1.30494602162e+12
63.3301487968	1.30335054038e+12
73.9163988908	1.26353734985e+12
85.9592948876	1.32735045561e+12
99.0420097456	1.30556665889e+12
113.226628775	1.34269241976e+12
123.423202831	1.41451539667e+12
133.472577086	1.31622497193e+12
147.915489256	1.29062856866e+12
162.603597115	1.34526254459e+12
179.263194435	1.32768993029e+12
195.584818222	1.27905329577e+12
213.865318696	1.28540836666e+12
230.410562489	1.25182969727e+12
248.6901385	1.27820649997e+12
265.867284515	1.29998836216e+12
279.657636379	1.30879826149e+12
291.495538412	1.27942213403e+12
15.1220653343	1.19255434724e+12
27.2382242957	1.2174817417e+12
38.3754155175	1.18643806152e+12
51.253152569	1.19365707378e+12
63.0111636178	1.31904193189e+12
73.0635616196	1.18517846963e+12
84.9814444094	1.17106830528e+12
99.0983376732	1.33122486961e+12
112.958344849	1.19962852211e+12
126.070213123	1.18112416719e+12
140.235709099	1.21005548028e+12
152.755997687	1.18229612286e+12
166.258270841	1.18776929783e+12
183.638671674	1.18064984487e+12
202.888934308	1.16471402044e+12
219.435085673	1.16932417551e+12
236.562319056	1.19045229684e+12
252.008965969	1.16154799583e+12
267.998385016	1.20690716328e+12
278.396937638	1.18517407008e+12
17.278357047	1.64475704524e+12
29.1640181948	1.30561342889e+12
43.5994638804	1.26089854586e+12
55.3619458624	1.28920570126e+12
67.4190502153	1.2926727933e+12
78.4432554247	1.26962130646e+12
90.9402529874	1.26390319502e+12
105.21202723	1.25846432595e+12
117.586320515	1.36385074468e+12
128.40812801	1.3213223536e+12
139.995267673	1.2092301212e+12
153.442956992	1.33615638141e+12
169.73384701	1.3711964668e+12
187.214911387	1.29546017615e+12
205.234054164	1.27281072031e+12
222.611514859	1.35661371759e+12
239.734058546	1.35430830121e+12
256.642871753	1.25888304961e+12
272.282151352	1.27622638718e+12
283.646786516	1.55969222224e+12
