Distance	Power
9.75730352396	1.30081982805e+12
26.6564075495	1.33828087736e+12
42.7620444532	1.33913186057e+12
56.5208495176	1.33228933095e+12
68.5150899105	1.32912291615e+12
20.3832381419	1.22639128063e+12
35.8467933621	1.25822511498e+12
50.1796524208	1.50501009193e+12
60.5621390409	1.37569442708e+12
72.1513393813	1.24673355668e+12
11.0879577099	1.4713115361e+12
26.6203898413	1.40118823701e+12
42.8711325627	1.38868446138e+12
56.0608658525	1.34883600427e+12
67.3521455978	1.39817393834e+12
