Distance	Power
9.09470920668	1.33433917228e+12
25.5824677333	1.36344055632e+12
42.1953840845	1.35618330601e+12
56.5084259721	1.36331358322e+12
71.2716244849	1.32261910495e+12
85.9280535494	1.34201546193e+12
101.861705444	1.31685916375e+12
118.146250465	1.40076437200e+12
128.615540476	1.43304554563e+12
12.001246074	1.29031326887e+12
30.4841950436	1.3391193795e+12
46.3812292108	1.27369133594e+12
62.1304222844	1.31081705597e+12
77.1411488645	1.23391032927e+12
92.2499797034	1.24527746456e+12
108.441660196	1.38503257852e+12
121.711328624	1.27666463992e+12
131.870742295	1.24785312783e+12
20.0933641679	1.39091531347e+12
36.3865015494	1.63943915853e+12
51.9569082438	1.41951929937e+12
66.2681665813	1.37487983372e+12
81.371844054	1.40940425973e+12
96.6657428918	1.40368802927e+12
111.491436138	1.80516874924e+12
123.223518226	2.19546229946e+12
