Distance	Power
10.8155373185	1.35126794597e+12
25.57743978	1.38776479478e+12
43.0968821574	1.31291220525e+12
60.4516955379	1.37361731818e+12
77.8550689443	1.38025732894e+12
95.2797972576	1.47422984356e+12
110.215749606	1.39412247889e+12
120.844734371	1.37578262359e+12
134.368307061	1.31706672593e+12
146.915816528	1.25350118089e+12
161.286273257	1.30440744846e+12
174.145551364	1.43453674337e+12
185.23521381	1.37073890295e+12
198.844208874	1.40331470425e+12
211.988571015	1.41462947427e+12
225.325836247	1.40345829578e+12
236.655119201	1.45915638524e+12
250.400584087	1.46481947095e+12
261.896985202	1.40743007384e+12
272.01858964	1.40894998358e+12
10.532935914	1.29346878952e+12
23.8223804877	1.30268774311e+12
40.9180025964	1.31361765868e+12
57.8383857614	1.34742362509e+12
75.5808198077	1.29830614444e+12
93.1171483385	1.35508119274e+12
109.290678063	1.31306823246e+12
122.567227292	1.32522978033e+12
136.486911016	1.26479000667e+12
147.774537084	1.20975713091e+12
159.876969677	1.491933349e+12
172.679873544	1.33030159637e+12
185.450689962	1.31515171844e+12
198.404805812	1.30890177747e+12
212.412195457	1.28030863279e+12
226.159174094	1.30952674413e+12
238.620381264	1.37017344548e+12
249.169131065	1.28506385235e+12
260.953128071	1.33134624554e+12
272.101588095	1.39024586626e+12
282.554800619	1.32330730952e+12
8.13260228081	1.56439079421e+12
25.5789375377	1.53199104196e+12
42.7126753579	1.56306069154e+12
59.2885554672	1.54029311582e+12
76.0766148504	1.69649467875e+12
94.2161507039	1.59601436772e+12
110.354902862	1.53380725623e+12
120.6930407	1.62643830901e+12
134.420973434	2.33896268643e+12
145.381584843	2.41679034284e+12
158.503403747	1.78402081601e+12
170.442798112	1.52439326598e+12
182.9827934	2.2719908712e+12
196.581866799	2.46194828896e+12
211.080821084	2.21565415849e+12
225.656150535	2.37367816879e+12
237.535187598	1.66410085314e+12
250.750285128	1.71690738659e+12
261.906665283	1.70373308643e+12
272.768989538	1.67598398914e+12
